45
12
7.409574468085106
7.294736842105266
0.29787234042553123
4.734210526315792
-0.6515957446808516
12.692105263157899
6.776595744680851
7.847368421052636
-2.1037234042553195
9.597368421052629
3.63031914893617
12.010526315789477
7.409574468085106
7.294736842105266
0.29787234042553123
4.734210526315792
-0.42819148936170226
12.636842105263156
6.776595744680851
7.847368421052636
-2.1037234042553195
9.597368421052629
3.63031914893617
12.010526315789477
7.409574468085106
7.294736842105266
0.29787234042553123
4.734210526315792
-0.33510638297872397
12.600000000000001
6.776595744680851
7.847368421052636
-2.1037234042553195
9.597368421052629
3.63031914893617
12.010526315789477
7.409574468085106
7.294736842105266
0.29787234042553123
4.734210526315792
-0.18617021276595747
12.56315789473684
6.776595744680851
7.847368421052636
-2.1037234042553195
9.597368421052629
3.63031914893617
12.010526315789477
7.409574468085106
7.294736842105266
0.29787234042553123
4.734210526315792
-0.11170212765957466
12.526315789473685
6.776595744680851
7.847368421052636
-2.1037234042553195
9.597368421052629
3.63031914893617
12.010526315789477
7.409574468085106
7.294736842105266
0.29787234042553123
4.734210526315792
-0.03723404255319185
12.507894736842104
6.776595744680851
7.847368421052636
-2.1037234042553195
9.597368421052629
3.63031914893617
12.010526315789477
8.26595744680851
7.294736842105266
0.29787234042553123
4.734210526315792
-0.03723404255319185
12.507894736842104
6.776595744680851
7.847368421052636
-2.1037234042553195
9.597368421052629
3.63031914893617
12.010526315789477
8.13563829787234
7.184210526315788
0.29787234042553123
4.734210526315792
-0.03723404255319185
12.507894736842104
6.776595744680851
7.847368421052636
-2.1037234042553195
9.597368421052629
3.63031914893617
12.010526315789477
8.061170212765957
7.128947368421052
0.29787234042553123
4.734210526315792
-0.03723404255319185
12.507894736842104
6.776595744680851
7.847368421052636
-2.1037234042553195
9.597368421052629
3.63031914893617
12.010526315789477
7.949468085106382
7.036842105263162
0.29787234042553123
4.734210526315792
-0.03723404255319185
12.507894736842104
6.776595744680851
7.847368421052636
-2.1037234042553195
9.597368421052629
3.63031914893617
12.010526315789477
7.502659574468085
6.705263157894734
0.29787234042553123
4.734210526315792
-0.03723404255319185
12.507894736842104
6.776595744680851
7.847368421052636
-2.1037234042553195
9.597368421052629
3.63031914893617
12.010526315789477
7.186170212765957
6.502631578947366
0.29787234042553123
4.734210526315792
-0.03723404255319185
12.507894736842104
6.776595744680851
7.847368421052636
-2.1037234042553195
9.597368421052629
3.63031914893617
12.010526315789477
6.3484042553191475
6.023684210526319
0.29787234042553123
4.734210526315792
-0.03723404255319185
12.507894736842104
6.776595744680851
7.847368421052636
-2.1037234042553195
9.597368421052629
3.63031914893617
12.010526315789477
5.827127659574467
5.765789473684208
0.29787234042553123
4.734210526315792
-0.03723404255319185
12.507894736842104
6.776595744680851
7.847368421052636
-2.1037234042553195
9.597368421052629
3.63031914893617
12.010526315789477
4.7287234042553195
5.268421052631581
0.29787234042553123
4.734210526315792
-0.03723404255319185
12.507894736842104
6.776595744680851
7.847368421052636
-2.1037234042553195
9.597368421052629
3.63031914893617
12.010526315789477
4.170212765957446
5.010526315789477
0.29787234042553123
4.734210526315792
-0.03723404255319185
12.507894736842104
6.776595744680851
7.847368421052636
-2.1037234042553195
9.597368421052629
3.63031914893617
12.010526315789477
3.164893617021276
4.60526315789474
0.29787234042553123
4.734210526315792
-0.03723404255319185
12.507894736842104
6.776595744680851
7.847368421052636
-2.1037234042553195
9.597368421052629
3.63031914893617
12.010526315789477
2.7367021276595747
4.457894736842107
0.29787234042553123
4.734210526315792
-0.03723404255319185
12.507894736842104
6.776595744680851
7.847368421052636
-2.1037234042553195
9.597368421052629
3.63031914893617
12.010526315789477
2.0106382978723403
4.255263157894738
0.29787234042553123
4.734210526315792
-0.03723404255319185
12.507894736842104
6.776595744680851
7.847368421052636
-2.1037234042553195
9.597368421052629
3.63031914893617
12.010526315789477
1.4893617021276597
4.181578947368422
0.29787234042553123
4.734210526315792
-0.03723404255319185
12.507894736842104
6.776595744680851
7.847368421052636
-2.1037234042553195
9.597368421052629
3.63031914893617
12.010526315789477
1.3962765957446805
4.163157894736841
0.29787234042553123
4.734210526315792
-0.03723404255319185
12.507894736842104
6.776595744680851
7.847368421052636
-2.1037234042553195
9.597368421052629
3.63031914893617
12.010526315789477
1.3962765957446805
4.163157894736841
0.29787234042553123
4.734210526315792
-0.03723404255319185
12.507894736842104
6.776595744680851
7.847368421052636
-2.1037234042553195
9.597368421052629
3.63031914893617
12.010526315789477
1.3962765957446805
4.163157894736841
0.29787234042553123
4.734210526315792
-0.16755319148936199
12.544736842105266
6.776595744680851
7.847368421052636
-2.047872340425532
9.763157894736842
3.63031914893617
12.010526315789477
1.3962765957446805
4.163157894736841
0.29787234042553123
4.734210526315792
-0.26063829787234116
12.544736842105266
6.776595744680851
7.847368421052636
-1.9547872340425538
9.836842105263159
3.63031914893617
12.010526315789477
1.3962765957446805
4.163157894736841
0.29787234042553123
4.734210526315792
-0.35372340425531945
12.544736842105266
6.776595744680851
7.847368421052636
-1.8244680851063828
9.965789473684211
3.63031914893617
12.010526315789477
1.3962765957446805
4.163157894736841
0.29787234042553123
4.734210526315792
-0.5957446808510642
12.507894736842104
6.776595744680851
7.847368421052636
-1.4335106382978724
10.352631578947374
3.63031914893617
12.010526315789477
1.3962765957446805
4.163157894736841
0.29787234042553123
4.734210526315792
-1.0053191489361701
12.360526315789471
6.776595744680851
7.847368421052636
-1.210106382978724
10.573684210526316
3.63031914893617
12.010526315789477
1.3962765957446805
4.163157894736841
0.29787234042553123
4.734210526315792
-1.247340425531915
12.268421052631581
6.776595744680851
7.847368421052636
-0.7632978723404262
11.071052631578944
3.63031914893617
12.010526315789477
1.3962765957446805
4.163157894736841
0.29787234042553123
4.734210526315792
-1.7686170212765964
12.047368421052632
6.776595744680851
7.847368421052636
-0.5585106382978724
11.292105263157893
3.63031914893617
12.010526315789477
1.3962765957446805
4.163157894736841
0.29787234042553123
4.734210526315792
-2.047872340425532
11.863157894736844
6.776595744680851
7.847368421052636
-0.16755319148936199
11.69736842105263
3.63031914893617
12.010526315789477
1.3962765957446805
4.163157894736841
0.29787234042553123
4.734210526315792
-2.587765957446809
11.47631578947368
6.776595744680851
7.847368421052636
-0.01861702127659637
11.863157894736844
3.63031914893617
12.010526315789477
1.3962765957446805
4.163157894736841
0.29787234042553123
4.734210526315792
-2.8856382978723403
11.255263157894738
6.776595744680851
7.847368421052636
0.22340425531914843
12.102631578947374
3.63031914893617
12.010526315789477
1.3962765957446805
4.163157894736841
0.29787234042553123
4.734210526315792
-3.388297872340426
10.776315789473685
6.776595744680851
7.847368421052636
0.3351063829787231
12.194736842105264
3.63031914893617
12.010526315789477
1.3962765957446805
4.163157894736841
0.29787234042553123
4.734210526315792
-3.6117021276595747
10.518421052631581
6.776595744680851
7.847368421052636
0.4840425531914887
12.286842105263155
3.63031914893617
12.010526315789477
1.3962765957446805
4.163157894736841
0.29787234042553123
4.734210526315792
-4.0212765957446805
10.002631578947366
6.776595744680851
7.847368421052636
0.4840425531914887
12.286842105263155
3.63031914893617
12.010526315789477
1.3962765957446805
4.163157894736841
0.29787234042553123
4.734210526315792
-4.151595744680851
9.781578947368416
6.776595744680851
7.847368421052636
0.4840425531914887
12.286842105263155
3.63031914893617
12.010526315789477
1.3962765957446805
4.163157894736841
0.29787234042553123
4.734210526315792
-4.300531914893617
9.542105263157893
6.776595744680851
7.847368421052636
0.4840425531914887
12.286842105263155
3.63031914893617
12.010526315789477
1.3962765957446805
4.163157894736841
0.29787234042553123
4.734210526315792
-4.50531914893617
9.118421052631575
6.776595744680851
7.847368421052636
0.4840425531914887
12.286842105263155
3.63031914893617
12.010526315789477
1.3962765957446805
4.163157894736841
0.29787234042553123
4.734210526315792
-4.598404255319149
8.934210526315788
6.776595744680851
7.847368421052636
0.4840425531914887
12.286842105263155
3.63031914893617
12.010526315789477
1.3962765957446805
4.163157894736841
0.29787234042553123
4.734210526315792
-4.7287234042553195
8.602631578947374
6.776595744680851
7.847368421052636
0.4840425531914887
12.286842105263155
3.63031914893617
12.010526315789477
1.3962765957446805
4.163157894736841
0.29787234042553123
4.734210526315792
-4.784574468085106
8.455263157894734
6.776595744680851
7.847368421052636
0.4840425531914887
12.286842105263155
3.63031914893617
12.010526315789477
1.3962765957446805
4.163157894736841
0.29787234042553123
4.734210526315792
-4.821808510638299
8.32631578947369
6.776595744680851
7.847368421052636
0.4840425531914887
12.286842105263155
3.63031914893617
12.010526315789477
1.3962765957446805
4.163157894736841
0.29787234042553123
4.734210526315792
-4.85904255319149
8.142105263157895
6.776595744680851
7.847368421052636
0.4840425531914887
12.286842105263155
3.63031914893617
12.010526315789477
1.3962765957446805
4.163157894736841
0.29787234042553123
4.734210526315792
-4.85904255319149
8.086842105263159
6.776595744680851
7.847368421052636
0.4840425531914887
12.286842105263155
3.63031914893617
12.010526315789477
1.787234042553191
4.181578947368422
0.29787234042553123
4.734210526315792
-4.85904255319149
8.086842105263159
6.776595744680851
7.847368421052636
0.4840425531914887
12.286842105263155
3.63031914893617
12.010526315789477
