45
12
7.316489361702127
7.055263157894736
3.7606382978723403
5.342105263157897
3.574468085106382
11.992105263157896
0.13031914893617014
12.268421052631581
1.1542553191489358
10.094736842105263
-1.7686170212765964
8.41842105263158
7.316489361702127
7.055263157894736
3.4255319148936163
5.231578947368419
3.574468085106382
11.992105263157896
0.13031914893617014
12.268421052631581
1.1542553191489358
10.444736842105264
-1.7686170212765964
8.41842105263158
7.316489361702127
7.055263157894736
3.0159574468085104
5.065789473684212
3.574468085106382
11.992105263157896
0.13031914893617014
12.268421052631581
1.1728723404255312
10.757894736842104
-1.7686170212765964
8.41842105263158
7.316489361702127
7.055263157894736
2.289893617021276
4.844736842105263
3.574468085106382
11.992105263157896
0.13031914893617014
12.268421052631581
1.1728723404255312
11.292105263157893
-1.7686170212765964
8.41842105263158
7.316489361702127
7.055263157894736
1.8617021276595747
4.752631578947366
3.574468085106382
11.992105263157896
0.13031914893617014
12.268421052631581
1.1542553191489358
11.513157894736842
-1.7686170212765964
8.41842105263158
7.316489361702127
7.055263157894736
1.4707446808510642
4.715789473684211
3.574468085106382
11.992105263157896
0.13031914893617014
12.268421052631581
1.1356382978723403
11.899999999999999
-1.7686170212765964
8.41842105263158
7.316489361702127
7.055263157894736
0.6702127659574462
4.734210526315792
3.574468085106382
11.992105263157896
0.13031914893617014
12.268421052631581
1.1170212765957448
12.065789473684205
-1.7686170212765964
8.41842105263158
7.316489361702127
7.055263157894736
0.27925531914893575
4.789473684210527
3.574468085106382
11.992105263157896
0.13031914893617014
12.268421052631581
1.079787234042552
12.194736842105264
-1.7686170212765964
8.41842105263158
7.316489361702127
7.055263157894736
-0.0744680851063837
4.863157894736844
3.574468085106382
11.992105263157896
0.13031914893617014
12.268421052631581
1.0239361702127656
12.47105263157895
-1.7686170212765964
8.41842105263158
7.316489361702127
7.055263157894736
-0.3909574468085113
4.9184210526315795
3.574468085106382
11.992105263157896
0.13031914893617014
12.268421052631581
0.9867021276595738
12.58157894736842
-1.7686170212765964
8.41842105263158
7.316489361702127
7.055263157894736
-1.0611702127659575
5.084210526315786
3.574468085106382
11.992105263157896
0.13031914893617014
12.268421052631581
0.9680851063829783
12.692105263157899
-1.7686170212765964
8.41842105263158
7.316489361702127
7.055263157894736
-1.3590425531914896
5.194736842105264
3.574468085106382
11.992105263157896
0.13031914893617014
12.268421052631581
0.9308510638297864
12.784210526315789
-1.7686170212765964
8.41842105263158
7.316489361702127
7.055263157894736
-1.6941489361702127
5.3236842105263165
3.574468085106382
11.992105263157896
0.13031914893617014
12.268421052631581
0.8377659574468082
12.949999999999996
-1.7686170212765964
8.41842105263158
7.316489361702127
7.055263157894736
-1.9734042553191493
5.471052631578949
3.574468085106382
11.992105263157896
0.13031914893617014
12.268421052631581
0.7819148936170208
13.005263157894738
-1.7686170212765964
8.41842105263158
7.316489361702127
7.055263157894736
-2.5319148936170217
5.765789473684208
3.574468085106382
11.992105263157896
0.13031914893617014
12.268421052631581
0.707446808510638
13.060526315789474
-1.7686170212765964
8.41842105263158
7.316489361702127
7.055263157894736
-2.792553191489362
5.931578947368422
3.574468085106382
11.992105263157896
0.13031914893617014
12.268421052631581
0.539893617021276
13.152631578947371
-1.7686170212765964
8.41842105263158
7.316489361702127
7.055263157894736
-2.960106382978724
6.060526315789474
3.574468085106382
11.992105263157896
0.13031914893617014
12.268421052631581
0.4654255319148932
13.171052631578945
-1.7686170212765964
8.41842105263158
7.316489361702127
7.055263157894736
-3.2393617021276597
6.300000000000004
3.574468085106382
11.992105263157896
0.13031914893617014
12.268421052631581
0.2420212765957439
13.244736842105262
-1.7686170212765964
8.41842105263158
7.316489361702127
7.055263157894736
-3.3138297872340425
6.373684210526314
3.574468085106382
11.992105263157896
0.13031914893617014
12.268421052631581
0.11170212765957377
13.263157894736842
-1.7686170212765964
8.41842105263158
7.316489361702127
7.055263157894736
-3.3138297872340425
6.373684210526314
3.574468085106382
11.992105263157896
0.13031914893617014
12.268421052631581
-0.16755319148936199
13.281578947368423
-1.7686170212765964
8.41842105263158
7.316489361702127
7.055263157894736
-3.3138297872340425
6.373684210526314
3.574468085106382
11.992105263157896
0.13031914893617014
12.268421052631581
-0.2978723404255321
13.281578947368423
-1.7686170212765964
8.41842105263158
7.316489361702127
7.055263157894736
-3.3138297872340425
6.373684210526314
3.574468085106382
11.992105263157896
0.13031914893617014
12.268421052631581
-0.5957446808510642
13.281578947368423
-1.7686170212765964
8.41842105263158
7.316489361702127
7.055263157894736
-3.3138297872340425
6.373684210526314
3.574468085106382
11.992105263157896
0.13031914893617014
12.268421052631581
-0.7632978723404262
13.281578947368423
-1.7686170212765964
8.41842105263158
7.316489361702127
7.055263157894736
-3.3138297872340425
6.373684210526314
3.574468085106382
11.992105263157896
0.13031914893617014
12.268421052631581
-1.1356382978723403
13.22631578947368
-1.7686170212765964
8.41842105263158
7.316489361702127
7.055263157894736
-3.3138297872340425
6.373684210526314
3.574468085106382
11.992105263157896
0.13031914893617014
12.268421052631581
-1.3218085106382977
13.171052631578945
-1.7686170212765964
8.41842105263158
7.316489361702127
7.055263157894736
-3.3138297872340425
6.373684210526314
3.574468085106382
11.992105263157896
0.13031914893617014
12.268421052631581
-1.6941489361702127
12.986842105263158
-1.7686170212765964
8.41842105263158
7.316489361702127
7.055263157894736
-3.3138297872340425
6.373684210526314
3.574468085106382
11.992105263157896
0.13031914893617014
12.268421052631581
-1.8617021276595747
12.89473684210526
-1.7686170212765964
8.41842105263158
7.316489361702127
7.055263157894736
-3.3138297872340425
6.373684210526314
3.574468085106382
11.992105263157896
0.13031914893617014
12.268421052631581
-2.0292553191489366
12.80263157894737
-1.7686170212765964
8.41842105263158
7.316489361702127
7.055263157894736
-3.3138297872340425
6.373684210526314
3.574468085106382
11.992105263157896
0.13031914893617014
12.268421052631581
-2.252659574468085
12.636842105263156
-1.7686170212765964
8.41842105263158
7.316489361702127
7.055263157894736
-3.3138297872340425
6.373684210526314
3.574468085106382
11.992105263157896
0.13031914893617014
12.268421052631581
-2.3457446808510642
12.544736842105266
-1.7686170212765964
8.41842105263158
7.316489361702127
7.055263157894736
-3.3138297872340425
6.373684210526314
3.574468085106382
11.992105263157896
0.13031914893617014
12.268421052631581
-2.420212765957447
12.415789473684214
-1.7686170212765964
8.41842105263158
-1.2659574468085113
5.821052631578951
-3.3138297872340425
6.373684210526314
3.574468085106382
11.992105263157896
0.13031914893617014
12.268421052631581
-2.420212765957447
12.415789473684214
-1.7686170212765964
8.41842105263158
-1.2659574468085113
5.968421052631584
-3.3138297872340425
6.373684210526314
3.574468085106382
11.992105263157896
0.13031914893617014
12.268421052631581
-2.420212765957447
12.415789473684214
-1.7686170212765964
8.41842105263158
-1.2287234042553195
6.042105263157893
-3.3138297872340425
6.373684210526314
3.574468085106382
11.992105263157896
0.13031914893617014
12.268421052631581
-2.420212765957447
12.415789473684214
-1.7686170212765964
8.41842105263158
-1.1728723404255321
6.2631578947368425
-3.3138297872340425
6.373684210526314
3.574468085106382
11.992105263157896
0.13031914893617014
12.268421052631581
-2.420212765957447
12.415789473684214
-1.7686170212765964
8.41842105263158
-1.1356382978723403
6.3921052631578945
-3.3138297872340425
6.373684210526314
3.574468085106382
11.992105263157896
0.13031914893617014
12.268421052631581
-2.420212765957447
12.415789473684214
-1.7686170212765964
8.41842105263158
-1.0984042553191493
6.557894736842101
-3.3138297872340425
6.373684210526314
3.574468085106382
11.992105263157896
0.13031914893617014
12.268421052631581
-2.420212765957447
12.415789473684214
-1.7686170212765964
8.41842105263158
-1.0053191489361701
6.963157894736838
-3.3138297872340425
6.373684210526314
3.574468085106382
11.992105263157896
0.13031914893617014
12.268421052631581
-2.420212765957447
12.415789473684214
-1.7686170212765964
8.41842105263158
-0.9680851063829792
7.221052631578949
-3.3138297872340425
6.373684210526314
3.574468085106382
11.992105263157896
0.13031914893617014
12.268421052631581
-2.420212765957447
12.415789473684214
-1.7686170212765964
8.41842105263158
-0.9122340425531918
7.497368421052634
-3.3138297872340425
6.373684210526314
3.574468085106382
11.992105263157896
0.13031914893617014
12.268421052631581
-2.420212765957447
12.415789473684214
-1.7686170212765964
8.41842105263158
-0.875
8.013157894736842
-3.3138297872340425
6.373684210526314
3.574468085106382
11.992105263157896
0.13031914893617014
12.268421052631581
-2.420212765957447
12.415789473684214
-1.7686170212765964
8.41842105263158
-0.8563829787234045
8.289473684210527
-3.3138297872340425
6.373684210526314
3.574468085106382
11.992105263157896
0.13031914893617014
12.268421052631581
-2.420212765957447
12.415789473684214
-1.7686170212765964
8.41842105263158
-0.8563829787234045
8.786842105263162
-3.3138297872340425
6.373684210526314
3.574468085106382
11.992105263157896
0.13031914893617014
12.268421052631581
-2.420212765957447
12.415789473684214
-1.7686170212765964
8.41842105263158
-0.875
9.007894736842104
-3.3138297872340425
6.373684210526314
3.574468085106382
11.992105263157896
0.13031914893617014
12.268421052631581
-2.420212765957447
12.415789473684214
-1.7686170212765964
8.41842105263158
-0.9122340425531918
9.505263157894738
-3.3138297872340425
6.373684210526314
3.574468085106382
11.992105263157896
0.13031914893617014
12.268421052631581
-2.420212765957447
12.415789473684214
-1.7686170212765964
8.41842105263158
