6 7 9 9
9 3 3 9
5 9 6 2
9 3 2 4
9 8 7 9
5 8 3 9
4 7 3 2
3 6 3 5
7 3 2 8
3 7 6 1
9 9 1 6
6 6 1 4
7 6 9 7
3 8 1 9
7 1 7 4
5 9 6 3
6 9 5 3
6 3 2 8
9 9 2 8
9 5 1 4
4 4 2 8
2 1 6 1
8 6 1 1
9 9 6 8
6 3 7 6
7 9 2 1
9 8 7 3
7 6 9 9
3 1 2 3
8 6 6 5
2 9 1 1
3 9 9 8
1 1 5 8
9 3 5 5
2 2 1 8
3 7 7 8
4 3 3 2
7 1 9 5
9 4 1 3
3 4 3 5
6 2 8 7
2 7 1 8
5 9 6 1
4 4 5 7
3 5 4 7
4 7 6 3
1 5 9 3
5 9 6 6
6 8 7 5
8 1 6 5