45
12
-3.2579787234042556
8.952631578947368
5.082446808510637
6.539473684210527
6.25531914893617
13.005263157894738
-4.3936170212765955
10.205263157894741
0.875
5.360526315789471
-1.8989361702127665
12.047368421052632
-3.295212765957447
9.118421052631575
5.082446808510637
6.539473684210527
6.25531914893617
13.005263157894738
-4.3936170212765955
10.205263157894741
0.875
5.360526315789471
-1.8989361702127665
12.047368421052632
-3.3138297872340425
9.136842105263156
5.082446808510637
6.539473684210527
6.25531914893617
13.005263157894738
-4.3936170212765955
10.205263157894741
0.875
5.360526315789471
-1.8989361702127665
12.047368421052632
-3.3138297872340425
9.136842105263156
5.082446808510637
6.539473684210527
6.3484042553191475
13.042105263157893
-4.3936170212765955
10.205263157894741
0.9680851063829783
5.489473684210523
-1.8989361702127665
12.047368421052632
-3.3138297872340425
9.136842105263156
5.194148936170212
6.68684210526316
6.38563829787234
12.986842105263158
-4.3936170212765955
10.205263157894741
0.9867021276595738
5.544736842105266
-1.8989361702127665
12.047368421052632
-3.3138297872340425
9.136842105263156
5.212765957446807
6.705263157894734
6.422872340425531
12.931578947368422
-4.3936170212765955
10.205263157894741
1.0611702127659566
5.673684210526318
-1.8989361702127665
12.047368421052632
-3.3138297872340425
9.136842105263156
5.287234042553191
6.760526315789477
6.478723404255318
12.728947368421053
-4.3936170212765955
10.205263157894741
1.3218085106382969
6.097368421052636
-1.8989361702127665
12.047368421052632
-3.3138297872340425
9.136842105263156
5.343085106382977
6.815789473684212
6.497340425531915
12.58157894736842
-4.3936170212765955
10.205263157894741
1.5452127659574462
6.428947368421056
-1.8989361702127665
12.047368421052632
-3.3138297872340425
9.136842105263156
5.492021276595745
7.018421052631581
6.534574468085106
12.415789473684214
-4.3936170212765955
10.205263157894741
2.0106382978723403
7.350000000000001
-1.8989361702127665
12.047368421052632
-3.3138297872340425
9.136842105263156
5.585106382978722
7.165789473684214
6.553191489361701
11.973684210526315
-4.3936170212765955
10.205263157894741
2.252659574468085
7.8657894736842096
-1.8989361702127665
12.047368421052632
-3.3138297872340425
9.136842105263156
5.8457446808510625
7.55263157894737
6.553191489361701
11.715789473684211
-4.3936170212765955
10.205263157894741
2.6436170212765955
8.860526315789471
-1.8989361702127665
12.047368421052632
-3.3138297872340425
9.136842105263156
6.031914893617021
8.050000000000004
6.497340425531915
11.126315789473686
-4.3936170212765955
10.205263157894741
2.792553191489361
9.284210526315789
-1.8989361702127665
12.047368421052632
-3.3138297872340425
9.136842105263156
6.180851063829786
8.657894736842103
6.441489361702127
10.81315789473684
-4.3936170212765955
10.205263157894741
2.8856382978723403
9.671052631578945
-1.8989361702127665
12.047368421052632
-3.3138297872340425
9.136842105263156
6.236702127659575
8.989473684210523
6.367021276595745
10.5
-4.3936170212765955
10.205263157894741
3.0159574468085104
10.297368421052632
-1.8989361702127665
12.047368421052632
-3.3138297872340425
9.136842105263156
6.367021276595745
9.578947368421055
6.162234042553191
9.85526315789474
-4.3936170212765955
10.205263157894741
3.0531914893617014
10.573684210526316
-1.8989361702127665
12.047368421052632
-3.3138297872340425
9.136842105263156
6.422872340425531
9.800000000000004
6.013297872340425
9.560526315789474
-4.3936170212765955
10.205263157894741
3.071808510638297
11.034210526315789
-1.8989361702127665
12.047368421052632
-3.3138297872340425
9.136842105263156
6.478723404255318
10.021052631578947
5.715425531914892
8.934210526315788
-4.3936170212765955
10.205263157894741
3.071808510638297
11.181578947368422
-1.8989361702127665
12.047368421052632
-3.3138297872340425
9.136842105263156
6.60904255319149
10.40789473684211
5.547872340425531
8.639473684210529
-4.3936170212765955
10.205263157894741
3.071808510638297
11.292105263157893
-1.8989361702127665
12.047368421052632
-3.3138297872340425
9.136842105263156
6.664893617021276
10.684210526315795
5.007978723404255
7.8842105263157904
-4.3936170212765955
10.205263157894741
3.071808510638297
11.292105263157893
-1.8989361702127665
12.047368421052632
-3.3138297872340425
9.136842105263156
6.6835106382978715
10.81315789473684
4.840425531914892
7.663157894736841
-4.3936170212765955
10.205263157894741
3.071808510638297
11.292105263157893
-1.8989361702127665
12.047368421052632
-3.3138297872340425
9.136842105263156
6.702127659574467
10.942105263157899
4.486702127659575
7.257894736842104
-4.3936170212765955
10.205263157894741
3.071808510638297
11.292105263157893
-1.8989361702127665
12.047368421052632
-3.3138297872340425
9.136842105263156
6.7207446808510625
11.218421052631584
4.188829787234042
6.963157894736838
-4.3936170212765955
10.205263157894741
3.071808510638297
11.292105263157893
-1.8989361702127665
12.047368421052632
-3.3138297872340425
9.136842105263156
6.73936170212766
11.347368421052629
3.9281914893617014
6.742105263157896
-4.3936170212765955
10.205263157894741
3.071808510638297
11.292105263157893
-1.8989361702127665
12.047368421052632
-3.3138297872340425
9.136842105263156
6.73936170212766
11.60526315789474
3.8164893617021267
6.6684210526315795
-4.3936170212765955
10.205263157894741
3.071808510638297
11.292105263157893
-1.8989361702127665
12.047368421052632
-3.3138297872340425
9.136842105263156
6.73936170212766
11.715789473684211
3.8164893617021267
6.6684210526315795
-4.3936170212765955
10.205263157894741
3.071808510638297
11.292105263157893
-1.8989361702127665
12.047368421052632
-3.3138297872340425
9.136842105263156
6.73936170212766
11.863157894736844
3.8164893617021267
6.6684210526315795
-4.3936170212765955
10.205263157894741
3.071808510638297
11.292105263157893
-1.8989361702127665
12.047368421052632
-3.3138297872340425
9.136842105263156
6.757978723404255
12.102631578947374
3.8164893617021267
6.6684210526315795
-4.3936170212765955
10.205263157894741
3.071808510638297
11.292105263157893
-1.8989361702127665
12.047368421052632
-3.3138297872340425
9.136842105263156
6.757978723404255
12.25
3.8164893617021267
6.6684210526315795
-4.3936170212765955
10.205263157894741
3.071808510638297
11.292105263157893
-1.8989361702127665
12.047368421052632
-3.3138297872340425
9.136842105263156
6.757978723404255
12.360526315789471
3.8164893617021267
6.6684210526315795
-4.3936170212765955
10.205263157894741
3.071808510638297
11.292105263157893
-1.8989361702127665
12.047368421052632
-3.3138297872340425
9.136842105263156
6.757978723404255
12.58157894736842
3.8164893617021267
6.6684210526315795
-4.3936170212765955
10.205263157894741
3.071808510638297
11.292105263157893
-1.8989361702127665
12.047368421052632
-3.3138297872340425
9.136842105263156
6.757978723404255
12.692105263157899
3.8164893617021267
6.6684210526315795
-4.3936170212765955
10.205263157894741
3.071808510638297
11.292105263157893
-1.8989361702127665
12.047368421052632
-3.3138297872340425
9.136842105263156
6.757978723404255
12.839473684210525
3.8164893617021267
6.6684210526315795
-4.3936170212765955
10.205263157894741
3.071808510638297
11.292105263157893
-1.8989361702127665
12.047368421052632
-3.3138297872340425
9.136842105263156
6.757978723404255
12.89473684210526
3.8164893617021267
6.6684210526315795
-4.3936170212765955
10.205263157894741
3.071808510638297
11.292105263157893
-1.8989361702127665
12.047368421052632
-3.3138297872340425
9.136842105263156
6.757978723404255
12.913157894736841
3.8164893617021267
6.6684210526315795
-4.3936170212765955
10.205263157894741
3.071808510638297
11.292105263157893
-1.8989361702127665
12.047368421052632
-2.9042553191489366
9.652631578947371
6.757978723404255
12.913157894736841
3.8164893617021267
6.6684210526315795
-4.3936170212765955
10.205263157894741
3.071808510638297
11.292105263157893
-1.8989361702127665
12.047368421052632
-2.7739361702127665
9.486842105263158
6.757978723404255
12.913157894736841
3.8164893617021267
6.6684210526315795
-4.3936170212765955
10.205263157894741
3.071808510638297
11.292105263157893
-1.8989361702127665
12.047368421052632
-2.625
9.39473684210526
6.757978723404255
12.913157894736841
3.8164893617021267
6.6684210526315795
-4.3936170212765955
10.205263157894741
3.071808510638297
11.292105263157893
-1.8989361702127665
12.047368421052632
-2.1781914893617023
9.136842105263156
6.757978723404255
12.913157894736841
3.8164893617021267
6.6684210526315795
-4.3936170212765955
10.205263157894741
3.071808510638297
11.292105263157893
-1.8989361702127665
12.047368421052632
-1.8989361702127665
8.989473684210523
6.757978723404255
12.913157894736841
3.8164893617021267
6.6684210526315795
-4.3936170212765955
10.205263157894741
3.071808510638297
11.292105263157893
-1.8989361702127665
12.047368421052632
-1.6010638297872344
8.842105263157897
6.757978723404255
12.913157894736841
3.8164893617021267
6.6684210526315795
-4.3936170212765955
10.205263157894741
3.071808510638297
11.292105263157893
-1.8989361702127665
12.047368421052632
-0.9122340425531918
8.52894736842105
6.757978723404255
12.913157894736841
3.8164893617021267
6.6684210526315795
-4.3936170212765955
10.205263157894741
3.071808510638297
11.292105263157893
-1.8989361702127665
12.047368421052632
-0.13031914893617014
8.215789473684211
6.757978723404255
12.913157894736841
3.8164893617021267
6.6684210526315795
-4.3936170212765955
10.205263157894741
3.071808510638297
11.292105263157893
-1.8989361702127665
12.047368421052632
0.2606382978723403
8.050000000000004
6.757978723404255
12.913157894736841
3.8164893617021267
6.6684210526315795
-4.3936170212765955
10.205263157894741
3.071808510638297
11.292105263157893
-1.8989361702127665
12.047368421052632
0.6329787234042552
7.902631578947371
6.757978723404255
12.913157894736841
3.8164893617021267
6.6684210526315795
-4.3936170212765955
10.205263157894741
3.071808510638297
11.292105263157893
-1.8989361702127665
12.047368421052632
1.3590425531914896
7.6078947368421055
6.757978723404255
12.913157894736841
3.8164893617021267
6.6684210526315795
-4.3936170212765955
10.205263157894741
3.071808510638297
11.292105263157893
-1.8989361702127665
12.047368421052632
