35
12
7.204787234042552
6.226315789473681
6.60904255319149
7.165789473684214
-3.5930851063829787
10.72105263157895
0.3164893617021276
9.265789473684208
-1.4893617021276597
7.6078947368421055
-3.537234042553192
12.728947368421053
7.204787234042552
6.226315789473681
6.60904255319149
7.165789473684214
-3.5930851063829787
10.72105263157895
0.29787234042553123
9.284210526315789
-1.4893617021276597
7.6078947368421055
-3.537234042553192
12.728947368421053
7.204787234042552
6.226315789473681
6.60904255319149
7.165789473684214
-3.5744680851063833
10.59210526315789
0.20478723404255295
9.339473684210525
-1.340425531914894
7.64473684210526
-3.537234042553192
12.728947368421053
7.204787234042552
6.226315789473681
6.60904255319149
7.165789473684214
-3.537234042553192
10.5
0.18617021276595747
9.376315789473686
-1.247340425531915
7.64473684210526
-3.537234042553192
12.728947368421053
7.204787234042552
6.226315789473681
6.60904255319149
7.165789473684214
-3.5
10.389473684210529
0.13031914893617014
9.449999999999996
-1.1170212765957448
7.681578947368422
-3.537234042553192
12.728947368421053
7.204787234042552
6.226315789473681
6.60904255319149
7.165789473684214
-3.36968085106383
10.113157894736844
0.11170212765957377
9.486842105263158
-0.7819148936170217
7.810526315789474
-3.537234042553192
12.728947368421053
7.204787234042552
6.226315789473681
6.60904255319149
7.165789473684214
-3.295212765957447
9.928947368421056
0.09308510638297829
9.52368421052632
-0.5771276595744688
7.939473684210526
-3.537234042553192
12.728947368421053
7.204787234042552
6.226315789473681
6.60904255319149
7.165789473684214
-3.0531914893617023
9.560526315789474
0.05585106382978733
9.578947368421055
-0.09308510638297918
8.252631578947366
-3.537234042553192
12.728947368421053
7.204787234042552
6.226315789473681
6.60904255319149
7.165789473684214
-2.9042553191489366
9.357894736842105
-0.09308510638297918
9.72631578947368
0.18617021276595747
8.43684210526316
-3.537234042553192
12.728947368421053
7.204787234042552
6.226315789473681
6.60904255319149
7.165789473684214
-2.5691489361702127
8.952631578947368
-0.22340425531914931
9.85526315789474
0.44680851063829774
8.639473684210529
-3.537234042553192
12.728947368421053
7.204787234042552
6.226315789473681
6.60904255319149
7.165789473684214
-2.382978723404255
8.768421052631581
-0.6143617021276597
10.223684210526315
0.9494680851063828
9.06315789473684
-3.537234042553192
12.728947368421053
7.204787234042552
6.226315789473681
6.60904255319149
7.165789473684214
-2.0106382978723403
8.399999999999999
-0.8191489361702127
10.426315789473684
1.1914893617021267
9.32105263157895
-3.537234042553192
12.728947368421053
7.204787234042552
6.226315789473681
6.60904255319149
7.165789473684214
-1.6010638297872344
8.086842105263159
-1.3218085106382977
10.850000000000001
1.6196808510638299
9.800000000000004
-3.537234042553192
12.728947368421053
7.204787234042552
6.226315789473681
6.60904255319149
7.165789473684214
-1.414893617021277
7.957894736842107
-1.6196808510638299
11.071052631578944
1.8058510638297864
10.039473684210527
-3.537234042553192
12.728947368421053
7.204787234042552
6.226315789473681
6.60904255319149
7.165789473684214
-1.0053191489361701
7.7368421052631575
-2.1968085106382977
11.402631578947371
2.159574468085106
10.59210526315789
-3.537234042553192
12.728947368421053
7.204787234042552
6.226315789473681
6.60904255319149
7.165789473684214
-0.8191489361702127
7.681578947368422
-2.457446808510639
11.531578947368416
2.327127659574467
10.850000000000001
-3.537234042553192
12.728947368421053
7.204787234042552
6.226315789473681
6.60904255319149
7.165789473684214
-0.5026595744680851
7.571052631578951
-3.015957446808511
11.789473684210527
2.569148936170212
11.347368421052629
-3.537234042553192
12.728947368421053
7.204787234042552
6.226315789473681
6.60904255319149
7.165789473684214
-0.35372340425531945
7.534210526315789
-3.295212765957447
11.899999999999999
2.662234042553191
11.550000000000004
-3.537234042553192
12.728947368421053
7.204787234042552
6.226315789473681
6.60904255319149
7.165789473684214
-0.09308510638297918
7.515789473684208
-3.8164893617021276
12.121052631578948
2.792553191489361
11.899999999999999
-3.537234042553192
12.728947368421053
7.204787234042552
6.226315789473681
6.60904255319149
7.165789473684214
0.03723404255319096
7.515789473684208
-4.077127659574469
12.213157894736845
2.829787234042552
12.010526315789477
-3.537234042553192
12.728947368421053
7.204787234042552
6.226315789473681
6.60904255319149
7.165789473684214
0.20478723404255295
7.515789473684208
-4.523936170212766
12.397368421052626
2.867021276595745
12.065789473684205
-3.537234042553192
12.728947368421053
7.204787234042552
6.226315789473681
6.60904255319149
7.165789473684214
0.20478723404255295
7.515789473684208
-4.7287234042553195
12.47105263157895
2.867021276595745
12.065789473684205
-3.537234042553192
12.728947368421053
7.204787234042552
6.226315789473681
6.60904255319149
7.165789473684214
0.20478723404255295
7.515789473684208
-5.082446808510639
12.56315789473684
2.867021276595745
12.065789473684205
-3.537234042553192
12.728947368421053
7.204787234042552
6.226315789473681
6.60904255319149
7.165789473684214
0.20478723404255295
7.515789473684208
-5.2313829787234045
12.600000000000001
2.867021276595745
12.065789473684205
-3.537234042553192
12.728947368421053
7.204787234042552
6.226315789473681
6.60904255319149
7.165789473684214
0.20478723404255295
7.515789473684208
-5.492021276595745
12.655263157894737
2.867021276595745
12.065789473684205
-3.537234042553192
12.728947368421053
7.204787234042552
6.226315789473681
6.60904255319149
7.165789473684214
0.20478723404255295
7.515789473684208
-5.585106382978724
12.67368421052631
2.867021276595745
12.065789473684205
-3.537234042553192
12.728947368421053
7.204787234042552
6.226315789473681
6.60904255319149
7.165789473684214
0.20478723404255295
7.515789473684208
-5.678191489361702
12.67368421052631
2.867021276595745
12.065789473684205
-3.537234042553192
12.728947368421053
8.00531914893617
6.649999999999999
6.60904255319149
7.165789473684214
0.20478723404255295
7.515789473684208
-5.678191489361702
12.67368421052631
2.867021276595745
12.065789473684205
-3.537234042553192
12.728947368421053
7.968085106382977
6.649999999999999
6.60904255319149
7.165789473684214
0.20478723404255295
7.515789473684208
-5.678191489361702
12.67368421052631
2.867021276595745
12.065789473684205
-3.537234042553192
12.728947368421053
7.912234042553191
6.649999999999999
6.60904255319149
7.165789473684214
0.20478723404255295
7.515789473684208
-5.678191489361702
12.67368421052631
2.867021276595745
12.065789473684205
-3.537234042553192
12.728947368421053
7.875
6.649999999999999
6.60904255319149
7.165789473684214
0.20478723404255295
7.515789473684208
-5.678191489361702
12.67368421052631
2.867021276595745
12.065789473684205
-3.537234042553192
12.728947368421053
7.707446808510637
6.68684210526316
6.60904255319149
7.165789473684214
0.20478723404255295
7.515789473684208
-5.678191489361702
12.67368421052631
2.867021276595745
12.065789473684205
-3.537234042553192
12.728947368421053
7.5957446808510625
6.705263157894734
6.60904255319149
7.165789473684214
0.20478723404255295
7.515789473684208
-5.678191489361702
12.67368421052631
2.867021276595745
12.065789473684205
-3.537234042553192
12.728947368421053
7.2234042553191475
6.778947368421051
6.60904255319149
7.165789473684214
0.20478723404255295
7.515789473684208
-5.678191489361702
12.67368421052631
2.867021276595745
12.065789473684205
-3.537234042553192
12.728947368421053
6.627659574468085
6.834210526315786
6.60904255319149
7.165789473684214
0.20478723404255295
7.515789473684208
-5.678191489361702
12.67368421052631
2.867021276595745
12.065789473684205
-3.537234042553192
12.728947368421053
