50
12
3.704787234042552
7.4789473684210535
-2.7739361702127665
6.557894736842101
2.7180851063829774
12.176315789473684
5.51063829787234
11.734210526315792
2.997340425531915
8.399999999999999
-2.0664893617021276
11.034210526315789
3.704787234042552
7.4789473684210535
-3.1090425531914896
6.815789473684212
2.4760638297872344
12.231578947368419
5.64095744680851
11.642105263157895
2.997340425531915
8.399999999999999
-2.0664893617021276
11.071052631578944
3.704787234042552
7.4789473684210535
-3.2393617021276597
6.907894736842103
1.9734042553191493
12.268421052631581
5.7712765957446805
11.550000000000004
2.997340425531915
8.399999999999999
-2.0664893617021276
11.107894736842105
3.704787234042552
7.4789473684210535
-3.425531914893617
7.0736842105263165
1.7686170212765955
12.286842105263155
5.99468085106383
11.347368421052629
2.997340425531915
8.399999999999999
-2.0664893617021276
11.126315789473686
3.704787234042552
7.4789473684210535
-3.444148936170213
7.092105263157897
1.3218085106382969
12.34210526315789
6.087765957446807
11.236842105263158
2.997340425531915
8.399999999999999
-2.0664893617021276
11.126315789473686
3.704787234042552
7.4789473684210535
-3.444148936170213
7.092105263157897
1.1170212765957448
12.360526315789471
6.273936170212766
11.015789473684208
2.997340425531915
8.399999999999999
-2.0664893617021276
11.126315789473686
3.704787234042552
7.4789473684210535
-3.444148936170213
7.092105263157897
0.7819148936170208
12.397368421052626
6.367021276595745
10.905263157894737
2.997340425531915
8.399999999999999
-2.0664893617021276
11.126315789473686
3.704787234042552
7.4789473684210535
-3.444148936170213
7.092105263157897
0.5957446808510634
12.415789473684214
6.534574468085106
10.72105263157895
2.997340425531915
8.399999999999999
-2.0664893617021276
11.126315789473686
3.704787234042552
7.4789473684210535
-3.444148936170213
7.092105263157897
0.2420212765957439
12.452631578947368
6.590425531914892
10.610526315789471
2.997340425531915
8.399999999999999
-2.0664893617021276
11.126315789473686
3.704787234042552
7.4789473684210535
-3.444148936170213
7.092105263157897
0.11170212765957377
12.47105263157895
6.7207446808510625
10.444736842105264
2.997340425531915
8.399999999999999
-2.0664893617021276
11.126315789473686
3.704787234042552
7.4789473684210535
-3.444148936170213
7.092105263157897
-0.1489361702127665
12.489473684210523
6.757978723404255
10.371052631578948
2.997340425531915
8.399999999999999
-2.0664893617021276
11.126315789473686
3.704787234042552
7.4789473684210535
-3.444148936170213
7.092105263157897
-0.2420212765957448
12.489473684210523
6.813829787234042
10.260526315789477
2.997340425531915
8.399999999999999
-2.0664893617021276
11.126315789473686
3.704787234042552
7.4789473684210535
-3.444148936170213
7.092105263157897
-0.44680851063829863
12.507894736842104
6.888297872340425
10.113157894736844
2.997340425531915
8.399999999999999
-2.0664893617021276
11.126315789473686
3.704787234042552
7.4789473684210535
-3.444148936170213
7.092105263157897
-0.5585106382978724
12.526315789473685
6.925531914893616
10.057894736842101
2.997340425531915
8.399999999999999
-2.0664893617021276
11.126315789473686
3.704787234042552
7.4789473684210535
-3.444148936170213
7.092105263157897
-0.6515957446808516
12.526315789473685
6.962765957446807
9.984210526315792
2.997340425531915
8.399999999999999
-2.0664893617021276
11.126315789473686
3.704787234042552
7.4789473684210535
-3.444148936170213
7.092105263157897
-0.8005319148936172
12.544736842105266
7.037234042553191
9.800000000000004
2.997340425531915
8.399999999999999
-2.0664893617021276
11.126315789473686
3.704787234042552
7.4789473684210535
-3.444148936170213
7.092105263157897
-0.875
12.544736842105266
7.037234042553191
9.800000000000004
2.997340425531915
8.399999999999999
-2.0664893617021276
11.126315789473686
3.704787234042552
7.4789473684210535
-3.444148936170213
7.092105263157897
-0.9308510638297873
12.58157894736842
7.037234042553191
9.800000000000004
2.997340425531915
8.399999999999999
-2.0664893617021276
11.126315789473686
3.704787234042552
7.4789473684210535
-3.444148936170213
7.092105263157897
-1.0239361702127665
12.58157894736842
7.037234042553191
9.800000000000004
2.997340425531915
8.399999999999999
-2.0664893617021276
11.126315789473686
3.704787234042552
7.4789473684210535
-3.6117021276595747
7.239473684210523
-1.0797872340425538
12.58157894736842
7.037234042553191
9.800000000000004
2.997340425531915
8.399999999999999
-2.0664893617021276
11.126315789473686
3.704787234042552
7.4789473684210535
-3.779255319148936
7.368421052631575
-1.247340425531915
12.507894736842104
7.037234042553191
9.800000000000004
2.997340425531915
8.399999999999999
-2.0664893617021276
11.126315789473686
3.704787234042552
7.4789473684210535
-3.8537234042553195
7.442105263157899
-1.340425531914894
12.47105263157895
7.037234042553191
9.800000000000004
2.997340425531915
8.399999999999999
-2.0664893617021276
11.126315789473686
3.704787234042552
7.4789473684210535
-4.077127659574469
7.663157894736841
-1.6196808510638299
12.34210526315789
7.037234042553191
9.800000000000004
2.997340425531915
8.399999999999999
-2.0664893617021276
11.126315789473686
3.704787234042552
7.4789473684210535
-4.207446808510639
7.810526315789474
-1.7686170212765964
12.25
7.037234042553191
9.800000000000004
2.997340425531915
8.399999999999999
-2.0664893617021276
11.126315789473686
3.704787234042552
7.4789473684210535
-4.50531914893617
8.142105263157895
-2.0106382978723403
12.065789473684205
7.037234042553191
9.800000000000004
2.997340425531915
8.399999999999999
-2.0664893617021276
11.126315789473686
3.704787234042552
7.4789473684210535
-4.63563829787234
8.363157894736844
-2.159574468085107
11.955263157894734
7.037234042553191
9.800000000000004
2.997340425531915
8.399999999999999
-2.0664893617021276
11.126315789473686
3.704787234042552
7.4789473684210535
-4.85904255319149
8.805263157894736
-2.327127659574468
11.82631578947369
7.037234042553191
9.800000000000004
2.997340425531915
8.399999999999999
-2.0664893617021276
11.126315789473686
3.704787234042552
7.4789473684210535
-4.970744680851064
9.06315789473684
-2.662234042553192
11.494736842105262
7.037234042553191
9.800000000000004
2.997340425531915
8.399999999999999
-2.0664893617021276
11.126315789473686
3.704787234042552
7.4789473684210535
-5.082446808510639
9.339473684210525
-2.8111702127659575
11.310526315789474
7.037234042553191
9.800000000000004
2.997340425531915
8.399999999999999
-2.0664893617021276
11.126315789473686
3.704787234042552
7.4789473684210535
-5.287234042553192
9.763157894736842
-3.146276595744681
10.905263157894737
7.037234042553191
9.800000000000004
2.997340425531915
8.399999999999999
-2.0664893617021276
11.126315789473686
3.704787234042552
7.4789473684210535
-5.398936170212766
10.021052631578947
-3.3324468085106385
10.702631578947368
7.037234042553191
9.800000000000004
2.997340425531915
8.399999999999999
-2.0664893617021276
11.126315789473686
3.704787234042552
7.4789473684210535
-5.492021276595745
10.260526315789477
-3.4813829787234045
10.481578947368419
7.037234042553191
9.800000000000004
2.997340425531915
8.399999999999999
-2.0664893617021276
11.126315789473686
3.704787234042552
7.4789473684210535
-5.622340425531915
10.72105263157895
-3.742021276595745
9.965789473684211
7.037234042553191
9.800000000000004
2.997340425531915
8.399999999999999
-2.0664893617021276
11.126315789473686
3.704787234042552
7.4789473684210535
-5.678191489361702
10.960526315789473
-3.8537234042553195
9.707894736842107
7.037234042553191
9.800000000000004
2.997340425531915
8.399999999999999
-2.0664893617021276
11.126315789473686
3.704787234042552
7.4789473684210535
-5.73404255319149
11.181578947368422
-4.0212765957446805
9.155263157894737
7.037234042553191
9.800000000000004
2.997340425531915
8.399999999999999
-2.0664893617021276
11.126315789473686
3.704787234042552
7.4789473684210535
-5.827127659574468
11.60526315789474
-4.11436170212766
8.860526315789471
7.037234042553191
9.800000000000004
2.997340425531915
8.399999999999999
-2.0664893617021276
11.126315789473686
3.704787234042552
7.4789473684210535
-5.86436170212766
11.807894736842101
-4.263297872340425
8.381578947368425
7.037234042553191
9.800000000000004
2.997340425531915
8.399999999999999
-2.0664893617021276
11.126315789473686
3.704787234042552
7.4789473684210535
-5.920212765957447
12.15789473684211
-4.319148936170213
8.160526315789475
7.037234042553191
9.800000000000004
2.997340425531915
8.399999999999999
-2.0664893617021276
11.126315789473686
3.704787234042552
7.4789473684210535
-5.976063829787234
12.452631578947368
-4.375
7.773684210526319
7.037234042553191
9.800000000000004
2.997340425531915
8.399999999999999
-2.0664893617021276
11.126315789473686
3.704787234042552
7.4789473684210535
-5.976063829787234
12.58157894736842
-4.3936170212765955
7.626315789473686
7.037234042553191
9.800000000000004
2.997340425531915
8.399999999999999
-2.0664893617021276
11.126315789473686
3.704787234042552
7.4789473684210535
-5.99468085106383
12.784210526315789
-4.412234042553191
7.386842105263156
7.037234042553191
9.800000000000004
2.997340425531915
8.399999999999999
-2.0664893617021276
11.126315789473686
3.704787234042552
7.4789473684210535
-5.976063829787234
12.839473684210525
-4.412234042553191
7.294736842105266
7.037234042553191
9.800000000000004
2.997340425531915
8.399999999999999
-2.0664893617021276
11.126315789473686
3.704787234042552
7.4789473684210535
-5.957446808510639
12.876315789473686
-4.412234042553191
7.2026315789473685
7.037234042553191
9.800000000000004
2.997340425531915
8.399999999999999
-2.0664893617021276
11.126315789473686
4.486702127659575
7.847368421052636
-5.957446808510639
12.876315789473686
-4.412234042553191
7.2026315789473685
7.037234042553191
9.800000000000004
2.997340425531915
8.399999999999999
-2.0664893617021276
11.126315789473686
4.3563829787234045
7.847368421052636
-5.957446808510639
12.876315789473686
-4.412234042553191
7.2026315789473685
7.037234042553191
9.800000000000004
2.997340425531915
8.399999999999999
-2.0664893617021276
11.126315789473686
4.319148936170212
7.792105263157893
-5.957446808510639
12.876315789473686
-4.412234042553191
7.2026315789473685
7.037234042553191
9.800000000000004
2.997340425531915
8.399999999999999
-2.0664893617021276
11.126315789473686
4.207446808510637
7.699999999999996
-5.957446808510639
12.876315789473686
-4.412234042553191
7.2026315789473685
7.037234042553191
9.800000000000004
2.997340425531915
8.399999999999999
-2.0664893617021276
11.126315789473686
4.132978723404255
7.681578947368422
-5.957446808510639
12.876315789473686
-4.412234042553191
7.2026315789473685
7.037234042553191
9.800000000000004
2.997340425531915
8.399999999999999
-2.0664893617021276
11.126315789473686
4.002659574468085
7.626315789473686
-5.957446808510639
12.876315789473686
-4.412234042553191
7.2026315789473685
7.037234042553191
9.800000000000004
2.997340425531915
8.399999999999999
-2.0664893617021276
11.126315789473686
3.574468085106382
7.442105263157899
-5.957446808510639
12.876315789473686
-4.412234042553191
7.2026315789473685
7.037234042553191
9.800000000000004
2.997340425531915
8.399999999999999
-2.0664893617021276
11.126315789473686
