45
12
4.002659574468085
4.789473684210527
2.5132978723404253
5.710526315789473
3.6489361702127656
12.80263157894737
-1.0239361702127665
8.050000000000004
-2.997340425531915
12.305263157894736
5.175531914893616
10.794736842105266
4.002659574468085
4.789473684210527
1.8058510638297864
5.710526315789473
3.537234042553191
12.89473684210526
-1.0239361702127665
8.050000000000004
-2.997340425531915
12.305263157894736
5.175531914893616
10.794736842105266
4.002659574468085
4.789473684210527
1.6755319148936163
5.673684210526318
3.5
12.89473684210526
-0.9122340425531918
7.902631578947371
-3.0904255319148937
12.360526315789471
5.175531914893616
10.794736842105266
4.002659574468085
4.789473684210527
1.5452127659574462
5.636842105263156
3.444148936170212
12.913157894736841
-0.8563829787234045
7.792105263157893
-3.1090425531914896
12.37894736842106
5.175531914893616
10.794736842105266
4.002659574468085
4.789473684210527
1.2101063829787222
5.526315789473685
3.2393617021276597
12.968421052631584
-0.8191489361702127
7.699999999999996
-3.127659574468085
12.397368421052626
5.175531914893616
10.794736842105266
4.002659574468085
4.789473684210527
0.9494680851063828
5.471052631578949
3.127659574468085
13.02368421052632
-0.7074468085106389
7.4789473684210535
-3.146276595744681
12.47105263157895
5.175531914893616
10.794736842105266
4.002659574468085
4.789473684210527
0.7260638297872335
5.415789473684214
2.8484042553191493
13.097368421052629
-0.6329787234042552
7.3315789473684205
-3.146276595744681
12.507894736842104
5.175531914893616
10.794736842105266
4.002659574468085
4.789473684210527
0.44680851063829774
5.342105263157897
2.6436170212765955
13.13421052631579
-0.5585106382978724
7.184210526315788
-3.146276595744681
12.56315789473684
5.175531914893616
10.794736842105266
4.002659574468085
4.789473684210527
-0.11170212765957466
5.268421052631581
2.252659574468085
13.189473684210526
-0.3909574468085113
6.9263157894736835
-3.146276595744681
12.655263157894737
5.175531914893616
10.794736842105266
4.002659574468085
4.789473684210527
-0.3909574468085113
5.25
2.0106382978723403
13.244736842105262
-0.3164893617021276
6.815789473684212
-3.146276595744681
12.710526315789473
5.175531914893616
10.794736842105266
4.002659574468085
4.789473684210527
-0.670212765957447
5.213157894736838
1.5638297872340416
13.281578947368423
-0.20478723404255383
6.631578947368425
-3.146276595744681
12.747368421052634
5.175531914893616
10.794736842105266
4.002659574468085
4.789473684210527
-0.9122340425531918
5.213157894736838
1.3404255319148923
13.318421052631578
-0.1489361702127665
6.557894736842101
-3.146276595744681
12.821052631578944
5.175531914893616
10.794736842105266
4.002659574468085
4.789473684210527
-1.247340425531915
5.286842105263162
0.8563829787234036
13.373684210526314
-0.13031914893617014
6.502631578947366
-3.146276595744681
12.821052631578944
5.175531914893616
10.794736842105266
4.002659574468085
4.789473684210527
-1.377659574468085
5.3236842105263165
0.6515957446808507
13.410526315789475
-0.11170212765957466
6.44736842105263
-3.146276595744681
12.839473684210525
5.175531914893616
10.794736842105266
4.002659574468085
4.789473684210527
-1.377659574468085
5.3236842105263165
0.1675531914893611
13.465789473684211
-0.05585106382978733
6.410526315789475
-3.146276595744681
12.876315789473686
5.175531914893616
10.794736842105266
4.002659574468085
4.789473684210527
-1.377659574468085
5.3236842105263165
-0.03723404255319185
13.484210526315792
-0.03723404255319185
6.3921052631578945
-3.146276595744681
12.876315789473686
5.175531914893616
10.794736842105266
4.002659574468085
4.789473684210527
-1.377659574468085
5.3236842105263165
-0.4654255319148941
13.521052631578947
-0.01861702127659637
6.373684210526314
-3.146276595744681
12.876315789473686
5.175531914893616
10.794736842105266
4.002659574468085
4.789473684210527
-1.377659574468085
5.3236842105263165
-0.6888297872340425
13.539473684210527
-0.01861702127659637
6.373684210526314
-3.146276595744681
12.89473684210526
5.175531914893616
10.794736842105266
4.002659574468085
4.789473684210527
-1.377659574468085
5.3236842105263165
-1.0984042553191493
13.557894736842101
-0.01861702127659637
6.373684210526314
-3.164893617021277
12.89473684210526
5.175531914893616
10.794736842105266
4.002659574468085
4.789473684210527
-1.377659574468085
5.3236842105263165
-1.2845744680851068
13.557894736842101
-0.01861702127659637
6.373684210526314
-3.164893617021277
12.89473684210526
5.175531914893616
10.794736842105266
4.002659574468085
4.789473684210527
-1.377659574468085
5.3236842105263165
-1.6755319148936172
13.521052631578947
-0.01861702127659637
6.373684210526314
-3.127659574468085
12.89473684210526
5.175531914893616
10.794736842105266
4.002659574468085
4.789473684210527
-1.377659574468085
5.3236842105263165
-1.8430851063829792
13.502631578947366
-0.01861702127659637
6.373684210526314
-3.127659574468085
12.89473684210526
5.175531914893616
10.794736842105266
4.002659574468085
4.789473684210527
-1.377659574468085
5.3236842105263165
-2.159574468085107
13.465789473684211
-0.01861702127659637
6.373684210526314
-3.127659574468085
12.89473684210526
5.175531914893616
10.794736842105266
4.002659574468085
4.789473684210527
-1.377659574468085
5.3236842105263165
-2.3085106382978724
13.44736842105263
-0.01861702127659637
6.373684210526314
-3.127659574468085
12.89473684210526
5.175531914893616
10.794736842105266
4.002659574468085
4.789473684210527
-1.377659574468085
5.3236842105263165
-2.6436170212765964
13.373684210526314
-0.01861702127659637
6.373684210526314
-3.127659574468085
12.89473684210526
5.175531914893616
10.794736842105266
4.002659574468085
4.789473684210527
-1.377659574468085
5.3236842105263165
-2.792553191489362
13.336842105263159
-0.01861702127659637
6.373684210526314
-3.127659574468085
12.89473684210526
5.175531914893616
10.794736842105266
4.002659574468085
4.789473684210527
-1.377659574468085
5.3236842105263165
-3.034574468085107
13.244736842105262
-0.01861702127659637
6.373684210526314
-3.127659574468085
12.89473684210526
5.175531914893616
10.794736842105266
4.002659574468085
4.789473684210527
-1.377659574468085
5.3236842105263165
-3.146276595744681
13.189473684210526
-0.01861702127659637
6.373684210526314
-3.127659574468085
12.89473684210526
5.175531914893616
10.794736842105266
4.002659574468085
4.789473684210527
-1.377659574468085
5.3236842105263165
-3.36968085106383
13.060526315789474
-0.01861702127659637
6.373684210526314
-3.127659574468085
12.89473684210526
5.175531914893616
10.794736842105266
4.002659574468085
4.789473684210527
-1.377659574468085
5.3236842105263165
-3.4813829787234045
12.986842105263158
-0.01861702127659637
6.373684210526314
-3.127659574468085
12.89473684210526
5.175531914893616
10.794736842105266
4.002659574468085
4.789473684210527
-1.377659574468085
5.3236842105263165
-3.7047872340425534
12.857894736842105
-0.01861702127659637
6.373684210526314
-3.127659574468085
12.89473684210526
5.175531914893616
10.794736842105266
4.002659574468085
4.789473684210527
-1.377659574468085
5.3236842105263165
-3.797872340425532
12.784210526315789
-0.01861702127659637
6.373684210526314
-3.127659574468085
12.89473684210526
5.175531914893616
10.794736842105266
4.002659574468085
4.789473684210527
-1.377659574468085
5.3236842105263165
-3.890957446808511
12.710526315789473
-0.01861702127659637
6.373684210526314
-3.127659574468085
12.89473684210526
5.175531914893616
10.794736842105266
4.002659574468085
4.789473684210527
-1.377659574468085
5.3236842105263165
-4.077127659574469
12.526315789473685
-0.01861702127659637
6.373684210526314
-3.127659574468085
12.89473684210526
5.175531914893616
10.794736842105266
4.002659574468085
4.789473684210527
-1.377659574468085
5.3236842105263165
-4.1888297872340425
12.397368421052626
-0.01861702127659637
6.373684210526314
-3.127659574468085
12.89473684210526
5.175531914893616
10.794736842105266
4.002659574468085
4.789473684210527
-1.377659574468085
5.3236842105263165
-4.449468085106384
12.102631578947374
-0.01861702127659637
6.373684210526314
-3.127659574468085
12.89473684210526
5.175531914893616
10.794736842105266
4.002659574468085
4.789473684210527
-1.377659574468085
5.3236842105263165
-4.579787234042554
11.93684210526316
-0.01861702127659637
6.373684210526314
-3.127659574468085
12.89473684210526
5.175531914893616
10.794736842105266
4.002659574468085
4.789473684210527
-1.377659574468085
5.3236842105263165
-4.691489361702128
11.771052631578947
-0.01861702127659637
6.373684210526314
-3.127659574468085
12.89473684210526
5.175531914893616
10.794736842105266
4.002659574468085
4.789473684210527
-1.377659574468085
5.3236842105263165
-4.8962765957446805
11.402631578947371
-0.01861702127659637
6.373684210526314
-3.127659574468085
12.89473684210526
5.175531914893616
10.794736842105266
4.002659574468085
4.789473684210527
-1.377659574468085
5.3236842105263165
-4.970744680851064
11.199999999999996
-0.01861702127659637
6.373684210526314
-3.127659574468085
12.89473684210526
5.175531914893616
10.794736842105266
4.002659574468085
4.789473684210527
-1.377659574468085
5.3236842105263165
-5.101063829787234
10.886842105263156
-0.01861702127659637
6.373684210526314
-3.127659574468085
12.89473684210526
5.175531914893616
10.794736842105266
4.002659574468085
4.789473684210527
-1.377659574468085
5.3236842105263165
-5.156914893617021
10.739473684210523
-0.01861702127659637
6.373684210526314
-3.127659574468085
12.89473684210526
5.175531914893616
10.794736842105266
4.002659574468085
4.789473684210527
-1.377659574468085
5.3236842105263165
-5.212765957446809
10.610526315789471
-0.01861702127659637
6.373684210526314
-3.127659574468085
12.89473684210526
5.175531914893616
10.794736842105266
4.002659574468085
4.789473684210527
-1.377659574468085
5.3236842105263165
-5.2686170212765955
10.40789473684211
-0.01861702127659637
6.373684210526314
-3.127659574468085
12.89473684210526
5.175531914893616
10.794736842105266
4.002659574468085
4.789473684210527
-1.377659574468085
5.3236842105263165
-5.287234042553192
10.297368421052632
-0.01861702127659637
6.373684210526314
-3.127659574468085
12.89473684210526
5.175531914893616
10.794736842105266
