45
12
4.523936170212766
11.752631578947366
-5.7712765957446805
6.428947368421056
-6.292553191489362
12.949999999999996
6.422872340425531
8.068421052631578
1.5079787234042552
6.649999999999999
3.257978723404255
12.121052631578948
4.523936170212766
11.752631578947366
-5.7712765957446805
6.428947368421056
-6.292553191489362
12.949999999999996
5.99468085106383
7.755263157894738
1.9734042553191493
7.165789473684214
3.257978723404255
12.121052631578948
4.523936170212766
11.752631578947366
-5.7712765957446805
6.428947368421056
-6.292553191489362
12.949999999999996
5.678191489361701
7.571052631578951
2.1781914893617014
7.368421052631575
3.257978723404255
12.121052631578948
4.523936170212766
11.752631578947366
-5.7712765957446805
6.428947368421056
-6.292553191489362
12.949999999999996
5.026595744680851
7.239473684210523
2.4760638297872344
7.755263157894738
3.257978723404255
12.121052631578948
4.523936170212766
11.752631578947366
-5.7712765957446805
6.428947368421056
-6.292553191489362
12.949999999999996
4.654255319148936
7.055263157894736
2.569148936170212
7.847368421052636
3.257978723404255
12.121052631578948
4.523936170212766
11.752631578947366
-5.7712765957446805
6.428947368421056
-6.292553191489362
12.949999999999996
3.872340425531915
6.760526315789477
2.6436170212765955
7.939473684210526
3.257978723404255
12.121052631578948
4.523936170212766
11.752631578947366
-5.7712765957446805
6.428947368421056
-6.292553191489362
12.949999999999996
2.997340425531915
6.521052631578954
2.75531914893617
8.050000000000004
3.257978723404255
12.121052631578948
4.523936170212766
11.752631578947366
-5.7712765957446805
6.428947368421056
-6.292553191489362
12.949999999999996
2.2154255319148923
6.373684210526314
2.75531914893617
8.050000000000004
3.257978723404255
12.121052631578948
4.523936170212766
11.752631578947366
-5.7712765957446805
6.428947368421056
-6.292553191489362
12.949999999999996
1.824468085106382
6.35526315789474
2.75531914893617
8.050000000000004
3.257978723404255
12.121052631578948
4.523936170212766
11.752631578947366
-5.7712765957446805
6.428947368421056
-6.292553191489362
12.949999999999996
1.0239361702127656
6.3921052631578945
2.75531914893617
8.050000000000004
3.257978723404255
12.121052631578948
4.523936170212766
11.752631578947366
-5.7712765957446805
6.428947368421056
-6.292553191489362
12.949999999999996
0.22340425531914843
6.576315789473689
2.75531914893617
8.050000000000004
3.257978723404255
12.121052631578948
4.523936170212766
11.752631578947366
-5.7712765957446805
6.428947368421056
-6.292553191489362
12.949999999999996
-0.5212765957446814
6.871052631578948
2.75531914893617
8.050000000000004
3.257978723404255
12.121052631578948
4.523936170212766
11.752631578947366
-5.7712765957446805
6.428947368421056
-6.292553191489362
12.949999999999996
-0.8191489361702127
7.036842105263162
2.75531914893617
8.050000000000004
3.257978723404255
12.121052631578948
4.523936170212766
11.752631578947366
-5.7712765957446805
6.428947368421056
-6.292553191489362
12.949999999999996
-1.3962765957446814
7.442105263157899
2.75531914893617
8.050000000000004
3.257978723404255
12.121052631578948
4.523936170212766
11.752631578947366
-5.7712765957446805
6.428947368421056
-6.292553191489362
12.949999999999996
-1.6569148936170217
7.64473684210526
2.75531914893617
8.050000000000004
3.257978723404255
12.121052631578948
4.523936170212766
11.752631578947366
-5.7712765957446805
6.428947368421056
-6.292553191489362
12.949999999999996
-1.9734042553191493
7.902631578947371
2.75531914893617
8.050000000000004
3.257978723404255
12.121052631578948
4.523936170212766
11.752631578947366
-5.7712765957446805
6.428947368421056
-6.292553191489362
12.949999999999996
-2.0106382978723403
7.939473684210526
2.75531914893617
8.050000000000004
3.257978723404255
12.121052631578948
4.523936170212766
11.752631578947366
-5.659574468085106
6.428947368421056
-6.292553191489362
12.949999999999996
-1.9547872340425538
7.8842105263157904
2.6436170212765955
8.013157894736842
3.257978723404255
12.121052631578948
4.523936170212766
11.752631578947366
-5.547872340425532
6.428947368421056
-6.292553191489362
12.949999999999996
-1.8803191489361701
7.847368421052636
2.6063829787234045
7.994736842105269
3.257978723404255
12.121052631578948
4.523936170212766
11.752631578947366
-5.38031914893617
6.428947368421056
-6.292553191489362
12.949999999999996
-1.75
7.810526315789474
2.569148936170212
7.957894736842107
3.257978723404255
12.121052631578948
4.523936170212766
11.752631578947366
-4.933510638297872
6.484210526315792
-6.292553191489362
12.949999999999996
-1.3590425531914896
7.64473684210526
2.4015957446808507
7.8657894736842096
3.257978723404255
12.121052631578948
4.523936170212766
11.752631578947366
-4.63563829787234
6.557894736842101
-6.292553191489362
12.949999999999996
-1.0797872340425538
7.55263157894737
2.2340425531914896
7.755263157894738
3.257978723404255
12.121052631578948
4.523936170212766
11.752631578947366
-3.9840425531914896
6.778947368421051
-6.292553191489362
12.949999999999996
-0.7074468085106389
7.442105263157899
2.122340425531915
7.681578947368422
3.257978723404255
12.121052631578948
4.523936170212766
11.752631578947366
-3.648936170212766
6.9263157894736835
-6.292553191489362
12.949999999999996
0.11170212765957377
7.221052631578949
1.8617021276595747
7.515789473684208
3.257978723404255
12.121052631578948
4.523936170212766
11.752631578947366
-2.997340425531915
7.294736842105266
-6.292553191489362
12.949999999999996
0.5212765957446805
7.128947368421052
1.7127659574468073
7.442105263157899
3.257978723404255
12.121052631578948
4.523936170212766
11.752631578947366
-2.699468085106383
7.497368421052634
-6.292553191489362
12.949999999999996
1.8617021276595747
6.889473684210529
1.5824468085106371
7.350000000000001
3.257978723404255
12.121052631578948
4.523936170212766
11.752631578947366
-2.0664893617021276
7.957894736842107
-6.292553191489362
12.949999999999996
2.289893617021276
6.871052631578948
1.3404255319148923
7.2026315789473685
3.257978723404255
12.121052631578948
4.523936170212766
11.752631578947366
-1.7872340425531918
8.215789473684211
-6.292553191489362
12.949999999999996
3.034574468085106
6.889473684210529
1.2287234042553195
7.147368421052633
3.257978723404255
12.121052631578948
4.523936170212766
11.752631578947366
-1.2287234042553195
8.786842105263162
-6.292553191489362
12.949999999999996
3.6861702127659566
7.018421052631581
1.1170212765957448
7.092105263157897
3.257978723404255
12.121052631578948
4.523936170212766
11.752631578947366
-0.9867021276595747
9.06315789473684
-6.292553191489362
12.949999999999996
4.151595744680851
7.165789473684214
0.9867021276595738
7.036842105263162
3.257978723404255
12.121052631578948
4.523936170212766
11.752631578947366
-0.5398936170212769
9.61578947368421
-6.292553191489362
12.949999999999996
4.337765957446807
7.239473684210523
0.9867021276595738
7.036842105263162
3.257978723404255
12.121052631578948
4.523936170212766
11.752631578947366
-0.35372340425531945
9.892105263157895
-6.292553191489362
12.949999999999996
4.579787234042552
7.294736842105266
0.9867021276595738
7.036842105263162
3.257978723404255
12.121052631578948
4.523936170212766
11.752631578947366
-0.0744680851063837
10.463157894736845
-6.292553191489362
12.949999999999996
4.579787234042552
7.294736842105266
0.9867021276595738
7.036842105263162
3.257978723404255
12.121052631578948
4.523936170212766
11.752631578947366
0.03723404255319096
10.72105263157895
-6.292553191489362
12.949999999999996
4.579787234042552
7.294736842105266
0.9867021276595738
7.036842105263162
3.257978723404255
12.121052631578948
4.523936170212766
11.752631578947366
0.1675531914893611
11.218421052631584
-6.292553191489362
12.949999999999996
4.579787234042552
7.294736842105266
0.9867021276595738
7.036842105263162
3.257978723404255
12.121052631578948
4.523936170212766
11.752631578947366
0.22340425531914843
11.457894736842107
-6.292553191489362
12.949999999999996
4.579787234042552
7.294736842105266
0.9867021276595738
7.036842105263162
3.257978723404255
12.121052631578948
4.523936170212766
11.752631578947366
0.3164893617021276
11.771052631578947
-6.292553191489362
12.949999999999996
4.579787234042552
7.294736842105266
0.9867021276595738
7.036842105263162
3.257978723404255
12.121052631578948
4.747340425531915
11.568421052631578
0.3164893617021276
11.771052631578947
-6.292553191489362
12.949999999999996
4.579787234042552
7.294736842105266
0.9867021276595738
7.036842105263162
3.257978723404255
12.121052631578948
4.654255319148936
11.60526315789474
0.3164893617021276
11.771052631578947
-6.292553191489362
12.949999999999996
4.579787234042552
7.294736842105266
0.9867021276595738
7.036842105263162
3.257978723404255
12.121052631578948
4.63563829787234
11.60526315789474
0.3164893617021276
11.771052631578947
-6.292553191489362
12.949999999999996
4.579787234042552
7.294736842105266
0.9867021276595738
7.036842105263162
3.257978723404255
12.121052631578948
4.5984042553191475
11.60526315789474
0.3164893617021276
11.771052631578947
-6.292553191489362
12.949999999999996
4.579787234042552
7.294736842105266
0.9867021276595738
7.036842105263162
3.257978723404255
12.121052631578948
4.542553191489361
11.60526315789474
0.3164893617021276
11.771052631578947
-6.292553191489362
12.949999999999996
4.579787234042552
7.294736842105266
0.9867021276595738
7.036842105263162
3.257978723404255
12.121052631578948
4.337765957446807
11.550000000000004
0.3164893617021276
11.771052631578947
-6.292553191489362
12.949999999999996
4.579787234042552
7.294736842105266
0.9867021276595738
7.036842105263162
3.257978723404255
12.121052631578948
4.151595744680851
11.513157894736842
0.3164893617021276
11.771052631578947
-6.292553191489362
12.949999999999996
4.579787234042552
7.294736842105266
0.9867021276595738
7.036842105263162
3.257978723404255
12.121052631578948
3.7606382978723403
11.439473684210526
0.3164893617021276
11.771052631578947
-6.292553191489362
12.949999999999996
4.579787234042552
7.294736842105266
0.9867021276595738
7.036842105263162
3.257978723404255
12.121052631578948
