45
12
-3.5558510638297873
5.89473684210526
-5.045212765957447
6.613157894736844
6.087765957446807
10.260526315789477
-2.159574468085107
12.526315789473685
-1.6196808510638299
9.100000000000001
3.872340425531915
9.689473684210526
-3.5558510638297873
5.89473684210526
-5.045212765957447
6.613157894736844
6.031914893617021
10.27894736842105
-2.159574468085107
12.526315789473685
-1.6196808510638299
9.100000000000001
3.872340425531915
9.689473684210526
-3.5558510638297873
5.89473684210526
-5.045212765957447
6.613157894736844
5.976063829787233
10.297368421052632
-2.159574468085107
12.526315789473685
-1.6196808510638299
9.100000000000001
3.872340425531915
9.689473684210526
-3.5558510638297873
5.89473684210526
-5.045212765957447
6.613157894736844
5.957446808510637
10.315789473684205
-2.0292553191489366
12.305263157894736
-1.6196808510638299
9.100000000000001
3.872340425531915
9.689473684210526
-3.5558510638297873
5.89473684210526
-5.045212765957447
6.613157894736844
5.938829787234042
10.352631578947374
-1.9920212765957448
12.213157894736845
-1.6196808510638299
9.100000000000001
3.872340425531915
9.689473684210526
-3.5558510638297873
5.89473684210526
-5.045212765957447
6.613157894736844
5.920212765957446
10.371052631578948
-1.917553191489362
12.084210526315786
-1.6196808510638299
9.100000000000001
3.872340425531915
9.689473684210526
-3.5558510638297873
5.89473684210526
-5.045212765957447
6.613157894736844
5.882978723404255
10.40789473684211
-1.75
11.771052631578947
-1.6196808510638299
9.100000000000001
3.872340425531915
9.689473684210526
-3.5558510638297873
5.89473684210526
-5.045212765957447
6.613157894736844
5.789893617021276
10.5
-1.6196808510638299
11.550000000000004
-1.6196808510638299
9.100000000000001
3.872340425531915
9.689473684210526
-3.5558510638297873
5.89473684210526
-5.045212765957447
6.613157894736844
5.696808510638297
10.555263157894736
-1.414893617021277
11.163157894736841
-1.6196808510638299
9.100000000000001
3.872340425531915
9.689473684210526
-3.5558510638297873
5.89473684210526
-5.045212765957447
6.613157894736844
5.585106382978722
10.62894736842106
-1.3031914893617023
10.978947368421053
-1.6196808510638299
9.100000000000001
3.872340425531915
9.689473684210526
-3.5558510638297873
5.89473684210526
-5.045212765957447
6.613157894736844
5.2686170212765955
10.83157894736842
-1.0797872340425538
10.555263157894736
-1.6196808510638299
9.100000000000001
3.872340425531915
9.689473684210526
-3.5558510638297873
5.89473684210526
-5.045212765957447
6.613157894736844
5.063829787234042
10.92368421052631
-0.9122340425531918
10.315789473684205
-1.6196808510638299
9.100000000000001
3.872340425531915
9.689473684210526
-3.5558510638297873
5.89473684210526
-5.045212765957447
6.613157894736844
4.523936170212766
11.163157894736841
-0.5585106382978724
9.800000000000004
-1.6196808510638299
9.100000000000001
3.872340425531915
9.689473684210526
-3.5558510638297873
5.89473684210526
-5.045212765957447
6.613157894736844
3.8909574468085104
11.38421052631579
-0.3909574468085113
9.542105263157893
-1.6196808510638299
9.100000000000001
3.872340425531915
9.689473684210526
-3.5558510638297873
5.89473684210526
-5.045212765957447
6.613157894736844
3.1835106382978715
11.623684210526314
-0.05585106382978733
9.06315789473684
-1.6196808510638299
9.100000000000001
3.872340425531915
9.689473684210526
-3.5558510638297873
5.89473684210526
-5.045212765957447
6.613157894736844
2.867021276595745
11.734210526315792
0.09308510638297829
8.823684210526316
-1.6196808510638299
9.100000000000001
3.872340425531915
9.689473684210526
-3.5558510638297873
5.89473684210526
-5.045212765957447
6.613157894736844
2.159574468085106
11.973684210526315
0.3164893617021276
8.510526315789477
-1.6196808510638299
9.100000000000001
3.872340425531915
9.689473684210526
-3.5558510638297873
5.89473684210526
-5.045212765957447
6.613157894736844
1.8430851063829792
12.084210526315786
0.42819148936170137
8.363157894736844
-1.6196808510638299
9.100000000000001
3.872340425531915
9.689473684210526
-3.5558510638297873
5.89473684210526
-5.045212765957447
6.613157894736844
1.1728723404255312
12.286842105263155
0.5771276595744679
8.142105263157895
-1.6196808510638299
9.100000000000001
3.872340425531915
9.689473684210526
-3.5558510638297873
5.89473684210526
-5.045212765957447
6.613157894736844
0.5026595744680851
12.47105263157895
0.6329787234042552
8.050000000000004
-1.6196808510638299
9.100000000000001
3.872340425531915
9.689473684210526
-3.5558510638297873
5.89473684210526
-5.045212765957447
6.613157894736844
-0.11170212765957466
12.618421052631575
0.6888297872340425
7.994736842105269
-1.6196808510638299
9.100000000000001
3.872340425531915
9.689473684210526
-3.5558510638297873
5.89473684210526
-5.045212765957447
6.613157894736844
-0.42819148936170226
12.692105263157899
0.7632978723404253
7.902631578947371
-1.6196808510638299
9.100000000000001
3.872340425531915
9.689473684210526
-3.5558510638297873
5.89473684210526
-5.045212765957447
6.613157894736844
-1.0239361702127665
12.821052631578944
0.7632978723404253
7.902631578947371
-1.6196808510638299
9.100000000000001
3.872340425531915
9.689473684210526
-3.5558510638297873
5.89473684210526
-5.045212765957447
6.613157894736844
-1.6010638297872344
12.931578947368422
0.7632978723404253
7.902631578947371
-1.6196808510638299
9.100000000000001
3.872340425531915
9.689473684210526
-3.5558510638297873
5.89473684210526
-5.045212765957447
6.613157894736844
-2.2340425531914896
13.005263157894738
0.7632978723404253
7.902631578947371
-1.6196808510638299
9.100000000000001
3.872340425531915
9.689473684210526
-3.5558510638297873
5.89473684210526
-5.045212765957447
6.613157894736844
-2.49468085106383
13.02368421052632
0.7632978723404253
7.902631578947371
-1.6196808510638299
9.100000000000001
3.872340425531915
9.689473684210526
-3.5558510638297873
5.89473684210526
-5.045212765957447
6.613157894736844
-3.071808510638298
13.078947368421055
0.7632978723404253
7.902631578947371
-1.6196808510638299
9.100000000000001
3.872340425531915
9.689473684210526
-3.5558510638297873
5.89473684210526
-5.045212765957447
6.613157894736844
-3.3324468085106385
13.097368421052629
0.7632978723404253
7.902631578947371
-1.6196808510638299
9.100000000000001
3.872340425531915
9.689473684210526
-3.5558510638297873
5.89473684210526
-5.045212765957447
6.613157894736844
-3.872340425531915
13.13421052631579
0.7632978723404253
7.902631578947371
-1.6196808510638299
9.100000000000001
3.872340425531915
9.689473684210526
-3.5558510638297873
5.89473684210526
-5.045212765957447
6.613157894736844
-4.11436170212766
13.152631578947371
0.7632978723404253
7.902631578947371
-1.6196808510638299
9.100000000000001
3.872340425531915
9.689473684210526
-3.5558510638297873
5.89473684210526
-5.045212765957447
6.613157894736844
-4.579787234042554
13.171052631578945
0.7632978723404253
7.902631578947371
-1.6196808510638299
9.100000000000001
3.872340425531915
9.689473684210526
-3.5558510638297873
5.89473684210526
-5.045212765957447
6.613157894736844
-4.821808510638299
13.171052631578945
0.7632978723404253
7.902631578947371
-1.6196808510638299
9.100000000000001
3.872340425531915
9.689473684210526
-3.5558510638297873
5.89473684210526
-5.045212765957447
6.613157894736844
-5.194148936170213
13.171052631578945
0.7632978723404253
7.902631578947371
-1.6196808510638299
9.100000000000001
3.872340425531915
9.689473684210526
-3.5558510638297873
5.89473684210526
-5.045212765957447
6.613157894736844
-5.361702127659575
13.152631578947371
0.7632978723404253
7.902631578947371
-1.6196808510638299
9.100000000000001
3.872340425531915
9.689473684210526
-3.5558510638297873
5.89473684210526
-5.045212765957447
6.613157894736844
-5.696808510638298
13.13421052631579
0.7632978723404253
7.902631578947371
-1.6196808510638299
9.100000000000001
3.872340425531915
9.689473684210526
-3.5558510638297873
5.89473684210526
-5.045212765957447
6.613157894736844
-5.827127659574468
13.097368421052629
0.7632978723404253
7.902631578947371
-1.6196808510638299
9.100000000000001
3.872340425531915
9.689473684210526
-3.5558510638297873
5.89473684210526
-5.045212765957447
6.613157894736844
-5.901595744680851
13.097368421052629
0.7632978723404253
7.902631578947371
-1.6196808510638299
9.100000000000001
3.872340425531915
9.689473684210526
-3.3510638297872344
6.097368421052636
-5.045212765957447
6.613157894736844
-5.901595744680851
13.097368421052629
0.7632978723404253
7.902631578947371
-1.6196808510638299
9.100000000000001
3.872340425531915
9.689473684210526
-3.2393617021276597
6.1157894736842096
-5.045212765957447
6.613157894736844
-5.901595744680851
13.097368421052629
0.7632978723404253
7.902631578947371
-1.6196808510638299
9.100000000000001
3.872340425531915
9.689473684210526
-3.1090425531914896
6.1342105263157904
-5.045212765957447
6.613157894736844
-5.901595744680851
13.097368421052629
0.7632978723404253
7.902631578947371
-1.6196808510638299
9.100000000000001
3.872340425531915
9.689473684210526
-2.7739361702127665
6.189473684210526
-5.045212765957447
6.613157894736844
-5.901595744680851
13.097368421052629
0.7632978723404253
7.902631578947371
-1.6196808510638299
9.100000000000001
3.872340425531915
9.689473684210526
-2.550531914893617
6.207894736842107
-5.045212765957447
6.613157894736844
-5.901595744680851
13.097368421052629
0.7632978723404253
7.902631578947371
-1.6196808510638299
9.100000000000001
3.872340425531915
9.689473684210526
-2.0106382978723403
6.281578947368416
-5.045212765957447
6.613157894736844
-5.901595744680851
13.097368421052629
0.7632978723404253
7.902631578947371
-1.6196808510638299
9.100000000000001
3.872340425531915
9.689473684210526
-1.712765957446809
6.300000000000004
-5.045212765957447
6.613157894736844
-5.901595744680851
13.097368421052629
0.7632978723404253
7.902631578947371
-1.6196808510638299
9.100000000000001
3.872340425531915
9.689473684210526
-1.414893617021277
6.336842105263159
-5.045212765957447
6.613157894736844
-5.901595744680851
13.097368421052629
0.7632978723404253
7.902631578947371
-1.6196808510638299
9.100000000000001
3.872340425531915
9.689473684210526
