45
12
-0.18617021276595747
5.121052631578948
1.4335106382978715
3.9789473684210535
-1.4707446808510642
5.80263157894737
5.101063829787233
12.02894736842105
5.492021276595745
8.915789473684214
-2.6808510638297873
9.505263157894738
-0.11170212765957466
5.065789473684212
1.4335106382978715
3.9789473684210535
-1.2659574468085113
5.80263157894737
5.156914893617021
12.010526315789477
5.4734042553191475
8.934210526315788
-2.6808510638297873
9.505263157894738
-0.01861702127659637
5.010526315789477
1.4335106382978715
3.9789473684210535
-0.670212765957447
5.9868421052631575
5.212765957446807
11.955263157894734
5.361702127659575
8.989473684210523
-2.6808510638297873
9.505263157894738
0.2420212765957439
4.789473684210527
1.4335106382978715
3.9789473684210535
-0.3909574468085113
6.060526315789474
5.361702127659575
11.807894736842101
5.287234042553191
9.026315789473685
-2.6808510638297873
9.505263157894738
0.4095744680851059
4.6421052631578945
1.4335106382978715
3.9789473684210535
0.3164893617021276
6.336842105263159
5.454787234042552
11.715789473684211
5.063829787234042
9.17368421052631
-2.6808510638297873
9.505263157894738
0.7819148936170208
4.347368421052636
1.4335106382978715
3.9789473684210535
0.707446808510638
6.521052631578954
5.547872340425531
11.623684210526314
4.877659574468085
9.265789473684208
-2.6808510638297873
9.505263157894738
0.9680851063829783
4.200000000000003
1.4335106382978715
3.9789473684210535
1.3962765957446805
6.889473684210529
5.789893617021276
11.402631578947371
4.3936170212765955
9.63421052631579
-2.6808510638297873
9.505263157894738
1.3218085106382969
3.905263157894737
1.4335106382978715
3.9789473684210535
2.0292553191489358
7.31315789473684
5.901595744680851
11.27368421052632
4.170212765957446
9.85526315789474
-2.6808510638297873
9.505263157894738
1.4707446808510642
3.794736842105266
1.4335106382978715
3.9789473684210535
2.5505319148936163
7.663157894736841
6.125
11.015789473684208
3.7234042553191493
10.40789473684211
-2.6808510638297873
9.505263157894738
1.6196808510638299
3.7026315789473685
1.4335106382978715
3.9789473684210535
2.792553191489361
7.847368421052636
6.236702127659575
10.905263157894737
3.406914893617021
11.071052631578944
-2.6808510638297873
9.505263157894738
1.8430851063829792
3.5552631578947356
1.4335106382978715
3.9789473684210535
3.2765957446808507
8.234210526315792
6.3484042553191475
10.81315789473684
3.2765957446808507
11.402631578947371
-2.6808510638297873
9.505263157894738
1.954787234042552
3.5
1.4335106382978715
3.9789473684210535
3.5
8.41842105263158
6.51595744680851
10.665789473684214
3.1090425531914896
11.91842105263158
-2.6808510638297873
9.505263157894738
2.0292553191489358
3.4631578947368453
1.4335106382978715
3.9789473684210535
3.9281914893617014
8.805263157894736
6.590425531914892
10.610526315789471
3.0531914893617014
12.121052631578948
-2.6808510638297873
9.505263157894738
2.196808510638297
3.352631578947367
1.4335106382978715
3.9789473684210535
4.132978723404255
9.007894736842104
6.7207446808510625
10.5
3.034574468085106
12.434210526315795
-2.6808510638297873
9.505263157894738
2.196808510638297
3.352631578947367
1.4335106382978715
3.9789473684210535
4.486702127659575
9.376315789473686
6.776595744680851
10.444736842105264
3.0531914893617014
12.507894736842104
-2.6808510638297873
9.505263157894738
2.196808510638297
3.352631578947367
1.4335106382978715
3.9789473684210535
4.654255319148936
9.560526315789474
6.86968085106383
10.352631578947374
3.071808510638297
12.544736842105266
-2.6808510638297873
9.505263157894738
2.196808510638297
3.352631578947367
1.4335106382978715
3.9789473684210535
4.952127659574467
9.94736842105263
6.906914893617021
10.297368421052632
3.071808510638297
12.544736842105266
-2.6808510638297873
9.505263157894738
2.196808510638297
3.352631578947367
1.4335106382978715
3.9789473684210535
5.063829787234042
10.113157894736844
6.906914893617021
10.297368421052632
3.071808510638297
12.544736842105266
-2.6808510638297873
9.505263157894738
2.196808510638297
3.352631578947367
1.4335106382978715
3.9789473684210535
5.2313829787234045
10.371052631578948
6.906914893617021
10.297368421052632
3.071808510638297
12.544736842105266
-2.6808510638297873
9.505263157894738
2.196808510638297
3.352631578947367
1.4335106382978715
3.9789473684210535
5.305851063829786
10.5
6.906914893617021
10.297368421052632
3.071808510638297
12.544736842105266
-2.6808510638297873
9.505263157894738
2.196808510638297
3.352631578947367
1.4335106382978715
3.9789473684210535
5.417553191489361
10.776315789473685
6.906914893617021
10.297368421052632
3.071808510638297
12.544736842105266
-2.6808510638297873
9.505263157894738
2.196808510638297
3.352631578947367
1.4335106382978715
3.9789473684210535
5.454787234042552
10.905263157894737
6.906914893617021
10.297368421052632
3.071808510638297
12.544736842105266
-2.6808510638297873
9.505263157894738
2.196808510638297
3.352631578947367
1.4335106382978715
3.9789473684210535
5.51063829787234
11.015789473684208
6.906914893617021
10.297368421052632
3.071808510638297
12.544736842105266
-2.6808510638297873
9.505263157894738
2.196808510638297
3.352631578947367
1.4335106382978715
3.9789473684210535
5.585106382978722
11.236842105263158
6.906914893617021
10.297368421052632
3.071808510638297
12.544736842105266
-2.6808510638297873
9.505263157894738
2.196808510638297
3.352631578947367
1.4335106382978715
3.9789473684210535
5.603723404255318
11.328947368421055
6.906914893617021
10.297368421052632
3.071808510638297
12.544736842105266
-2.6808510638297873
9.505263157894738
2.196808510638297
3.352631578947367
1.4335106382978715
3.9789473684210535
5.622340425531915
11.421052631578945
6.906914893617021
10.297368421052632
3.071808510638297
12.544736842105266
-2.6808510638297873
9.505263157894738
2.196808510638297
3.352631578947367
1.4335106382978715
3.9789473684210535
5.64095744680851
11.642105263157895
6.906914893617021
10.297368421052632
3.071808510638297
12.544736842105266
-2.6808510638297873
9.505263157894738
2.196808510638297
3.352631578947367
1.4335106382978715
3.9789473684210535
5.64095744680851
11.734210526315792
6.906914893617021
10.297368421052632
3.071808510638297
12.544736842105266
-2.6808510638297873
9.505263157894738
2.196808510638297
3.352631578947367
1.4335106382978715
3.9789473684210535
5.659574468085106
11.807894736842101
6.906914893617021
10.297368421052632
3.071808510638297
12.544736842105266
-2.6808510638297873
9.505263157894738
2.196808510638297
3.352631578947367
1.4335106382978715
3.9789473684210535
5.678191489361701
11.881578947368425
6.906914893617021
10.297368421052632
3.071808510638297
12.544736842105266
-2.6808510638297873
9.505263157894738
2.196808510638297
3.352631578947367
1.4335106382978715
3.9789473684210535
5.696808510638297
11.899999999999999
6.906914893617021
10.297368421052632
3.071808510638297
12.544736842105266
-2.6808510638297873
9.505263157894738
2.196808510638297
3.352631578947367
1.4335106382978715
3.9789473684210535
5.603723404255318
11.992105263157896
6.906914893617021
10.297368421052632
3.071808510638297
12.544736842105266
-2.6808510638297873
9.505263157894738
2.196808510638297
3.352631578947367
1.4335106382978715
3.9789473684210535
5.566489361702127
12.02894736842105
6.906914893617021
10.297368421052632
3.071808510638297
12.544736842105266
-2.6808510638297873
9.505263157894738
2.196808510638297
3.352631578947367
1.4335106382978715
3.9789473684210535
5.529255319148936
12.065789473684205
6.906914893617021
10.297368421052632
3.071808510638297
12.544736842105266
-2.6808510638297873
9.505263157894738
2.196808510638297
3.352631578947367
1.4335106382978715
3.9789473684210535
5.492021276595745
12.121052631578948
6.906914893617021
10.297368421052632
3.071808510638297
12.544736842105266
-2.6808510638297873
9.505263157894738
2.196808510638297
3.352631578947367
1.4335106382978715
3.9789473684210535
5.38031914893617
12.25
6.906914893617021
10.297368421052632
3.071808510638297
12.544736842105266
-2.6808510638297873
9.505263157894738
2.196808510638297
3.352631578947367
1.4335106382978715
3.9789473684210535
5.305851063829786
12.305263157894736
6.906914893617021
10.297368421052632
3.071808510638297
12.544736842105266
-2.6808510638297873
9.505263157894738
2.196808510638297
3.352631578947367
1.4335106382978715
3.9789473684210535
5.212765957446807
12.37894736842106
6.906914893617021
10.297368421052632
3.071808510638297
12.544736842105266
-2.6808510638297873
9.505263157894738
2.196808510638297
3.352631578947367
1.4335106382978715
3.9789473684210535
4.9707446808510625
12.507894736842104
6.906914893617021
10.297368421052632
3.071808510638297
12.544736842105266
-2.6808510638297873
9.505263157894738
2.196808510638297
3.352631578947367
1.4335106382978715
3.9789473684210535
4.803191489361701
12.56315789473684
6.906914893617021
10.297368421052632
3.071808510638297
12.544736842105266
-2.6808510638297873
9.505263157894738
2.196808510638297
3.352631578947367
1.4335106382978715
3.9789473684210535
4.430851063829786
12.692105263157899
6.906914893617021
10.297368421052632
3.071808510638297
12.544736842105266
-2.6808510638297873
9.505263157894738
2.196808510638297
3.352631578947367
1.4335106382978715
3.9789473684210535
4.226063829787234
12.747368421052634
6.906914893617021
10.297368421052632
3.071808510638297
12.544736842105266
-2.6808510638297873
9.505263157894738
2.196808510638297
3.352631578947367
1.4335106382978715
3.9789473684210535
3.7978723404255312
12.821052631578944
6.906914893617021
10.297368421052632
3.071808510638297
12.544736842105266
-2.6808510638297873
9.505263157894738
2.196808510638297
3.352631578947367
1.4335106382978715
3.9789473684210535
3.5930851063829774
12.857894736842105
6.906914893617021
10.297368421052632
3.071808510638297
12.544736842105266
-2.6808510638297873
9.505263157894738
2.196808510638297
3.352631578947367
1.4335106382978715
3.9789473684210535
3.2207446808510625
12.913157894736841
6.906914893617021
10.297368421052632
3.071808510638297
12.544736842105266
-2.6808510638297873
9.505263157894738
