45
12
-4.207446808510639
7.699999999999996
-5.361702127659575
7.589473684210525
0.3164893617021276
5.7289473684210535
6.888297872340425
12.710526315789473
-2.7739361702127665
12.047368421052632
3.7978723404255312
9.007894736842104
-4.207446808510639
7.699999999999996
-5.212765957446809
7.460526315789473
0.37234042553191493
6.005263157894738
6.888297872340425
12.710526315789473
-2.7739361702127665
12.268421052631581
3.7978723404255312
9.007894736842104
-4.207446808510639
7.699999999999996
-5.0638297872340425
7.350000000000001
0.3909574468085104
6.189473684210526
6.888297872340425
12.710526315789473
-2.75531914893617
12.360526315789471
3.7978723404255312
9.007894736842104
-4.207446808510639
7.699999999999996
-4.672872340425532
7.055263157894736
0.42819148936170137
6.576315789473689
6.888297872340425
12.710526315789473
-2.75531914893617
12.47105263157895
3.7978723404255312
9.007894736842104
-4.207446808510639
7.699999999999996
-4.468085106382979
6.889473684210529
0.42819148936170137
6.778947368421051
6.888297872340425
12.710526315789473
-2.7367021276595747
12.526315789473685
3.7978723404255312
9.007894736842104
-4.207446808510639
7.699999999999996
-4.24468085106383
6.742105263157896
0.4095744680851059
7.0
6.888297872340425
12.710526315789473
-2.7367021276595747
12.544736842105266
3.7978723404255312
9.007894736842104
-4.207446808510639
7.699999999999996
-4.002659574468085
6.557894736842101
0.35372340425531856
7.405263157894737
6.888297872340425
12.710526315789473
-2.7367021276595747
12.544736842105266
3.7978723404255312
9.007894736842104
-4.207446808510639
7.699999999999996
-3.5558510638297873
6.2631578947368425
0.29787234042553123
7.663157894736841
6.888297872340425
12.710526315789473
-2.7367021276595747
12.544736842105266
3.7978723404255312
9.007894736842104
-4.207446808510639
7.699999999999996
-3.3510638297872344
6.1342105263157904
0.2606382978723403
7.902631578947371
6.888297872340425
12.710526315789473
-2.7367021276595747
12.544736842105266
3.7978723404255312
9.007894736842104
-4.207446808510639
7.699999999999996
-2.997340425531915
5.950000000000003
0.1675531914893611
8.381578947368425
6.888297872340425
12.710526315789473
-2.7367021276595747
12.544736842105266
3.7978723404255312
9.007894736842104
-4.207446808510639
7.699999999999996
-2.8484042553191493
5.876315789473686
0.13031914893617014
8.621052631578948
6.888297872340425
12.710526315789473
-2.7367021276595747
12.544736842105266
3.7978723404255312
9.007894736842104
-4.207446808510639
7.699999999999996
-2.718085106382979
5.821052631578951
0.05585106382978733
9.08157894736842
6.888297872340425
12.710526315789473
-2.7367021276595747
12.544736842105266
3.7978723404255312
9.007894736842104
-4.207446808510639
7.699999999999996
-2.457446808510639
5.7289473684210535
0.0
9.284210526315789
6.888297872340425
12.710526315789473
-2.7367021276595747
12.544736842105266
3.7978723404255312
9.007894736842104
-4.207446808510639
7.699999999999996
-2.327127659574468
5.710526315789473
-0.05585106382978733
9.52368421052632
6.888297872340425
12.710526315789473
-2.7367021276595747
12.544736842105266
3.7978723404255312
9.007894736842104
-4.207446808510639
7.699999999999996
-2.215425531914894
5.673684210526318
-0.16755319148936199
10.002631578947366
6.888297872340425
12.710526315789473
-2.7367021276595747
12.544736842105266
3.7978723404255312
9.007894736842104
-4.207446808510639
7.699999999999996
-2.215425531914894
5.673684210526318
-0.22340425531914931
10.223684210526315
6.888297872340425
12.710526315789473
-2.7367021276595747
12.544736842105266
3.7978723404255312
9.007894736842104
-4.207446808510639
7.699999999999996
-2.215425531914894
5.673684210526318
-0.3164893617021276
10.647368421052633
6.888297872340425
12.710526315789473
-2.7367021276595747
12.544736842105266
3.7978723404255312
9.007894736842104
-4.207446808510639
7.699999999999996
-2.215425531914894
5.673684210526318
-0.37234042553191493
10.83157894736842
6.888297872340425
12.710526315789473
-2.7367021276595747
12.544736842105266
3.7978723404255312
9.007894736842104
-4.207446808510639
7.699999999999996
-2.215425531914894
5.673684210526318
-0.42819148936170226
10.997368421052634
6.888297872340425
12.710526315789473
-2.7367021276595747
12.544736842105266
3.7978723404255312
9.007894736842104
-4.207446808510639
7.699999999999996
-2.215425531914894
5.673684210526318
-0.5585106382978724
11.328947368421055
6.888297872340425
12.710526315789473
-2.7367021276595747
12.544736842105266
3.7978723404255312
9.007894736842104
-4.207446808510639
7.699999999999996
-2.215425531914894
5.673684210526318
-0.6143617021276597
11.47631578947368
6.888297872340425
12.710526315789473
-2.7367021276595747
12.544736842105266
3.7978723404255312
9.007894736842104
-4.207446808510639
7.699999999999996
-2.215425531914894
5.673684210526318
-0.7632978723404262
11.771052631578947
6.888297872340425
12.710526315789473
-2.7367021276595747
12.544736842105266
3.7978723404255312
9.007894736842104
-4.207446808510639
7.699999999999996
-2.215425531914894
5.673684210526318
-0.8563829787234045
11.91842105263158
6.888297872340425
12.710526315789473
-2.7367021276595747
12.544736842105266
3.7978723404255312
9.007894736842104
-4.207446808510639
7.699999999999996
-2.215425531914894
5.673684210526318
-0.9308510638297873
12.047368421052632
6.888297872340425
12.710526315789473
-2.7367021276595747
12.544736842105266
3.7978723404255312
9.007894736842104
-4.207446808510639
7.699999999999996
-2.215425531914894
5.673684210526318
-1.0984042553191493
12.286842105263155
6.888297872340425
12.710526315789473
-2.7367021276595747
12.544736842105266
3.7978723404255312
9.007894736842104
-4.207446808510639
7.699999999999996
-2.215425531914894
5.673684210526318
-1.1728723404255321
12.415789473684214
6.888297872340425
12.710526315789473
-2.7367021276595747
12.544736842105266
3.7978723404255312
9.007894736842104
-4.207446808510639
7.699999999999996
-2.215425531914894
5.673684210526318
-1.2659574468085113
12.526315789473685
6.888297872340425
12.710526315789473
-2.7367021276595747
12.544736842105266
3.7978723404255312
9.007894736842104
-4.207446808510639
7.699999999999996
-2.215425531914894
5.673684210526318
-1.4521276595744688
12.747368421052634
6.888297872340425
12.710526315789473
-2.7367021276595747
12.544736842105266
3.7978723404255312
9.007894736842104
-4.207446808510639
7.699999999999996
-2.215425531914894
5.673684210526318
-1.545212765957447
12.839473684210525
6.888297872340425
12.710526315789473
-2.7367021276595747
12.544736842105266
3.7978723404255312
9.007894736842104
-4.207446808510639
7.699999999999996
-2.215425531914894
5.673684210526318
-1.712765957446809
13.02368421052632
6.888297872340425
12.710526315789473
-2.7367021276595747
12.544736842105266
3.7978723404255312
9.007894736842104
-4.207446808510639
7.699999999999996
-2.215425531914894
5.673684210526318
-1.8058510638297873
13.11578947368421
6.888297872340425
12.710526315789473
-2.7367021276595747
12.544736842105266
3.7978723404255312
9.007894736842104
-4.207446808510639
7.699999999999996
-2.215425531914894
5.673684210526318
-2.0106382978723403
13.263157894736842
6.888297872340425
12.710526315789473
-2.7367021276595747
12.544736842105266
3.7978723404255312
9.007894736842104
-4.207446808510639
7.699999999999996
-2.215425531914894
5.673684210526318
-2.1037234042553195
13.336842105263159
6.888297872340425
12.710526315789473
-2.7367021276595747
12.544736842105266
3.7978723404255312
9.007894736842104
-4.207446808510639
7.699999999999996
-2.215425531914894
5.673684210526318
-2.3085106382978724
13.465789473684211
6.888297872340425
12.710526315789473
-2.7367021276595747
12.544736842105266
3.7978723404255312
9.007894736842104
-4.207446808510639
7.699999999999996
-2.215425531914894
5.673684210526318
-2.420212765957447
13.502631578947366
6.888297872340425
12.710526315789473
-2.7367021276595747
12.544736842105266
3.7978723404255312
9.007894736842104
-4.207446808510639
7.699999999999996
-2.215425531914894
5.673684210526318
-2.6808510638297873
13.557894736842101
6.888297872340425
12.710526315789473
-2.7367021276595747
12.544736842105266
3.7978723404255312
9.007894736842104
-4.207446808510639
7.699999999999996
-2.215425531914894
5.673684210526318
-2.792553191489362
13.57631578947369
6.888297872340425
12.710526315789473
-2.7367021276595747
12.544736842105266
3.7978723404255312
9.007894736842104
-4.207446808510639
7.699999999999996
-2.215425531914894
5.673684210526318
-3.0531914893617023
13.57631578947369
6.888297872340425
12.710526315789473
-2.7367021276595747
12.544736842105266
3.7978723404255312
9.007894736842104
-4.207446808510639
7.699999999999996
-2.215425531914894
5.673684210526318
-3.1835106382978724
13.502631578947366
6.888297872340425
12.710526315789473
-2.7367021276595747
12.544736842105266
3.7978723404255312
9.007894736842104
-4.207446808510639
7.699999999999996
-2.215425531914894
5.673684210526318
-3.5
13.35526315789474
6.888297872340425
12.710526315789473
-2.7367021276595747
12.544736842105266
3.7978723404255312
9.007894736842104
-4.207446808510639
7.699999999999996
-2.215425531914894
5.673684210526318
-3.648936170212766
13.244736842105262
6.888297872340425
12.710526315789473
-2.7367021276595747
12.544736842105266
3.7978723404255312
9.007894736842104
-4.207446808510639
7.699999999999996
-2.215425531914894
5.673684210526318
-4.0212765957446805
12.89473684210526
6.888297872340425
12.710526315789473
-2.7367021276595747
12.544736842105266
3.7978723404255312
9.007894736842104
-4.207446808510639
7.699999999999996
-2.215425531914894
5.673684210526318
-4.207446808510639
12.692105263157899
6.888297872340425
12.710526315789473
-2.7367021276595747
12.544736842105266
3.7978723404255312
9.007894736842104
-4.207446808510639
7.699999999999996
-2.215425531914894
5.673684210526318
-4.5611702127659575
12.213157894736845
6.888297872340425
12.710526315789473
-2.7367021276595747
12.544736842105266
3.7978723404255312
9.007894736842104
-4.207446808510639
7.699999999999996
-2.215425531914894
5.673684210526318
-4.7287234042553195
11.955263157894734
6.888297872340425
12.710526315789473
-2.7367021276595747
12.544736842105266
3.7978723404255312
9.007894736842104
