45
12
1.954787234042552
4.05263157894737
0.707446808510638
4.476315789473688
-1.4335106382978724
5.80263157894737
2.382978723404255
12.600000000000001
2.8484042553191493
8.473684210526315
-2.1409574468085113
8.307894736842101
1.954787234042552
4.05263157894737
0.707446808510638
4.476315789473688
-2.0106382978723403
5.8578947368421055
2.829787234042552
12.692105263157899
2.8484042553191493
8.473684210526315
-2.1409574468085113
8.307894736842101
1.954787234042552
4.05263157894737
0.707446808510638
4.476315789473688
-2.2712765957446814
5.913157894736841
3.034574468085106
12.728947368421053
2.8484042553191493
8.473684210526315
-2.1409574468085113
8.307894736842101
1.954787234042552
4.05263157894737
0.707446808510638
4.476315789473688
-2.792553191489362
6.078947368421055
3.444148936170212
12.784210526315789
2.8484042553191493
8.473684210526315
-2.1409574468085113
8.307894736842101
1.954787234042552
4.05263157894737
0.707446808510638
4.476315789473688
-3.034574468085107
6.189473684210526
3.63031914893617
12.80263157894737
2.8484042553191493
8.473684210526315
-2.1409574468085113
8.307894736842101
1.954787234042552
4.05263157894737
0.707446808510638
4.476315789473688
-3.5
6.428947368421056
4.0585106382978715
12.857894736842105
2.8484042553191493
8.473684210526315
-2.1409574468085113
8.307894736842101
1.954787234042552
4.05263157894737
0.707446808510638
4.476315789473688
-3.7047872340425534
6.557894736842101
4.24468085106383
12.876315789473686
2.8484042553191493
8.473684210526315
-2.1409574468085113
8.307894736842101
1.954787234042552
4.05263157894737
0.707446808510638
4.476315789473688
-4.0212765957446805
6.834210526315786
4.654255319148936
12.949999999999996
2.8484042553191493
8.473684210526315
-2.1409574468085113
8.307894736842101
1.954787234042552
4.05263157894737
0.707446808510638
4.476315789473688
-4.151595744680851
6.981578947368419
4.85904255319149
12.968421052631584
2.8484042553191493
8.473684210526315
-2.1409574468085113
8.307894736842101
1.954787234042552
4.05263157894737
0.707446808510638
4.476315789473688
-4.337765957446809
7.276315789473685
5.2686170212765955
13.005263157894738
2.8484042553191493
8.473684210526315
-2.1409574468085113
8.307894736842101
1.954787234042552
4.05263157894737
0.707446808510638
4.476315789473688
-4.412234042553191
7.442105263157899
5.454787234042552
13.02368421052632
2.8484042553191493
8.473684210526315
-2.1409574468085113
8.307894736842101
1.954787234042552
4.05263157894737
0.707446808510638
4.476315789473688
-4.468085106382979
7.810526315789474
5.8085106382978715
13.042105263157893
2.8484042553191493
8.473684210526315
-2.1409574468085113
8.307894736842101
1.954787234042552
4.05263157894737
0.707446808510638
4.476315789473688
-4.449468085106384
7.976315789473681
5.976063829787233
13.042105263157893
2.8484042553191493
8.473684210526315
-2.1409574468085113
8.307894736842101
1.954787234042552
4.05263157894737
0.707446808510638
4.476315789473688
-4.3563829787234045
8.19736842105263
6.311170212765957
13.060526315789474
2.8484042553191493
8.473684210526315
-2.1409574468085113
8.307894736842101
1.954787234042552
4.05263157894737
0.707446808510638
4.476315789473688
-4.263297872340425
8.381578947368425
6.441489361702127
13.060526315789474
2.8484042553191493
8.473684210526315
-2.1409574468085113
8.307894736842101
1.954787234042552
4.05263157894737
0.707446808510638
4.476315789473688
-3.946808510638298
8.860526315789471
6.7207446808510625
13.060526315789474
2.8484042553191493
8.473684210526315
-2.1409574468085113
8.307894736842101
1.954787234042552
4.05263157894737
0.707446808510638
4.476315789473688
-3.7234042553191493
9.118421052631575
6.851063829787233
13.060526315789474
2.8484042553191493
8.473684210526315
-2.1409574468085113
8.307894736842101
1.954787234042552
4.05263157894737
0.707446808510638
4.476315789473688
-3.2393617021276597
9.61578947368421
6.906914893617021
13.060526315789474
2.8484042553191493
8.473684210526315
-2.1409574468085113
8.307894736842101
1.954787234042552
4.05263157894737
0.707446808510638
4.476315789473688
-2.9787234042553195
9.85526315789474
6.906914893617021
13.060526315789474
2.8484042553191493
8.473684210526315
-2.1409574468085113
8.307894736842101
1.954787234042552
4.05263157894737
0.707446808510638
4.476315789473688
-2.457446808510639
10.315789473684205
6.906914893617021
13.060526315789474
2.8484042553191493
8.473684210526315
-2.1409574468085113
8.307894736842101
1.954787234042552
4.05263157894737
0.707446808510638
4.476315789473688
-2.1781914893617023
10.536842105263155
6.906914893617021
13.060526315789474
2.8484042553191493
8.473684210526315
-2.1409574468085113
8.307894736842101
1.954787234042552
4.05263157894737
0.707446808510638
4.476315789473688
-1.6382978723404253
10.92368421052631
6.906914893617021
13.060526315789474
2.8484042553191493
8.473684210526315
-2.1409574468085113
8.307894736842101
1.954787234042552
4.05263157894737
0.707446808510638
4.476315789473688
-1.377659574468085
11.107894736842105
6.906914893617021
13.060526315789474
2.8484042553191493
8.473684210526315
-2.1409574468085113
8.307894736842101
1.954787234042552
4.05263157894737
0.707446808510638
4.476315789473688
-0.875
11.47631578947368
6.906914893617021
13.060526315789474
2.8484042553191493
8.473684210526315
-2.1409574468085113
8.307894736842101
1.954787234042552
4.05263157894737
0.707446808510638
4.476315789473688
-0.6515957446808516
11.60526315789474
6.906914893617021
13.060526315789474
2.8484042553191493
8.473684210526315
-2.1409574468085113
8.307894736842101
1.954787234042552
4.05263157894737
0.707446808510638
4.476315789473688
-0.27925531914893664
11.82631578947369
6.906914893617021
13.060526315789474
2.8484042553191493
8.473684210526315
-2.1409574468085113
8.307894736842101
1.954787234042552
4.05263157894737
0.707446808510638
4.476315789473688
-0.11170212765957466
11.91842105263158
6.906914893617021
13.060526315789474
2.8484042553191493
8.473684210526315
-2.1409574468085113
8.307894736842101
1.954787234042552
4.05263157894737
0.707446808510638
4.476315789473688
0.1675531914893611
12.047368421052632
6.906914893617021
13.060526315789474
2.8484042553191493
8.473684210526315
-2.1409574468085113
8.307894736842101
2.252659574468085
4.071052631578951
0.707446808510638
4.476315789473688
0.1675531914893611
12.047368421052632
6.906914893617021
13.060526315789474
2.8484042553191493
8.473684210526315
-2.1409574468085113
8.307894736842101
2.3085106382978715
4.14473684210526
0.707446808510638
4.476315789473688
0.1675531914893611
12.047368421052632
6.906914893617021
13.060526315789474
2.8484042553191493
8.473684210526315
-2.1409574468085113
8.307894736842101
2.382978723404255
4.255263157894738
0.707446808510638
4.476315789473688
0.1675531914893611
12.047368421052632
6.906914893617021
13.060526315789474
2.8484042553191493
8.473684210526315
-2.1409574468085113
8.307894736842101
2.5877659574468073
4.586842105263159
0.707446808510638
4.476315789473688
0.1675531914893611
12.047368421052632
6.906914893617021
13.060526315789474
2.8484042553191493
8.473684210526315
-2.1409574468085113
8.307894736842101
2.7180851063829774
4.807894736842101
0.707446808510638
4.476315789473688
0.1675531914893611
12.047368421052632
6.906914893617021
13.060526315789474
2.8484042553191493
8.473684210526315
-2.1409574468085113
8.307894736842101
3.034574468085106
5.378947368421052
0.707446808510638
4.476315789473688
0.1675531914893611
12.047368421052632
6.906914893617021
13.060526315789474
2.8484042553191493
8.473684210526315
-2.1409574468085113
8.307894736842101
3.202127659574467
5.692105263157899
0.707446808510638
4.476315789473688
0.1675531914893611
12.047368421052632
6.906914893617021
13.060526315789474
2.8484042553191493
8.473684210526315
-2.1409574468085113
8.307894736842101
3.332446808510637
5.968421052631584
0.707446808510638
4.476315789473688
0.1675531914893611
12.047368421052632
6.906914893617021
13.060526315789474
2.8484042553191493
8.473684210526315
-2.1409574468085113
8.307894736842101
3.5558510638297864
6.502631578947366
0.707446808510638
4.476315789473688
0.1675531914893611
12.047368421052632
6.906914893617021
13.060526315789474
2.8484042553191493
8.473684210526315
-2.1409574468085113
8.307894736842101
3.63031914893617
6.723684210526315
0.707446808510638
4.476315789473688
0.1675531914893611
12.047368421052632
6.906914893617021
13.060526315789474
2.8484042553191493
8.473684210526315
-2.1409574468085113
8.307894736842101
3.7234042553191493
7.092105263157897
0.707446808510638
4.476315789473688
0.1675531914893611
12.047368421052632
6.906914893617021
13.060526315789474
2.8484042553191493
8.473684210526315
-2.1409574468085113
8.307894736842101
3.742021276595745
7.239473684210523
0.707446808510638
4.476315789473688
0.1675531914893611
12.047368421052632
6.906914893617021
13.060526315789474
2.8484042553191493
8.473684210526315
-2.1409574468085113
8.307894736842101
3.7606382978723403
7.368421052631575
0.707446808510638
4.476315789473688
0.1675531914893611
12.047368421052632
6.906914893617021
13.060526315789474
2.8484042553191493
8.473684210526315
-2.1409574468085113
8.307894736842101
3.7792553191489358
7.460526315789473
0.707446808510638
4.476315789473688
0.1675531914893611
12.047368421052632
6.906914893617021
13.060526315789474
2.8484042553191493
8.473684210526315
-2.1409574468085113
8.307894736842101
3.7978723404255312
7.589473684210525
0.707446808510638
4.476315789473688
0.1675531914893611
12.047368421052632
6.906914893617021
13.060526315789474
2.8484042553191493
8.473684210526315
-2.1409574468085113
8.307894736842101
3.8164893617021267
7.626315789473686
0.707446808510638
4.476315789473688
0.1675531914893611
12.047368421052632
6.906914893617021
13.060526315789474
2.8484042553191493
8.473684210526315
-2.1409574468085113
8.307894736842101
4.170212765957446
8.050000000000004
0.707446808510638
4.476315789473688
0.1675531914893611
12.047368421052632
6.906914893617021
13.060526315789474
2.8484042553191493
8.473684210526315
-2.1409574468085113
8.307894736842101
