45
12
-3.4627659574468086
7.036842105263162
-4.430851063829787
7.497368421052634
1.0053191489361701
8.897368421052633
-6.329787234042553
12.67368421052631
6.329787234042552
8.676315789473684
3.8164893617021267
11.955263157894734
-3.4627659574468086
7.036842105263162
-4.98936170212766
7.497368421052634
1.0053191489361701
8.897368421052633
-6.329787234042553
12.67368421052631
6.329787234042552
8.676315789473684
3.8164893617021267
11.955263157894734
-3.4627659574468086
7.036842105263162
-4.98936170212766
7.497368421052634
1.1356382978723403
8.952631578947368
-6.329787234042553
12.67368421052631
6.329787234042552
8.676315789473684
3.8537234042553195
11.91842105263158
-3.4627659574468086
7.036842105263162
-4.840425531914894
7.350000000000001
1.247340425531915
9.026315789473685
-6.329787234042553
12.67368421052631
6.329787234042552
8.676315789473684
3.909574468085106
11.844736842105263
-3.4627659574468086
7.036842105263162
-4.7287234042553195
7.239473684210523
1.5265957446808507
9.228947368421053
-6.329787234042553
12.67368421052631
6.329787234042552
8.676315789473684
3.946808510638297
11.715789473684211
-3.4627659574468086
7.036842105263162
-4.598404255319149
7.128947368421052
1.7313829787234045
9.39473684210526
-6.329787234042553
12.67368421052631
6.329787234042552
8.676315789473684
3.9654255319148923
11.550000000000004
-3.4627659574468086
7.036842105263162
-4.449468085106384
7.0
2.1409574468085104
9.873684210526314
-6.329787234042553
12.67368421052631
6.329787234042552
8.676315789473684
3.9840425531914896
11.255263157894738
-3.4627659574468086
7.036842105263162
-4.0212765957446805
6.649999999999999
2.3643617021276597
10.131578947368425
-6.329787234042553
12.67368421052631
6.329787234042552
8.676315789473684
3.9840425531914896
11.05263157894737
-3.4627659574468086
7.036842105263162
-3.797872340425532
6.465789473684211
2.7739361702127656
10.665789473684214
-6.329787234042553
12.67368421052631
6.329787234042552
8.676315789473684
3.9654255319148923
10.647368421052633
-3.4627659574468086
7.036842105263162
-3.5558510638297873
6.281578947368416
2.9042553191489358
10.92368421052631
-6.329787234042553
12.67368421052631
6.329787234042552
8.676315789473684
3.909574468085106
10.426315789473684
-3.4627659574468086
7.036842105263162
-3.295212765957447
6.078947368421055
3.0531914893617014
11.310526315789474
-6.329787234042553
12.67368421052631
6.329787234042552
8.676315789473684
3.835106382978722
10.242105263157896
-3.4627659574468086
7.036842105263162
-2.718085106382979
5.747368421052634
3.0904255319148923
11.457894736842107
-6.329787234042553
12.67368421052631
6.329787234042552
8.676315789473684
3.742021276595745
10.039473684210527
-3.4627659574468086
7.036842105263162
-2.382978723404255
5.5815789473684205
3.1462765957446805
11.844736842105263
-6.329787234042553
12.67368421052631
6.329787234042552
8.676315789473684
3.5
9.63421052631579
-3.4627659574468086
7.036842105263162
-2.1037234042553195
5.4526315789473685
3.164893617021276
11.93684210526316
-6.329787234042553
12.67368421052631
6.329787234042552
8.676315789473684
3.3882978723404253
9.449999999999996
-3.4627659574468086
7.036842105263162
-1.8244680851063828
5.305263157894736
3.164893617021276
11.93684210526316
-6.329787234042553
12.67368421052631
6.329787234042552
8.676315789473684
3.1835106382978715
9.06315789473684
-3.4627659574468086
7.036842105263162
-1.5079787234042552
5.194736842105264
3.164893617021276
11.93684210526316
-6.329787234042553
12.67368421052631
6.329787234042552
8.676315789473684
3.0531914893617014
8.860526315789471
-3.4627659574468086
7.036842105263162
-0.9867021276595747
5.102631578947367
3.164893617021276
11.93684210526316
-6.329787234042553
12.67368421052631
6.329787234042552
8.676315789473684
2.7739361702127656
8.510526315789477
-3.4627659574468086
7.036842105263162
-0.6888297872340425
5.065789473684212
3.164893617021276
11.93684210526316
-6.329787234042553
12.67368421052631
6.329787234042552
8.676315789473684
2.662234042553191
8.344736842105263
-3.4627659574468086
7.036842105263162
-0.4095744680851068
5.065789473684212
3.164893617021276
11.93684210526316
-6.329787234042553
12.67368421052631
6.329787234042552
8.676315789473684
2.5505319148936163
8.19736842105263
-3.4627659574468086
7.036842105263162
-0.18617021276595747
5.065789473684212
3.164893617021276
11.93684210526316
-6.329787234042553
12.67368421052631
6.329787234042552
8.676315789473684
2.2712765957446805
7.8842105263157904
-3.4627659574468086
7.036842105263162
0.22340425531914843
5.010526315789477
3.164893617021276
11.93684210526316
-6.329787234042553
12.67368421052631
6.329787234042552
8.676315789473684
2.1037234042553195
7.7368421052631575
-3.4627659574468086
7.036842105263162
0.22340425531914843
5.010526315789477
3.164893617021276
11.93684210526316
-6.329787234042553
12.67368421052631
6.329787234042552
8.676315789473684
1.954787234042552
7.6078947368421055
-3.4627659574468086
7.036842105263162
0.22340425531914843
5.010526315789477
3.164893617021276
11.93684210526316
-6.329787234042553
12.67368421052631
6.329787234042552
8.676315789473684
1.6382978723404253
7.386842105263156
-3.4627659574468086
7.036842105263162
0.22340425531914843
5.010526315789477
3.164893617021276
11.93684210526316
-6.329787234042553
12.67368421052631
6.329787234042552
8.676315789473684
1.4707446808510642
7.31315789473684
-3.4627659574468086
7.036842105263162
0.22340425531914843
5.010526315789477
3.164893617021276
11.93684210526316
-6.329787234042553
12.67368421052631
6.329787234042552
8.676315789473684
1.1542553191489358
7.147368421052633
-3.4627659574468086
7.036842105263162
0.22340425531914843
5.010526315789477
3.164893617021276
11.93684210526316
-6.329787234042553
12.67368421052631
6.329787234042552
8.676315789473684
1.042553191489361
7.110526315789471
-3.4627659574468086
7.036842105263162
0.22340425531914843
5.010526315789477
3.164893617021276
11.93684210526316
-6.329787234042553
12.67368421052631
6.329787234042552
8.676315789473684
0.9308510638297864
7.055263157894736
-3.4627659574468086
7.036842105263162
0.22340425531914843
5.010526315789477
3.295212765957446
11.752631578947366
-6.329787234042553
12.67368421052631
6.329787234042552
8.676315789473684
0.9308510638297864
7.055263157894736
-3.4627659574468086
7.036842105263162
0.22340425531914843
5.010526315789477
3.3510638297872344
11.678947368421056
-6.329787234042553
12.67368421052631
6.236702127659575
8.805263157894736
0.9308510638297864
7.055263157894736
-3.4627659574468086
7.036842105263162
0.22340425531914843
5.010526315789477
3.537234042553191
11.550000000000004
-6.329787234042553
12.67368421052631
6.199468085106382
8.842105263157897
0.9308510638297864
7.055263157894736
-3.4627659574468086
7.036842105263162
0.22340425531914843
5.010526315789477
3.6117021276595747
11.457894736842107
-6.329787234042553
12.67368421052631
6.1436170212765955
8.952631578947368
0.9308510638297864
7.055263157894736
-3.4627659574468086
7.036842105263162
0.22340425531914843
5.010526315789477
3.7606382978723403
11.328947368421055
-6.329787234042553
12.67368421052631
6.125
9.026315789473685
0.9308510638297864
7.055263157894736
-3.4627659574468086
7.036842105263162
0.22340425531914843
5.010526315789477
3.835106382978722
11.255263157894738
-6.329787234042553
12.67368421052631
6.106382978723403
9.118421052631575
0.9308510638297864
7.055263157894736
-3.4627659574468086
7.036842105263162
0.22340425531914843
5.010526315789477
4.002659574468085
11.05263157894737
-6.329787234042553
12.67368421052631
6.050531914893616
9.39473684210526
0.9308510638297864
7.055263157894736
-3.4627659574468086
7.036842105263162
0.22340425531914843
5.010526315789477
4.0957446808510625
10.978947368421053
-6.329787234042553
12.67368421052631
6.013297872340425
9.560526315789474
0.9308510638297864
7.055263157894736
-3.4627659574468086
7.036842105263162
0.22340425531914843
5.010526315789477
4.319148936170212
10.776315789473685
-6.329787234042553
12.67368421052631
5.86436170212766
9.928947368421056
0.9308510638297864
7.055263157894736
-3.4627659574468086
7.036842105263162
0.22340425531914843
5.010526315789477
4.449468085106382
10.684210526315795
-6.329787234042553
12.67368421052631
5.752659574468085
10.131578947368425
0.9308510638297864
7.055263157894736
-3.4627659574468086
7.036842105263162
0.22340425531914843
5.010526315789477
4.542553191489361
10.610526315789471
-6.329787234042553
12.67368421052631
5.622340425531915
10.352631578947374
0.9308510638297864
7.055263157894736
-3.4627659574468086
7.036842105263162
0.22340425531914843
5.010526315789477
4.691489361702127
10.444736842105264
-6.329787234042553
12.67368421052631
5.38031914893617
10.739473684210523
0.9308510638297864
7.055263157894736
-3.4627659574468086
7.036842105263162
0.22340425531914843
5.010526315789477
4.784574468085106
10.371052631578948
-6.329787234042553
12.67368421052631
5.287234042553191
10.92368421052631
0.9308510638297864
7.055263157894736
-3.4627659574468086
7.036842105263162
0.22340425531914843
5.010526315789477
4.877659574468085
10.297368421052632
-6.329787234042553
12.67368421052631
5.045212765957446
11.27368421052632
0.9308510638297864
7.055263157894736
-3.4627659574468086
7.036842105263162
0.22340425531914843
5.010526315789477
5.101063829787233
10.149999999999999
-6.329787234042553
12.67368421052631
4.8962765957446805
11.439473684210526
0.9308510638297864
7.055263157894736
-3.4627659574468086
7.036842105263162
0.22340425531914843
5.010526315789477
5.2313829787234045
10.07631578947369
-6.329787234042553
12.67368421052631
4.5984042553191475
11.752631578947366
0.9308510638297864
7.055263157894736
-3.4627659574468086
7.036842105263162
0.22340425531914843
5.010526315789477
5.417553191489361
9.965789473684211
-6.329787234042553
12.67368421052631
4.468085106382977
11.863157894736844
0.9308510638297864
7.055263157894736
-3.4627659574468086
7.036842105263162
0.22340425531914843
5.010526315789477
5.51063829787234
9.892105263157895
-6.329787234042553
12.67368421052631
4.188829787234042
12.047368421052632
0.9308510638297864
7.055263157894736
