45
12
3.0159574468085104
5.157894736842103
2.1037234042553195
5.618421052631575
7.055851063829786
8.52894736842105
-0.3164893617021276
6.281578947368416
-2.8484042553191493
11.734210526315792
3.5930851063829774
11.531578947368416
3.0159574468085104
5.157894736842103
2.1037234042553195
5.618421052631575
7.055851063829786
8.52894736842105
-0.05585106382978733
6.244736842105269
-2.8484042553191493
11.734210526315792
3.5930851063829774
11.531578947368416
3.0159574468085104
5.157894736842103
2.1037234042553195
5.618421052631575
7.055851063829786
8.52894736842105
0.03723404255319096
6.244736842105269
-2.8484042553191493
11.734210526315792
3.5930851063829774
11.531578947368416
3.0159574468085104
5.157894736842103
2.1037234042553195
5.618421052631575
7.055851063829786
8.52894736842105
0.2606382978723403
6.189473684210526
-2.8484042553191493
11.734210526315792
3.5930851063829774
11.531578947368416
3.0159574468085104
5.157894736842103
2.1037234042553195
5.618421052631575
7.055851063829786
8.52894736842105
0.3351063829787231
6.189473684210526
-2.8484042553191493
11.734210526315792
3.5930851063829774
11.531578947368416
3.0159574468085104
5.157894736842103
2.122340425531915
5.673684210526318
7.055851063829786
8.52894736842105
0.3351063829787231
6.189473684210526
-2.8484042553191493
11.734210526315792
3.5930851063829774
11.531578947368416
3.0159574468085104
5.157894736842103
2.085106382978722
5.692105263157899
7.055851063829786
8.52894736842105
0.3351063829787231
6.189473684210526
-2.8484042553191493
11.734210526315792
3.4813829787234045
11.531578947368416
3.0159574468085104
5.157894736842103
1.9734042553191493
5.692105263157899
7.055851063829786
8.52894736842105
0.3351063829787231
6.189473684210526
-2.662234042553192
11.881578947368425
3.36968085106383
11.494736842105262
3.0159574468085104
5.157894736842103
1.8803191489361701
5.692105263157899
7.055851063829786
8.52894736842105
0.3351063829787231
6.189473684210526
-2.587765957446809
11.93684210526316
3.257978723404255
11.457894736842107
3.0159574468085104
5.157894736842103
1.7686170212765955
5.673684210526318
7.055851063829786
8.52894736842105
0.3351063829787231
6.189473684210526
-2.457446808510639
11.992105263157896
2.9787234042553195
11.36578947368421
3.0159574468085104
5.157894736842103
1.6010638297872344
5.655263157894737
7.055851063829786
8.52894736842105
0.3351063829787231
6.189473684210526
-2.0292553191489366
12.121052631578948
2.7739361702127656
11.310526315789474
3.0159574468085104
5.157894736842103
1.1728723404255312
5.600000000000001
7.055851063829786
8.52894736842105
0.3351063829787231
6.189473684210526
-1.7313829787234045
12.194736842105264
2.5505319148936163
11.292105263157893
3.0159574468085104
5.157894736842103
0.9308510638297864
5.600000000000001
7.055851063829786
8.52894736842105
0.3351063829787231
6.189473684210526
-1.0239361702127665
12.305263157894736
1.6941489361702118
11.218421052631584
3.0159574468085104
5.157894736842103
0.6515957446808507
5.5815789473684205
7.055851063829786
8.52894736842105
0.3351063829787231
6.189473684210526
-0.6143617021276597
12.360526315789471
1.377659574468085
11.218421052631584
3.0159574468085104
5.157894736842103
0.37234042553191493
5.5815789473684205
7.055851063829786
8.52894736842105
0.3351063829787231
6.189473684210526
0.1675531914893611
12.397368421052626
0.707446808510638
11.199999999999996
3.0159574468085104
5.157894736842103
-0.2978723404255321
5.618421052631575
7.055851063829786
8.52894736842105
0.3351063829787231
6.189473684210526
0.539893617021276
12.415789473684214
0.3351063829787231
11.199999999999996
3.0159574468085104
5.157894736842103
-0.6515957446808516
5.655263157894737
7.055851063829786
8.52894736842105
0.3351063829787231
6.189473684210526
1.247340425531915
12.37894736842106
-0.37234042553191493
11.236842105263158
3.0159574468085104
5.157894736842103
-1.0053191489361701
5.710526315789473
7.055851063829786
8.52894736842105
0.3351063829787231
6.189473684210526
1.8803191489361701
12.360526315789471
-1.0239361702127665
11.310526315789474
3.0159574468085104
5.157894736842103
-1.377659574468085
5.80263157894737
7.055851063829786
8.52894736842105
0.3351063829787231
6.189473684210526
2.420212765957446
12.323684210526316
-1.6569148936170217
11.439473684210526
3.0159574468085104
5.157894736842103
-1.7686170212765964
5.8578947368421055
7.055851063829786
8.52894736842105
0.3351063829787231
6.189473684210526
2.6808510638297864
12.305263157894736
-1.8989361702127665
11.494736842105262
3.0159574468085104
5.157894736842103
-2.4015957446808516
5.9868421052631575
7.055851063829786
8.52894736842105
0.3351063829787231
6.189473684210526
3.1835106382978715
12.268421052631581
-2.2340425531914896
11.60526315789474
3.0159574468085104
5.157894736842103
-2.75531914893617
6.078947368421055
7.055851063829786
8.52894736842105
0.3351063829787231
6.189473684210526
3.36968085106383
12.231578947368419
-2.3643617021276597
11.623684210526314
3.0159574468085104
5.157894736842103
-3.015957446808511
6.152631578947371
7.055851063829786
8.52894736842105
0.3351063829787231
6.189473684210526
3.6861702127659566
12.213157894736845
-2.3643617021276597
11.623684210526314
3.0159574468085104
5.157894736842103
-3.220744680851064
6.207894736842107
7.055851063829786
8.52894736842105
0.3351063829787231
6.189473684210526
3.835106382978722
12.176315789473684
-2.3643617021276597
11.623684210526314
3.0159574468085104
5.157894736842103
-3.388297872340426
6.2631578947368425
7.055851063829786
8.52894736842105
0.3351063829787231
6.189473684210526
4.132978723404255
12.139473684210529
-2.3643617021276597
11.623684210526314
3.0159574468085104
5.157894736842103
-3.5930851063829787
6.318421052631578
7.055851063829786
8.52894736842105
0.3351063829787231
6.189473684210526
4.207446808510637
12.121052631578948
-2.3643617021276597
11.623684210526314
-1.4521276595744688
5.968421052631584
-3.5930851063829787
6.318421052631578
7.055851063829786
8.52894736842105
0.3351063829787231
6.189473684210526
4.207446808510637
12.121052631578948
-2.3643617021276597
11.623684210526314
-1.414893617021277
6.097368421052636
-3.5930851063829787
6.318421052631578
7.055851063829786
8.52894736842105
0.3351063829787231
6.189473684210526
4.207446808510637
12.121052631578948
-2.3643617021276597
11.623684210526314
-1.3962765957446814
6.189473684210526
-3.5930851063829787
6.318421052631578
7.055851063829786
8.52894736842105
0.3351063829787231
6.189473684210526
4.207446808510637
12.121052631578948
-2.3643617021276597
11.623684210526314
-1.377659574468085
6.336842105263159
-3.5930851063829787
6.318421052631578
7.055851063829786
8.52894736842105
0.3351063829787231
6.189473684210526
4.207446808510637
12.121052631578948
-2.3643617021276597
11.623684210526314
-1.340425531914894
6.539473684210527
-3.5930851063829787
6.318421052631578
7.055851063829786
8.52894736842105
0.3351063829787231
6.189473684210526
4.207446808510637
12.121052631578948
-2.3643617021276597
11.623684210526314
-1.3031914893617023
6.852631578947374
-3.5930851063829787
6.318421052631578
7.055851063829786
8.52894736842105
0.3351063829787231
6.189473684210526
4.207446808510637
12.121052631578948
-2.3643617021276597
11.623684210526314
-1.247340425531915
7.442105263157899
-3.5930851063829787
6.318421052631578
7.055851063829786
8.52894736842105
0.3351063829787231
6.189473684210526
4.207446808510637
12.121052631578948
-2.3643617021276597
11.623684210526314
-1.210106382978724
7.828947368421055
-3.5930851063829787
6.318421052631578
7.055851063829786
8.52894736842105
0.3351063829787231
6.189473684210526
4.207446808510637
12.121052631578948
-2.3643617021276597
11.623684210526314
-1.1728723404255321
8.178947368421056
-3.5930851063829787
6.318421052631578
7.055851063829786
8.52894736842105
0.3351063829787231
6.189473684210526
4.207446808510637
12.121052631578948
-2.3643617021276597
11.623684210526314
-1.1728723404255321
8.565789473684212
-3.5930851063829787
6.318421052631578
7.055851063829786
8.52894736842105
0.3351063829787231
6.189473684210526
4.207446808510637
12.121052631578948
-2.3643617021276597
11.623684210526314
-1.1914893617021276
9.228947368421053
-3.5930851063829787
6.318421052631578
7.055851063829786
8.52894736842105
0.3351063829787231
6.189473684210526
4.207446808510637
12.121052631578948
-2.3643617021276597
11.623684210526314
-1.2287234042553195
9.52368421052632
-3.5930851063829787
6.318421052631578
7.055851063829786
8.52894736842105
0.3351063829787231
6.189473684210526
4.207446808510637
12.121052631578948
-2.3643617021276597
11.623684210526314
-1.247340425531915
9.763157894736842
-3.5930851063829787
6.318421052631578
7.055851063829786
8.52894736842105
0.3351063829787231
6.189473684210526
4.207446808510637
12.121052631578948
-2.3643617021276597
11.623684210526314
-1.2845744680851068
10.021052631578947
-3.5930851063829787
6.318421052631578
7.055851063829786
8.52894736842105
0.3351063829787231
6.189473684210526
4.207446808510637
12.121052631578948
-2.3643617021276597
11.623684210526314
-1.3590425531914896
10.463157894736845
-3.5930851063829787
6.318421052631578
7.055851063829786
8.52894736842105
0.3351063829787231
6.189473684210526
4.207446808510637
12.121052631578948
-2.3643617021276597
11.623684210526314
-1.377659574468085
10.610526315789471
-3.5930851063829787
6.318421052631578
7.055851063829786
8.52894736842105
0.3351063829787231
6.189473684210526
4.207446808510637
12.121052631578948
-2.3643617021276597
11.623684210526314
-1.3962765957446814
10.72105263157895
-3.5930851063829787
6.318421052631578
7.055851063829786
8.52894736842105
0.3351063829787231
6.189473684210526
4.207446808510637
12.121052631578948
-2.3643617021276597
11.623684210526314
-1.3962765957446814
10.72105263157895
-3.5930851063829787
6.318421052631578
7.055851063829786
8.52894736842105
0.3351063829787231
6.189473684210526
4.207446808510637
12.121052631578948
-2.3643617021276597
11.623684210526314
-1.3962765957446814
10.72105263157895
-3.034574468085107
6.44736842105263
7.055851063829786
8.52894736842105
0.3351063829787231
6.189473684210526
4.207446808510637
12.121052631578948
-2.3643617021276597
11.623684210526314
