45
12
6.478723404255318
7.460526315789473
5.603723404255318
8.031578947368416
3.946808510638297
12.949999999999996
-5.324468085106383
9.928947368421056
0.4840425531914887
7.221052631578949
-2.8856382978723403
12.655263157894737
6.478723404255318
7.460526315789473
5.603723404255318
8.031578947368416
3.946808510638297
12.949999999999996
-5.324468085106383
9.928947368421056
0.4840425531914887
7.221052631578949
-2.8856382978723403
12.655263157894737
6.478723404255318
7.460526315789473
5.603723404255318
8.031578947368416
3.946808510638297
12.949999999999996
-5.324468085106383
9.928947368421056
0.6515957446808507
7.221052631578949
-2.8856382978723403
12.655263157894737
6.478723404255318
7.460526315789473
5.603723404255318
8.031578947368416
4.11436170212766
12.80263157894737
-5.324468085106383
9.928947368421056
0.7260638297872335
7.257894736842104
-2.8856382978723403
12.655263157894737
6.478723404255318
7.460526315789473
5.603723404255318
8.031578947368416
4.170212765957446
12.728947368421053
-5.324468085106383
9.928947368421056
0.9308510638297864
7.350000000000001
-2.8856382978723403
12.655263157894737
6.478723404255318
7.460526315789473
5.603723404255318
8.031578947368416
4.226063829787234
12.618421052631575
-5.324468085106383
9.928947368421056
1.2659574468085104
7.534210526315789
-2.8856382978723403
12.655263157894737
6.478723404255318
7.460526315789473
5.603723404255318
8.031578947368416
4.337765957446807
12.360526315789471
-5.324468085106383
9.928947368421056
1.452127659574467
7.681578947368422
-2.8856382978723403
12.655263157894737
6.478723404255318
7.460526315789473
5.603723404255318
8.031578947368416
4.3936170212765955
12.213157894736845
-5.324468085106383
9.928947368421056
1.787234042553191
8.013157894736842
-2.8856382978723403
12.655263157894737
6.478723404255318
7.460526315789473
5.603723404255318
8.031578947368416
4.449468085106382
12.065789473684205
-5.324468085106383
9.928947368421056
1.9920212765957448
8.19736842105263
-2.8856382978723403
12.655263157894737
6.478723404255318
7.460526315789473
5.603723404255318
8.031578947368416
4.542553191489361
11.752631578947366
-5.324468085106383
9.928947368421056
2.1781914893617014
8.41842105263158
-2.8856382978723403
12.655263157894737
6.478723404255318
7.460526315789473
5.603723404255318
8.031578947368416
4.579787234042552
11.586842105263159
-5.324468085106383
9.928947368421056
2.457446808510637
8.805263157894736
-2.8856382978723403
12.655263157894737
6.478723404255318
7.460526315789473
5.603723404255318
8.031578947368416
4.5984042553191475
11.421052631578945
-5.324468085106383
9.928947368421056
2.569148936170212
8.989473684210523
-2.8856382978723403
12.655263157894737
6.478723404255318
7.460526315789473
5.603723404255318
8.031578947368416
4.63563829787234
11.034210526315789
-5.324468085106383
9.928947368421056
2.8111702127659566
9.376315789473686
-2.8856382978723403
12.655263157894737
6.478723404255318
7.460526315789473
5.603723404255318
8.031578947368416
4.63563829787234
10.886842105263156
-5.324468085106383
9.928947368421056
2.9228723404255312
9.560526315789474
-2.8856382978723403
12.655263157894737
6.478723404255318
7.460526315789473
5.603723404255318
8.031578947368416
4.617021276595745
10.702631578947368
-5.324468085106383
9.928947368421056
3.1090425531914896
9.85526315789474
-2.8856382978723403
12.655263157894737
6.478723404255318
7.460526315789473
5.603723404255318
8.031578947368416
4.561170212765957
10.371052631578948
-5.324468085106383
9.928947368421056
3.202127659574467
10.021052631578947
-2.8856382978723403
12.655263157894737
6.478723404255318
7.460526315789473
5.603723404255318
8.031578947368416
4.523936170212766
10.205263157894741
-5.324468085106383
9.928947368421056
3.332446808510637
10.27894736842105
-2.8856382978723403
12.655263157894737
6.478723404255318
7.460526315789473
5.603723404255318
8.031578947368416
4.486702127659575
10.021052631578947
-5.324468085106383
9.928947368421056
3.36968085106383
10.40789473684211
-2.8856382978723403
12.655263157894737
6.478723404255318
7.460526315789473
5.603723404255318
8.031578947368416
4.375
9.671052631578945
-5.324468085106383
9.928947368421056
3.444148936170212
10.702631578947368
-2.8856382978723403
12.655263157894737
6.478723404255318
7.460526315789473
5.603723404255318
8.031578947368416
4.300531914893616
9.468421052631584
-5.324468085106383
9.928947368421056
3.4813829787234045
10.81315789473684
-2.8856382978723403
12.655263157894737
6.478723404255318
7.460526315789473
5.603723404255318
8.031578947368416
4.188829787234042
9.284210526315789
-5.324468085106383
9.928947368421056
3.5
10.886842105263156
-2.8856382978723403
12.655263157894737
6.478723404255318
7.460526315789473
5.603723404255318
8.031578947368416
4.077127659574467
9.100000000000001
-5.324468085106383
9.928947368421056
3.5186170212765955
11.015789473684208
-2.8856382978723403
12.655263157894737
6.478723404255318
7.460526315789473
5.603723404255318
8.031578947368416
3.872340425531915
8.805263157894736
-5.324468085106383
9.928947368421056
3.537234042553191
11.089473684210525
-2.8856382978723403
12.655263157894737
6.478723404255318
7.460526315789473
5.603723404255318
8.031578947368416
3.7606382978723403
8.639473684210529
-5.324468085106383
9.928947368421056
3.537234042553191
11.14473684210526
-2.8856382978723403
12.655263157894737
6.478723404255318
7.460526315789473
5.603723404255318
8.031578947368416
3.4813829787234045
8.289473684210527
-5.324468085106383
9.928947368421056
3.5558510638297864
11.163157894736841
-2.8856382978723403
12.655263157894737
6.478723404255318
7.460526315789473
5.603723404255318
8.031578947368416
3.332446808510637
8.142105263157895
-5.324468085106383
9.928947368421056
3.5558510638297864
11.163157894736841
-2.8856382978723403
12.655263157894737
6.478723404255318
7.460526315789473
5.603723404255318
8.031578947368416
3.034574468085106
7.847368421052636
-5.324468085106383
9.928947368421056
3.5558510638297864
11.163157894736841
-2.8856382978723403
12.655263157894737
6.478723404255318
7.460526315789473
5.603723404255318
8.031578947368416
2.9042553191489358
7.699999999999996
-5.324468085106383
9.928947368421056
3.5558510638297864
11.163157894736841
-2.8856382978723403
12.655263157894737
6.478723404255318
7.460526315789473
5.603723404255318
8.031578947368416
2.75531914893617
7.55263157894737
-5.324468085106383
9.928947368421056
3.5558510638297864
11.163157894736841
-2.8856382978723403
12.655263157894737
6.478723404255318
7.460526315789473
5.603723404255318
8.031578947368416
2.420212765957446
7.276315789473685
-5.324468085106383
9.928947368421056
3.5558510638297864
11.163157894736841
-2.8856382978723403
12.655263157894737
6.478723404255318
7.460526315789473
5.603723404255318
8.031578947368416
2.2712765957446805
7.184210526315788
-5.324468085106383
9.928947368421056
3.5558510638297864
11.163157894736841
-2.8856382978723403
12.655263157894737
6.478723404255318
7.460526315789473
5.603723404255318
8.031578947368416
2.122340425531915
7.055263157894736
-5.324468085106383
9.928947368421056
3.5558510638297864
11.163157894736841
-2.8856382978723403
12.655263157894737
6.478723404255318
7.460526315789473
5.603723404255318
8.031578947368416
1.787234042553191
6.852631578947374
-5.324468085106383
9.928947368421056
3.5558510638297864
11.163157894736841
-2.8856382978723403
12.655263157894737
6.478723404255318
7.460526315789473
5.603723404255318
8.031578947368416
1.6010638297872344
6.760526315789477
-5.324468085106383
9.928947368421056
3.5558510638297864
11.163157894736841
-2.8856382978723403
12.655263157894737
6.478723404255318
7.460526315789473
5.603723404255318
8.031578947368416
1.3218085106382969
6.613157894736844
-5.324468085106383
9.928947368421056
3.5558510638297864
11.163157894736841
-2.8856382978723403
12.655263157894737
6.478723404255318
7.460526315789473
5.603723404255318
8.031578947368416
1.2101063829787222
6.557894736842101
-5.324468085106383
9.928947368421056
3.5558510638297864
11.163157894736841
-2.8856382978723403
12.655263157894737
6.478723404255318
7.460526315789473
5.603723404255318
8.031578947368416
1.0239361702127656
6.465789473684211
-5.324468085106383
9.928947368421056
3.5558510638297864
11.163157894736841
-2.8856382978723403
12.655263157894737
7.0186170212765955
7.4789473684210535
5.603723404255318
8.031578947368416
1.0239361702127656
6.465789473684211
-5.324468085106383
9.928947368421056
3.5558510638297864
11.163157894736841
-2.8856382978723403
12.655263157894737
7.0
7.4789473684210535
5.603723404255318
8.031578947368416
1.0239361702127656
6.465789473684211
-5.324468085106383
9.928947368421056
3.5558510638297864
11.163157894736841
-2.8856382978723403
12.655263157894737
6.981382978723403
7.4789473684210535
5.603723404255318
8.031578947368416
1.0239361702127656
6.465789473684211
-5.324468085106383
9.928947368421056
3.5558510638297864
11.163157894736841
-2.8856382978723403
12.655263157894737
6.962765957446807
7.4789473684210535
5.603723404255318
8.031578947368416
1.0239361702127656
6.465789473684211
-5.324468085106383
9.928947368421056
3.5558510638297864
11.163157894736841
-2.8856382978723403
12.655263157894737
6.925531914893616
7.4789473684210535
5.603723404255318
8.031578947368416
1.0239361702127656
6.465789473684211
-5.324468085106383
9.928947368421056
3.5558510638297864
11.163157894736841
-2.8856382978723403
12.655263157894737
6.906914893617021
7.460526315789473
5.603723404255318
8.031578947368416
1.0239361702127656
6.465789473684211
-5.324468085106383
9.928947368421056
3.5558510638297864
11.163157894736841
-2.8856382978723403
12.655263157894737
6.757978723404255
7.405263157894737
5.603723404255318
8.031578947368416
1.0239361702127656
6.465789473684211
-5.324468085106383
9.928947368421056
3.5558510638297864
11.163157894736841
-2.8856382978723403
12.655263157894737
6.627659574468085
7.350000000000001
5.603723404255318
8.031578947368416
1.0239361702127656
6.465789473684211
-5.324468085106383
9.928947368421056
3.5558510638297864
11.163157894736841
-2.8856382978723403
12.655263157894737
