45
12
7.539893617021276
6.760526315789477
3.4255319148936163
4.586842105263159
6.888297872340425
8.086842105263159
-6.348404255319149
12.747368421052634
-2.587765957446809
5.618421052631575
3.742021276595745
12.047368421052632
7.61436170212766
6.852631578947374
3.4255319148936163
4.586842105263159
6.888297872340425
8.086842105263159
-6.348404255319149
12.747368421052634
-2.587765957446809
5.618421052631575
3.742021276595745
12.047368421052632
7.688829787234042
6.963157894736838
3.4255319148936163
4.586842105263159
6.888297872340425
8.086842105263159
-6.348404255319149
12.747368421052634
-2.587765957446809
5.618421052631575
3.742021276595745
12.047368421052632
7.763297872340425
7.055263157894736
3.4255319148936163
4.586842105263159
6.888297872340425
8.086842105263159
-6.348404255319149
12.747368421052634
-2.587765957446809
5.618421052631575
3.742021276595745
12.047368421052632
7.856382978723403
7.2026315789473685
3.4255319148936163
4.586842105263159
6.888297872340425
8.086842105263159
-6.348404255319149
12.747368421052634
-2.587765957446809
5.618421052631575
3.742021276595745
12.047368421052632
7.8936170212765955
7.276315789473685
3.4255319148936163
4.586842105263159
6.888297872340425
8.086842105263159
-6.348404255319149
12.747368421052634
-2.587765957446809
5.618421052631575
3.742021276595745
12.047368421052632
7.930851063829786
7.3315789473684205
3.4255319148936163
4.586842105263159
6.888297872340425
8.086842105263159
-6.348404255319149
12.747368421052634
-2.587765957446809
5.618421052631575
3.742021276595745
12.047368421052632
7.968085106382977
7.386842105263156
3.4255319148936163
4.586842105263159
6.888297872340425
8.086842105263159
-6.348404255319149
12.747368421052634
-2.587765957446809
5.618421052631575
3.742021276595745
12.047368421052632
7.968085106382977
7.386842105263156
3.3138297872340416
4.789473684210527
6.888297872340425
8.086842105263159
-6.348404255319149
12.747368421052634
-2.587765957446809
5.618421052631575
3.742021276595745
12.047368421052632
7.968085106382977
7.386842105263156
3.295212765957446
4.900000000000006
6.888297872340425
8.086842105263159
-6.348404255319149
12.747368421052634
-2.587765957446809
5.618421052631575
3.742021276595745
12.047368421052632
7.968085106382977
7.386842105263156
3.2393617021276597
5.028947368421051
6.888297872340425
8.086842105263159
-6.348404255319149
12.747368421052634
-2.49468085106383
5.655263157894737
3.742021276595745
12.047368421052632
7.968085106382977
7.386842105263156
3.164893617021276
5.3236842105263165
6.888297872340425
8.086842105263159
-6.348404255319149
12.747368421052634
-2.382978723404255
5.655263157894737
3.742021276595745
12.047368421052632
7.968085106382977
7.386842105263156
3.0904255319148923
5.507894736842104
6.888297872340425
8.086842105263159
-6.348404255319149
12.747368421052634
-2.252659574468085
5.673684210526318
3.742021276595745
12.047368421052632
7.968085106382977
7.386842105263156
3.0159574468085104
5.655263157894737
6.888297872340425
8.086842105263159
-6.348404255319149
12.747368421052634
-1.8244680851063828
5.7289473684210535
3.742021276595745
12.047368421052632
7.968085106382977
7.386842105263156
2.7739361702127656
6.005263157894738
6.888297872340425
8.086842105263159
-6.348404255319149
12.747368421052634
-1.6196808510638299
5.784210526315789
3.742021276595745
12.047368421052632
7.968085106382977
7.386842105263156
2.6436170212765955
6.171052631578945
6.888297872340425
8.086842105263159
-6.348404255319149
12.747368421052634
-1.1914893617021276
5.913157894736841
3.742021276595745
12.047368421052632
7.968085106382977
7.386842105263156
2.3457446808510642
6.465789473684211
6.888297872340425
8.086842105263159
-6.348404255319149
12.747368421052634
-0.9680851063829792
5.968421052631584
3.742021276595745
12.047368421052632
7.968085106382977
7.386842105263156
2.1781914893617014
6.594736842105263
6.888297872340425
8.086842105263159
-6.348404255319149
12.747368421052634
-0.5585106382978724
6.097368421052636
3.742021276595745
12.047368421052632
7.968085106382977
7.386842105263156
2.0106382978723403
6.742105263157896
6.888297872340425
8.086842105263159
-6.348404255319149
12.747368421052634
-0.3909574468085113
6.152631578947371
3.742021276595745
12.047368421052632
7.968085106382977
7.386842105263156
1.6569148936170208
6.944736842105264
6.888297872340425
8.086842105263159
-6.348404255319149
12.747368421052634
-0.03723404255319185
6.2631578947368425
3.742021276595745
12.047368421052632
7.968085106382977
7.386842105263156
1.414893617021276
7.0736842105263165
6.888297872340425
8.086842105263159
-6.348404255319149
12.747368421052634
0.09308510638297829
6.318421052631578
3.742021276595745
12.047368421052632
7.968085106382977
7.386842105263156
1.042553191489361
7.276315789473685
6.888297872340425
8.086842105263159
-6.348404255319149
12.747368421052634
0.29787234042553123
6.3921052631578945
3.742021276595745
12.047368421052632
7.968085106382977
7.386842105263156
0.8377659574468082
7.386842105263156
6.888297872340425
8.086842105263159
-6.348404255319149
12.747368421052634
0.37234042553191493
6.428947368421056
3.742021276595745
12.047368421052632
7.968085106382977
7.386842105263156
0.4095744680851059
7.55263157894737
6.888297872340425
8.086842105263159
-6.348404255319149
12.747368421052634
0.42819148936170137
6.465789473684211
3.742021276595745
12.047368421052632
7.968085106382977
7.386842105263156
-0.03723404255319185
7.699999999999996
6.888297872340425
8.086842105263159
-6.348404255319149
12.747368421052634
0.5212765957446805
6.484210526315792
3.742021276595745
12.047368421052632
7.968085106382977
7.386842105263156
-0.5212765957446814
7.792105263157893
6.888297872340425
8.086842105263159
-6.348404255319149
12.747368421052634
0.539893617021276
6.502631578947366
3.742021276595745
12.047368421052632
7.968085106382977
7.386842105263156
-0.7632978723404262
7.810526315789474
6.888297872340425
8.086842105263159
-6.348404255319149
12.747368421052634
0.5771276595744679
6.539473684210527
3.742021276595745
12.047368421052632
7.968085106382977
7.386842105263156
-1.2845744680851068
7.828947368421055
6.888297872340425
8.086842105263159
-6.348404255319149
12.747368421052634
0.5771276595744679
6.557894736842101
3.742021276595745
12.047368421052632
7.968085106382977
7.386842105263156
-1.545212765957447
7.828947368421055
6.888297872340425
8.086842105263159
-6.348404255319149
12.747368421052634
0.5771276595744679
6.557894736842101
3.742021276595745
12.047368421052632
7.968085106382977
7.386842105263156
-2.1409574468085113
7.755263157894738
6.888297872340425
8.086842105263159
-6.348404255319149
12.747368421052634
0.5771276595744679
6.557894736842101
3.742021276595745
12.047368421052632
7.968085106382977
7.386842105263156
-2.4388297872340425
7.699999999999996
6.888297872340425
8.086842105263159
-6.348404255319149
12.747368421052634
0.5771276595744679
6.557894736842101
3.742021276595745
12.047368421052632
7.968085106382977
7.386842105263156
-3.1090425531914896
7.589473684210525
6.888297872340425
8.086842105263159
-6.348404255319149
12.747368421052634
0.5771276595744679
6.557894736842101
3.742021276595745
12.047368421052632
7.968085106382977
7.386842105263156
-3.425531914893617
7.497368421052634
6.888297872340425
8.086842105263159
-6.348404255319149
12.747368421052634
0.5771276595744679
6.557894736842101
3.742021276595745
12.047368421052632
7.968085106382977
7.386842105263156
-3.9840425531914896
7.405263157894737
6.888297872340425
8.086842105263159
-6.348404255319149
12.747368421052634
0.5771276595744679
6.557894736842101
3.742021276595745
12.047368421052632
7.968085106382977
7.386842105263156
-4.226063829787234
7.350000000000001
6.888297872340425
8.086842105263159
-6.348404255319149
12.747368421052634
0.5771276595744679
6.557894736842101
3.742021276595745
12.047368421052632
7.968085106382977
7.386842105263156
-4.654255319148936
7.221052631578949
6.888297872340425
8.086842105263159
-6.348404255319149
12.747368421052634
0.5771276595744679
6.557894736842101
3.742021276595745
12.047368421052632
7.968085106382977
7.386842105263156
-4.76595744680851
7.2026315789473685
6.888297872340425
8.086842105263159
-6.348404255319149
12.747368421052634
0.5771276595744679
6.557894736842101
3.742021276595745
12.047368421052632
7.968085106382977
7.386842105263156
-4.821808510638299
7.165789473684214
6.888297872340425
8.086842105263159
-6.348404255319149
12.747368421052634
0.5771276595744679
6.557894736842101
3.742021276595745
12.047368421052632
8.377659574468085
7.534210526315789
-4.821808510638299
7.165789473684214
6.888297872340425
8.086842105263159
-6.348404255319149
12.747368421052634
0.5771276595744679
6.557894736842101
3.742021276595745
12.047368421052632
8.377659574468085
7.534210526315789
-4.821808510638299
7.165789473684214
6.888297872340425
8.086842105263159
-6.348404255319149
12.747368421052634
0.5771276595744679
6.557894736842101
3.742021276595745
12.047368421052632
8.284574468085106
7.534210526315789
-4.821808510638299
7.165789473684214
6.888297872340425
8.086842105263159
-6.348404255319149
12.747368421052634
0.5771276595744679
6.557894736842101
3.742021276595745
12.047368421052632
8.247340425531915
7.534210526315789
-4.821808510638299
7.165789473684214
6.888297872340425
8.086842105263159
-6.348404255319149
12.747368421052634
0.5771276595744679
6.557894736842101
3.742021276595745
12.047368421052632
8.172872340425531
7.534210526315789
-4.821808510638299
7.165789473684214
6.888297872340425
8.086842105263159
-6.348404255319149
12.747368421052634
0.5771276595744679
6.557894736842101
3.742021276595745
12.047368421052632
8.117021276595745
7.497368421052634
-4.821808510638299
7.165789473684214
6.888297872340425
8.086842105263159
-6.348404255319149
12.747368421052634
0.5771276595744679
6.557894736842101
3.742021276595745
12.047368421052632
7.949468085106382
7.460526315789473
-4.821808510638299
7.165789473684214
6.888297872340425
8.086842105263159
-6.348404255319149
12.747368421052634
0.5771276595744679
6.557894736842101
3.742021276595745
12.047368421052632
