45
12
1.4707446808510642
4.6421052631578945
7.39095744680851
11.347368421052629
-5.752659574468085
12.839473684210525
-5.473404255319149
3.9421052631578988
-4.077127659574469
11.218421052631584
0.5212765957446805
5.231578947368419
1.4707446808510642
4.6421052631578945
7.39095744680851
11.347368421052629
-5.752659574468085
12.839473684210525
-5.473404255319149
3.9421052631578988
-4.077127659574469
11.218421052631584
-0.1489361702127665
5.25
1.4707446808510642
4.6421052631578945
7.297872340425531
11.347368421052629
-5.6037234042553195
12.89473684210526
-5.473404255319149
3.9421052631578988
-4.077127659574469
11.218421052631584
-0.18617021276595747
5.268421052631581
1.4707446808510642
4.6421052631578945
7.279255319148936
11.236842105263158
-5.547872340425532
12.89473684210526
-5.473404255319149
3.9421052631578988
-4.077127659574469
11.218421052631584
-0.22340425531914931
5.286842105263162
1.4707446808510642
4.6421052631578945
7.26063829787234
11.089473684210525
-5.454787234042553
12.857894736842105
-5.473404255319149
3.9421052631578988
-4.077127659574469
11.218421052631584
-0.35372340425531945
5.305263157894736
1.4707446808510642
4.6421052631578945
7.242021276595745
10.92368421052631
-5.138297872340425
12.821052631578944
-5.473404255319149
3.9421052631578988
-4.077127659574469
11.218421052631584
-0.4840425531914896
5.305263157894736
1.4707446808510642
4.6421052631578945
7.148936170212766
10.426315789473684
-4.933510638297872
12.821052631578944
-5.473404255319149
3.9421052631578988
-4.077127659574469
11.218421052631584
-0.6329787234042552
5.3236842105263165
1.4707446808510642
4.6421052631578945
7.055851063829786
10.149999999999999
-4.412234042553191
12.821052631578944
-5.473404255319149
3.9421052631578988
-4.077127659574469
11.218421052631584
-0.7819148936170217
5.342105263157897
1.4707446808510642
4.6421052631578945
6.888297872340425
9.836842105263159
-4.132978723404255
12.839473684210525
-5.473404255319149
3.9421052631578988
-4.077127659574469
11.218421052631584
-1.1170212765957448
5.378947368421052
1.4707446808510642
4.6421052631578945
6.571808510638297
9.210526315789473
-3.4069148936170213
12.839473684210525
-5.473404255319149
3.9421052631578988
-4.077127659574469
11.218421052631584
-1.3218085106382977
5.415789473684214
1.4707446808510642
4.6421052631578945
6.404255319148936
8.878947368421052
-2.6436170212765964
12.80263157894737
-5.473404255319149
3.9421052631578988
-4.077127659574469
11.218421052631584
-1.5079787234042552
5.471052631578949
1.4707446808510642
4.6421052631578945
6.031914893617021
8.363157894736844
-2.289893617021277
12.747368421052634
-5.473404255319149
3.9421052631578988
-4.077127659574469
11.218421052631584
-1.6569148936170217
5.526315789473685
1.4707446808510642
4.6421052631578945
5.901595744680851
8.215789473684211
-1.5638297872340425
12.636842105263156
-5.473404255319149
3.9421052631578988
-4.077127659574469
11.218421052631584
-1.8058510638297873
5.618421052631575
1.4707446808510642
4.6421052631578945
5.789893617021276
8.123684210526314
-1.2287234042553195
12.56315789473684
-5.473404255319149
3.9421052631578988
-4.077127659574469
11.218421052631584
-1.8058510638297873
5.618421052631575
1.4707446808510642
4.6421052631578945
5.64095744680851
7.976315789473681
-0.27925531914893664
12.34210526315789
-5.473404255319149
3.9421052631578988
-4.077127659574469
11.218421052631584
-1.8058510638297873
5.618421052631575
1.4707446808510642
4.6421052631578945
5.64095744680851
7.976315789473681
0.03723404255319096
12.268421052631581
-5.473404255319149
3.9421052631578988
-4.077127659574469
11.218421052631584
-1.8058510638297873
5.618421052631575
1.4707446808510642
4.6421052631578945
5.64095744680851
7.976315789473681
0.5585106382978724
12.084210526315786
-5.473404255319149
3.9421052631578988
-4.077127659574469
11.218421052631584
-1.8058510638297873
5.618421052631575
1.4707446808510642
4.6421052631578945
5.64095744680851
7.976315789473681
0.8191489361702127
11.992105263157896
-5.473404255319149
3.9421052631578988
-4.077127659574469
11.218421052631584
-1.8058510638297873
5.618421052631575
1.4707446808510642
4.6421052631578945
5.64095744680851
7.976315789473681
1.247340425531915
11.82631578947369
-5.473404255319149
3.9421052631578988
-4.077127659574469
11.218421052631584
-1.8058510638297873
5.618421052631575
1.4707446808510642
4.6421052631578945
5.64095744680851
7.976315789473681
1.414893617021276
11.752631578947366
-5.473404255319149
3.9421052631578988
-4.077127659574469
11.218421052631584
-1.8058510638297873
5.618421052631575
1.4707446808510642
4.6421052631578945
5.64095744680851
7.976315789473681
1.7127659574468073
11.586842105263159
-5.473404255319149
3.9421052631578988
-4.077127659574469
11.218421052631584
-1.8058510638297873
5.618421052631575
1.4707446808510642
4.6421052631578945
5.64095744680851
7.976315789473681
1.824468085106382
11.513157894736842
-5.473404255319149
3.9421052631578988
-4.077127659574469
11.218421052631584
-1.8058510638297873
5.618421052631575
1.4707446808510642
4.6421052631578945
5.64095744680851
7.976315789473681
2.0664893617021267
11.347368421052629
-5.473404255319149
3.9421052631578988
-4.077127659574469
11.218421052631584
-1.8058510638297873
5.618421052631575
1.4707446808510642
4.6421052631578945
5.64095744680851
7.976315789473681
2.159574468085106
11.27368421052632
-5.473404255319149
3.9421052631578988
-4.077127659574469
11.218421052631584
-1.8058510638297873
5.618421052631575
1.4707446808510642
4.6421052631578945
5.64095744680851
7.976315789473681
2.2712765957446805
11.181578947368422
-5.473404255319149
3.9421052631578988
-4.077127659574469
11.218421052631584
-1.8058510638297873
5.618421052631575
0.2420212765957439
5.065789473684212
5.64095744680851
7.976315789473681
2.2712765957446805
11.181578947368422
-5.473404255319149
3.9421052631578988
-4.077127659574469
11.218421052631584
-1.3218085106382977
5.784210526315789
0.14893617021276562
5.102631578947367
5.64095744680851
7.976315789473681
2.159574468085106
11.292105263157893
-5.473404255319149
3.9421052631578988
-4.077127659574469
11.218421052631584
-1.3590425531914896
5.876315789473686
0.11170212765957377
5.102631578947367
5.64095744680851
7.976315789473681
2.085106382978722
11.236842105263158
-5.473404255319149
3.9421052631578988
-4.077127659574469
11.218421052631584
-1.3962765957446814
5.968421052631584
0.07446808510638281
5.065789473684212
5.64095744680851
7.976315789473681
1.8617021276595747
11.163157894736841
-5.473404255319149
3.9421052631578988
-4.077127659574469
11.218421052631584
-1.4707446808510642
6.226315789473681
0.0
5.0473684210526315
5.64095744680851
7.976315789473681
1.6569148936170208
11.05263157894737
-5.473404255319149
3.9421052631578988
-4.077127659574469
11.218421052631584
-1.5265957446808516
6.428947368421056
-0.27925531914893664
4.93684210526316
5.64095744680851
7.976315789473681
1.452127659574467
10.92368421052631
-5.473404255319149
3.9421052631578988
-4.077127659574469
11.218421052631584
-1.582446808510639
6.649999999999999
-0.4654255319148941
4.863157894736844
5.64095744680851
7.976315789473681
0.9308510638297864
10.59210526315789
-5.473404255319149
3.9421052631578988
-4.077127659574469
11.218421052631584
-1.7686170212765964
7.184210526315788
-0.6888297872340425
4.752631578947366
5.64095744680851
7.976315789473681
0.29787234042553123
10.131578947368425
-5.473404255319149
3.9421052631578988
-4.077127659574469
11.218421052631584
-1.917553191489362
7.534210526315789
-1.2659574468085113
4.531578947368416
5.64095744680851
7.976315789473681
0.0
9.910526315789475
-5.473404255319149
3.9421052631578988
-4.077127659574469
11.218421052631584
-2.047872340425532
7.8842105263157904
-1.6010638297872344
4.402631578947371
5.64095744680851
7.976315789473681
-0.6515957446808516
9.449999999999996
-5.473404255319149
3.9421052631578988
-4.077127659574469
11.218421052631584
-2.2712765957446814
8.584210526315786
-2.289893617021277
4.14473684210526
5.64095744680851
7.976315789473681
-0.9680851063829792
9.17368421052631
-5.473404255319149
3.9421052631578988
-4.077127659574469
11.218421052631584
-2.3457446808510642
8.952631578947368
-2.6436170212765964
4.015789473684208
5.64095744680851
7.976315789473681
-1.5638297872340425
8.676315789473684
-5.473404255319149
3.9421052631578988
-4.077127659574469
11.218421052631584
-2.457446808510639
9.542105263157893
-2.9414893617021276
3.886842105263156
5.64095744680851
7.976315789473681
-1.8244680851063828
8.41842105263158
-5.473404255319149
3.9421052631578988
-4.077127659574469
11.218421052631584
-2.49468085106383
9.800000000000004
-3.5
3.665789473684214
5.64095744680851
7.976315789473681
-2.3643617021276597
7.902631578947371
-5.473404255319149
3.9421052631578988
-4.077127659574469
11.218421052631584
-2.5132978723404253
10.057894736842101
-3.742021276595745
3.610526315789471
5.64095744680851
7.976315789473681
-2.5691489361702127
7.718421052631584
-5.473404255319149
3.9421052631578988
-4.077127659574469
11.218421052631584
-2.550531914893617
10.27894736842105
-4.11436170212766
3.536842105263162
5.64095744680851
7.976315789473681
-2.8484042553191493
7.386842105263156
-5.473404255319149
3.9421052631578988
-4.077127659574469
11.218421052631584
-2.6063829787234045
10.647368421052633
-4.263297872340425
3.481578947368419
5.64095744680851
7.976315789473681
-2.960106382978724
7.221052631578949
-5.473404255319149
3.9421052631578988
-4.077127659574469
11.218421052631584
-2.625
10.81315789473684
-4.3563829787234045
3.4447368421052644
5.64095744680851
7.976315789473681
-3.127659574468085
7.0
-5.473404255319149
3.9421052631578988
-4.077127659574469
11.218421052631584
-2.6436170212765964
10.978947368421053
-4.3563829787234045
3.4447368421052644
5.64095744680851
7.976315789473681
-3.220744680851064
6.871052631578948
-5.473404255319149
3.9421052631578988
-4.077127659574469
11.218421052631584
-2.6436170212765964
11.107894736842105
-4.3563829787234045
3.4447368421052644
5.64095744680851
7.976315789473681
-3.220744680851064
6.871052631578948
-5.473404255319149
3.9421052631578988
-4.077127659574469
11.218421052631584
-2.662234042553192
11.310526315789474
