45
12
0.8005319148936163
4.752631578947366
0.42819148936170137
11.623684210526314
-5.585106382978724
7.589473684210525
6.404255319148936
9.007894736842104
-2.420212765957447
12.102631578947374
0.4654255319148932
5.157894736842103
0.912234042553191
4.752631578947366
0.42819148936170137
11.623684210526314
-5.585106382978724
7.589473684210525
6.404255319148936
9.007894736842104
-2.420212765957447
12.102631578947374
0.4654255319148932
5.157894736842103
1.0611702127659566
4.844736842105263
0.42819148936170137
11.623684210526314
-5.585106382978724
7.589473684210525
6.404255319148936
9.007894736842104
-2.420212765957447
12.102631578947374
0.4654255319148932
5.157894736842103
1.0611702127659566
4.844736842105263
0.27925531914893575
11.660526315789475
-5.585106382978724
7.589473684210525
6.404255319148936
9.007894736842104
-2.420212765957447
12.102631578947374
-0.09308510638297918
5.157894736842103
1.0611702127659566
4.844736842105263
0.2420212765957439
11.660526315789475
-5.529255319148936
7.773684210526319
6.404255319148936
9.007894736842104
-2.420212765957447
12.102631578947374
-0.22340425531914931
5.231578947368419
1.0611702127659566
4.844736842105263
0.1675531914893611
11.678947368421056
-5.417553191489362
7.902631578947371
6.404255319148936
9.007894736842104
-2.420212765957447
12.102631578947374
-0.33510638297872397
5.268421052631581
1.0611702127659566
4.844736842105263
0.13031914893617014
11.715789473684211
-5.287234042553192
8.10526315789474
6.404255319148936
9.007894736842104
-2.420212765957447
12.102631578947374
-0.44680851063829863
5.286842105263162
1.0611702127659566
4.844736842105263
0.05585106382978733
11.771052631578947
-5.138297872340425
8.32631578947369
6.404255319148936
9.007894736842104
-2.420212765957447
12.102631578947374
-0.6143617021276597
5.342105263157897
1.0611702127659566
4.844736842105263
-0.13031914893617014
11.899999999999999
-4.710106382978724
8.897368421052633
6.404255319148936
9.007894736842104
-2.420212765957447
12.102631578947374
-0.8191489361702127
5.397368421052633
1.0611702127659566
4.844736842105263
-0.26063829787234116
11.992105263157896
-4.523936170212766
9.17368421052631
6.404255319148936
9.007894736842104
-2.420212765957447
12.102631578947374
-1.2845744680851068
5.526315789473685
1.0611702127659566
4.844736842105263
-0.5957446808510642
12.213157894736845
-4.263297872340425
9.652631578947371
6.404255319148936
9.007894736842104
-2.420212765957447
12.102631578947374
-1.545212765957447
5.618421052631575
1.0611702127659566
4.844736842105263
-0.8005319148936172
12.34210526315789
-4.151595744680851
9.85526315789474
6.404255319148936
9.007894736842104
-2.420212765957447
12.102631578947374
-1.7686170212765964
5.692105263157899
1.0611702127659566
4.844736842105263
-1.210106382978724
12.544736842105266
-3.9840425531914896
10.18684210526316
6.404255319148936
9.007894736842104
-2.420212765957447
12.102631578947374
-2.159574468085107
5.876315789473686
1.0611702127659566
4.844736842105263
-1.414893617021277
12.636842105263156
-3.890957446808511
10.334210526315786
6.404255319148936
9.007894736842104
-2.420212765957447
12.102631578947374
-2.327127659574468
5.968421052631584
1.0611702127659566
4.844736842105263
-1.8989361702127665
12.747368421052634
-3.8164893617021276
10.444736842105264
6.404255319148936
9.007894736842104
-2.420212765957447
12.102631578947374
-2.4760638297872344
6.060526315789474
1.0611702127659566
4.844736842105263
-2.159574468085107
12.784210526315789
-3.667553191489362
10.573684210526316
6.404255319148936
9.007894736842104
-2.420212765957447
12.102631578947374
-2.792553191489362
6.226315789473681
1.0611702127659566
4.844736842105263
-2.625
12.80263157894737
-3.6117021276595747
10.610526315789471
6.404255319148936
9.007894736842104
-2.420212765957447
12.102631578947374
-2.9042553191489366
6.300000000000004
1.0611702127659566
4.844736842105263
-2.829787234042554
12.784210526315789
-3.6117021276595747
10.610526315789471
6.404255319148936
9.007894736842104
-2.420212765957447
12.102631578947374
-2.960106382978724
6.336842105263159
1.0611702127659566
4.844736842105263
-3.220744680851064
12.636842105263156
-3.6117021276595747
10.610526315789471
6.404255319148936
9.007894736842104
-2.420212765957447
12.102631578947374
-2.9787234042553195
6.35526315789474
1.0611702127659566
4.844736842105263
-3.4069148936170213
12.507894736842104
-3.6117021276595747
10.610526315789471
6.404255319148936
9.007894736842104
-2.420212765957447
12.102631578947374
-2.9787234042553195
6.35526315789474
1.0611702127659566
4.844736842105263
-3.779255319148936
12.231578947368419
-3.6117021276595747
10.610526315789471
6.404255319148936
9.007894736842104
-2.420212765957447
12.102631578947374
-2.9787234042553195
6.35526315789474
1.0611702127659566
4.844736842105263
-4.132978723404255
11.844736842105263
-3.6117021276595747
10.610526315789471
6.404255319148936
9.007894736842104
-2.420212765957447
12.102631578947374
-2.9787234042553195
6.35526315789474
1.0611702127659566
4.844736842105263
-4.486702127659575
11.38421052631579
-3.6117021276595747
10.610526315789471
6.404255319148936
9.007894736842104
-2.420212765957447
12.102631578947374
-2.9787234042553195
6.35526315789474
1.0611702127659566
4.844736842105263
-4.747340425531915
10.905263157894737
-3.6117021276595747
10.610526315789471
6.404255319148936
9.007894736842104
-2.420212765957447
12.102631578947374
-2.9787234042553195
6.35526315789474
1.0611702127659566
4.844736842105263
-4.952127659574469
10.444736842105264
-3.6117021276595747
10.610526315789471
6.404255319148936
9.007894736842104
-2.420212765957447
12.102631578947374
-2.9787234042553195
6.35526315789474
1.0611702127659566
4.844736842105263
-5.026595744680851
10.18684210526316
-3.6117021276595747
10.610526315789471
6.404255319148936
9.007894736842104
-2.420212765957447
12.102631578947374
-2.9787234042553195
6.35526315789474
1.0611702127659566
4.844736842105263
-5.156914893617021
9.800000000000004
-3.6117021276595747
10.610526315789471
6.404255319148936
9.007894736842104
-2.420212765957447
12.102631578947374
-2.9787234042553195
6.35526315789474
1.0611702127659566
4.844736842105263
-5.212765957446809
9.486842105263158
-3.6117021276595747
10.610526315789471
6.404255319148936
9.007894736842104
-2.420212765957447
12.102631578947374
-2.9787234042553195
6.35526315789474
1.0611702127659566
4.844736842105263
-5.212765957446809
9.376315789473686
-3.6117021276595747
10.610526315789471
6.404255319148936
9.007894736842104
-2.420212765957447
12.102631578947374
-2.9787234042553195
6.35526315789474
1.0611702127659566
4.844736842105263
-5.212765957446809
9.284210526315789
-3.6117021276595747
10.610526315789471
6.404255319148936
9.007894736842104
-2.420212765957447
12.102631578947374
-2.9787234042553195
6.35526315789474
-0.9308510638297873
5.80263157894737
-5.212765957446809
9.284210526315789
-3.6117021276595747
10.610526315789471
6.404255319148936
9.007894736842104
-2.420212765957447
12.102631578947374
-2.9787234042553195
6.35526315789474
-0.9308510638297873
5.80263157894737
-5.212765957446809
9.284210526315789
-3.6117021276595747
10.610526315789471
6.404255319148936
9.007894736842104
-2.420212765957447
12.102631578947374
-2.9787234042553195
6.35526315789474
-0.9867021276595747
5.968421052631584
-5.212765957446809
9.284210526315789
-3.6117021276595747
10.610526315789471
6.404255319148936
9.007894736842104
-2.420212765957447
12.102631578947374
-2.9787234042553195
6.35526315789474
-1.0239361702127665
5.9868421052631575
-5.212765957446809
9.284210526315789
-3.6117021276595747
10.610526315789471
6.404255319148936
9.007894736842104
-2.420212765957447
12.102631578947374
-2.9787234042553195
6.35526315789474
-1.2845744680851068
6.189473684210526
-5.212765957446809
9.284210526315789
-3.6117021276595747
10.610526315789471
6.404255319148936
9.007894736842104
-2.420212765957447
12.102631578947374
-2.9787234042553195
6.35526315789474
-1.5265957446808516
6.35526315789474
-5.212765957446809
9.284210526315789
-3.6117021276595747
10.610526315789471
6.404255319148936
9.007894736842104
-2.420212765957447
12.102631578947374
-2.9787234042553195
6.35526315789474
-1.8803191489361701
6.539473684210527
-5.212765957446809
9.284210526315789
-3.6117021276595747
10.610526315789471
6.404255319148936
9.007894736842104
-2.420212765957447
12.102631578947374
-2.9787234042553195
6.35526315789474
-2.252659574468085
6.723684210526315
-5.212765957446809
9.284210526315789
-3.6117021276595747
10.610526315789471
6.404255319148936
9.007894736842104
-2.420212765957447
12.102631578947374
-2.9787234042553195
6.35526315789474
-2.4388297872340425
6.852631578947374
-5.212765957446809
9.284210526315789
-3.6117021276595747
10.610526315789471
6.404255319148936
9.007894736842104
-2.420212765957447
12.102631578947374
-2.9787234042553195
6.35526315789474
-3.5744680851063833
7.571052631578951
-5.212765957446809
9.284210526315789
-3.6117021276595747
10.610526315789471
6.404255319148936
9.007894736842104
-2.420212765957447
12.102631578947374
-2.9787234042553195
6.35526315789474
-3.872340425531915
7.792105263157893
-5.212765957446809
9.284210526315789
-3.6117021276595747
10.610526315789471
6.404255319148936
9.007894736842104
-2.420212765957447
12.102631578947374
-2.9787234042553195
6.35526315789474
-4.151595744680851
8.031578947368416
-5.212765957446809
9.284210526315789
-3.6117021276595747
10.610526315789471
6.404255319148936
9.007894736842104
-2.420212765957447
12.102631578947374
-2.9787234042553195
6.35526315789474
-4.226063829787234
8.10526315789474
-5.212765957446809
9.284210526315789
-3.6117021276595747
10.610526315789471
6.404255319148936
9.007894736842104
-2.420212765957447
12.102631578947374
-2.9787234042553195
6.35526315789474
-4.337765957446809
8.215789473684211
-5.212765957446809
9.284210526315789
-3.6117021276595747
10.610526315789471
6.404255319148936
9.007894736842104
-2.420212765957447
12.102631578947374
-2.9787234042553195
6.35526315789474
-4.412234042553191
8.271052631578954
-5.212765957446809
9.284210526315789
-3.6117021276595747
10.610526315789471
6.404255319148936
9.007894736842104
-2.420212765957447
12.102631578947374
-2.9787234042553195
6.35526315789474
