48
12
-4.170212765957447
5.5815789473684205
-6.180851063829787
7.368421052631575
-5.156914893617021
12.47105263157895
4.319148936170212
8.307894736842101
4.449468085106382
11.531578947368416
-3.2393617021276597
11.236842105263158
-4.170212765957447
5.5815789473684205
-6.180851063829787
7.368421052631575
-5.156914893617021
12.47105263157895
4.319148936170212
8.307894736842101
4.449468085106382
11.531578947368416
-3.2393617021276597
11.236842105263158
-4.170212765957447
5.5815789473684205
-6.180851063829787
7.368421052631575
-5.156914893617021
12.47105263157895
4.226063829787234
8.381578947368425
4.449468085106382
11.531578947368416
-3.2393617021276597
11.236842105263158
-4.170212765957447
5.5815789473684205
-6.180851063829787
7.368421052631575
-5.156914893617021
12.34210526315789
4.207446808510637
8.381578947368425
4.449468085106382
11.531578947368416
-3.2393617021276597
11.236842105263158
-4.170212765957447
5.5815789473684205
-6.180851063829787
7.368421052631575
-5.156914893617021
12.25
4.151595744680851
8.41842105263158
4.449468085106382
11.531578947368416
-3.2393617021276597
11.236842105263158
-4.170212765957447
5.5815789473684205
-6.180851063829787
7.368421052631575
-5.156914893617021
12.139473684210529
4.132978723404255
8.455263157894734
4.449468085106382
11.531578947368416
-3.2393617021276597
11.236842105263158
-4.170212765957447
5.5815789473684205
-6.180851063829787
7.368421052631575
-5.156914893617021
11.863157894736844
4.039893617021276
8.547368421052632
4.449468085106382
11.531578947368416
-3.2393617021276597
11.236842105263158
-4.170212765957447
5.5815789473684205
-6.180851063829787
7.368421052631575
-5.156914893617021
11.69736842105263
3.9840425531914896
8.621052631578948
4.449468085106382
11.531578947368416
-3.2393617021276597
11.236842105263158
-4.170212765957447
5.5815789473684205
-6.180851063829787
7.368421052631575
-5.101063829787234
11.292105263157893
3.9281914893617014
8.713157894736838
4.449468085106382
11.531578947368416
-3.2393617021276597
11.236842105263158
-4.170212765957447
5.5815789473684205
-6.180851063829787
7.368421052631575
-5.045212765957447
11.071052631578944
3.7234042553191493
8.952631578947368
4.449468085106382
11.531578947368416
-3.2393617021276597
11.236842105263158
-4.170212765957447
5.5815789473684205
-6.180851063829787
7.368421052631575
-4.914893617021277
10.573684210526316
3.537234042553191
9.118421052631575
4.449468085106382
11.531578947368416
-3.2393617021276597
11.236842105263158
-4.170212765957447
5.5815789473684205
-6.180851063829787
7.368421052631575
-4.821808510638299
10.334210526315786
3.164893617021276
9.486842105263158
4.449468085106382
11.531578947368416
-3.2393617021276597
11.236842105263158
-4.170212765957447
5.5815789473684205
-6.180851063829787
7.368421052631575
-4.542553191489362
9.800000000000004
2.6808510638297864
9.873684210526314
4.449468085106382
11.531578947368416
-3.2393617021276597
11.236842105263158
-4.170212765957447
5.5815789473684205
-6.180851063829787
7.368421052631575
-4.412234042553191
9.542105263157893
2.457446808510637
10.039473684210527
4.449468085106382
11.531578947368416
-3.2393617021276597
11.236842105263158
-4.170212765957447
5.5815789473684205
-6.180851063829787
7.368421052631575
-4.132978723404255
9.06315789473684
1.8803191489361701
10.40789473684211
4.449468085106382
11.531578947368416
-3.2393617021276597
11.236842105263158
-4.170212765957447
5.5815789473684205
-6.180851063829787
7.368421052631575
-3.946808510638298
8.805263157894736
1.6382978723404253
10.555263157894736
4.449468085106382
11.531578947368416
-3.2393617021276597
11.236842105263158
-4.170212765957447
5.5815789473684205
-6.180851063829787
7.368421052631575
-3.5744680851063833
8.381578947368425
1.1170212765957448
10.794736842105266
4.449468085106382
11.531578947368416
-3.2393617021276597
11.236842105263158
-4.170212765957447
5.5815789473684205
-6.180851063829787
7.368421052631575
-3.425531914893617
8.178947368421056
0.8563829787234036
10.886842105263156
4.449468085106382
11.531578947368416
-3.2393617021276597
11.236842105263158
-4.170212765957447
5.5815789473684205
-6.180851063829787
7.368421052631575
-3.034574468085107
7.755263157894738
0.3909574468085104
11.05263157894737
4.449468085106382
11.531578947368416
-3.2393617021276597
11.236842105263158
-4.170212765957447
5.5815789473684205
-6.180851063829787
7.368421052631575
-2.867021276595745
7.589473684210525
-0.0744680851063837
11.218421052631584
4.449468085106382
11.531578947368416
-3.2393617021276597
11.236842105263158
-4.170212765957447
5.5815789473684205
-6.180851063829787
7.368421052631575
-2.5319148936170217
7.276315789473685
-0.44680851063829863
11.36578947368421
4.449468085106382
11.531578947368416
-3.2393617021276597
11.236842105263158
-4.170212765957447
5.5815789473684205
-6.180851063829787
7.368421052631575
-2.327127659574468
7.110526315789471
-0.670212765957447
11.439473684210526
4.449468085106382
11.531578947368416
-3.2393617021276597
11.236842105263158
-4.170212765957447
5.5815789473684205
-6.180851063829787
7.368421052631575
-1.917553191489362
6.7973684210526315
-1.042553191489362
11.586842105263159
4.449468085106382
11.531578947368416
-3.2393617021276597
11.236842105263158
-4.170212765957447
5.5815789473684205
-6.180851063829787
7.368421052631575
-1.75
6.68684210526316
-1.210106382978724
11.642105263157895
4.449468085106382
11.531578947368416
-3.2393617021276597
11.236842105263158
-4.170212765957447
5.5815789473684205
-6.180851063829787
7.368421052631575
-1.377659574468085
6.44736842105263
-1.6010638297872344
11.752631578947366
4.449468085106382
11.531578947368416
-3.2393617021276597
11.236842105263158
-4.170212765957447
5.5815789473684205
-6.180851063829787
7.368421052631575
-1.1914893617021276
6.336842105263159
-1.8058510638297873
11.807894736842101
4.449468085106382
11.531578947368416
-3.2393617021276597
11.236842105263158
-4.170212765957447
5.5815789473684205
-6.180851063829787
7.368421052631575
-0.875
6.152631578947371
-2.122340425531915
11.93684210526316
4.449468085106382
11.531578947368416
-3.2393617021276597
11.236842105263158
-4.170212765957447
5.5815789473684205
-6.180851063829787
7.368421052631575
-0.7446808510638299
6.060526315789474
-2.289893617021277
11.973684210526315
4.449468085106382
11.531578947368416
-3.2393617021276597
11.236842105263158
-4.170212765957447
5.5815789473684205
-6.180851063829787
7.368421052631575
-0.4095744680851068
5.913157894736841
-2.6436170212765964
12.102631578947374
4.449468085106382
11.531578947368416
-3.2393617021276597
11.236842105263158
-4.170212765957447
5.5815789473684205
-6.180851063829787
7.368421052631575
-0.26063829787234116
5.876315789473686
-2.792553191489362
12.176315789473684
4.449468085106382
11.531578947368416
-3.2393617021276597
11.236842105263158
-4.170212765957447
5.5815789473684205
-6.180851063829787
7.368421052631575
0.03723404255319096
5.80263157894737
-3.0904255319148937
12.323684210526316
4.449468085106382
11.531578947368416
-3.2393617021276597
11.236842105263158
-4.170212765957447
5.5815789473684205
-6.180851063829787
7.368421052631575
0.13031914893617014
5.765789473684208
-3.276595744680851
12.37894736842106
4.449468085106382
11.531578947368416
-3.2393617021276597
11.236842105263158
-4.170212765957447
5.5815789473684205
-6.180851063829787
7.368421052631575
0.13031914893617014
5.765789473684208
-3.667553191489362
12.507894736842104
4.449468085106382
11.531578947368416
-3.2393617021276597
11.236842105263158
-4.170212765957447
5.5815789473684205
-6.180851063829787
7.368421052631575
0.13031914893617014
5.765789473684208
-3.8351063829787235
12.56315789473684
4.449468085106382
11.531578947368416
-3.2393617021276597
11.236842105263158
-4.170212765957447
5.5815789473684205
-6.180851063829787
7.368421052631575
0.13031914893617014
5.765789473684208
-4.24468085106383
12.67368421052631
4.449468085106382
11.531578947368416
-3.2393617021276597
11.236842105263158
-4.170212765957447
5.5815789473684205
-6.180851063829787
7.368421052631575
0.13031914893617014
5.765789473684208
-4.430851063829787
12.728947368421053
4.449468085106382
11.531578947368416
-3.2393617021276597
11.236842105263158
-4.170212765957447
5.5815789473684205
-6.180851063829787
7.368421052631575
0.13031914893617014
5.765789473684208
-4.821808510638299
12.80263157894737
4.449468085106382
11.531578947368416
-3.2393617021276597
11.236842105263158
-4.170212765957447
5.5815789473684205
-6.180851063829787
7.368421052631575
0.13031914893617014
5.765789473684208
-5.212765957446809
12.857894736842105
4.449468085106382
11.531578947368416
-3.2393617021276597
11.236842105263158
-4.170212765957447
5.5815789473684205
-6.180851063829787
7.368421052631575
0.13031914893617014
5.765789473684208
-5.361702127659575
12.89473684210526
4.449468085106382
11.531578947368416
-3.2393617021276597
11.236842105263158
-4.170212765957447
5.5815789473684205
-6.180851063829787
7.368421052631575
0.13031914893617014
5.765789473684208
-5.529255319148936
12.931578947368422
4.449468085106382
11.531578947368416
-3.2393617021276597
11.236842105263158
-4.170212765957447
5.5815789473684205
-6.180851063829787
7.368421052631575
0.13031914893617014
5.765789473684208
-5.566489361702128
12.931578947368422
4.449468085106382
11.531578947368416
-3.2393617021276597
11.236842105263158
-4.132978723404255
6.815789473684212
-6.180851063829787
7.368421052631575
0.13031914893617014
5.765789473684208
-5.566489361702128
12.931578947368422
4.449468085106382
11.531578947368416
-3.2393617021276597
11.236842105263158
-4.095744680851064
6.815789473684212
-6.180851063829787
7.368421052631575
0.13031914893617014
5.765789473684208
-5.566489361702128
12.931578947368422
4.449468085106382
11.531578947368416
-3.2393617021276597
11.236842105263158
-3.946808510638298
6.778947368421051
-6.180851063829787
7.368421052631575
0.13031914893617014
5.765789473684208
-5.566489361702128
12.931578947368422
4.449468085106382
11.531578947368416
-3.2393617021276597
11.236842105263158
-3.8351063829787235
6.760526315789477
-6.180851063829787
7.368421052631575
0.13031914893617014
5.765789473684208
-5.566489361702128
12.931578947368422
4.449468085106382
11.531578947368416
-3.2393617021276597
11.236842105263158
-3.4813829787234045
6.631578947368425
-6.180851063829787
7.368421052631575
0.13031914893617014
5.765789473684208
-5.566489361702128
12.931578947368422
4.449468085106382
11.531578947368416
-3.2393617021276597
11.236842105263158
-3.2579787234042556
6.557894736842101
-6.180851063829787
7.368421052631575
0.13031914893617014
5.765789473684208
-5.566489361702128
12.931578947368422
4.449468085106382
11.531578947368416
-3.2393617021276597
11.236842105263158
-2.625
6.35526315789474
-6.180851063829787
7.368421052631575
0.13031914893617014
5.765789473684208
-5.566489361702128
12.931578947368422
4.449468085106382
11.531578947368416
-3.2393617021276597
11.236842105263158
