85
12
2.122340425531915
5.655263157894737
0.44680851063829774
6.244736842105269
5.305851063829786
9.707894736842107
-2.4760638297872344
11.642105263157895
3.3138297872340416
11.93684210526316
-4.430851063829787
9.800000000000004
2.122340425531915
5.655263157894737
0.44680851063829774
6.244736842105269
5.25
9.892105263157895
-2.4015957446808516
11.82631578947369
3.2207446808510625
12.065789473684205
-4.375
9.94736842105263
2.122340425531915
5.655263157894737
0.44680851063829774
6.244736842105269
5.2313829787234045
9.984210526315792
-2.3085106382978724
11.881578947368425
3.1835106382978715
12.121052631578948
-4.337765957446809
10.039473684210527
2.122340425531915
5.655263157894737
0.44680851063829774
6.244736842105269
5.194148936170212
10.205263157894741
-2.1968085106382977
11.955263157894734
3.127659574468085
12.176315789473684
-4.24468085106383
10.297368421052632
2.122340425531915
5.655263157894737
0.44680851063829774
6.244736842105269
5.156914893617021
10.389473684210529
-2.0106382978723403
12.102631578947374
3.0904255319148923
12.231578947368419
-4.170212765957447
10.59210526315789
2.122340425531915
5.655263157894737
0.44680851063829774
6.244736842105269
5.11968085106383
10.555263157894736
-1.917553191489362
12.176315789473684
3.0159574468085104
12.360526315789471
-4.11436170212766
10.739473684210523
2.122340425531915
5.655263157894737
0.44680851063829774
6.244736842105269
4.952127659574467
10.868421052631575
-1.6196808510638299
12.305263157894736
2.960106382978722
12.452631578947368
-4.0212765957446805
10.868421052631575
2.122340425531915
5.655263157894737
0.44680851063829774
6.244736842105269
4.803191489361701
11.034210526315789
-1.4335106382978724
12.360526315789471
2.9042553191489358
12.526315789473685
-3.8537234042553195
11.089473684210525
2.122340425531915
5.655263157894737
0.44680851063829774
6.244736842105269
4.50531914893617
11.38421052631579
-1.0984042553191493
12.544736842105266
2.829787234042552
12.636842105263156
-3.797872340425532
11.199999999999996
2.122340425531915
5.655263157894737
0.44680851063829774
6.244736842105269
4.375
11.550000000000004
-0.9308510638297873
12.58157894736842
2.8111702127659566
12.67368421052631
-3.742021276595745
11.27368421052632
2.122340425531915
5.655263157894737
0.44680851063829774
6.244736842105269
4.11436170212766
11.881578947368425
-0.4654255319148941
12.710526315789473
2.792553191489361
12.710526315789473
-3.648936170212766
11.402631578947371
2.122340425531915
5.655263157894737
0.44680851063829774
6.244736842105269
3.909574468085106
12.02894736842105
-0.2978723404255321
12.765789473684208
2.7367021276595747
12.765789473684208
-3.5930851063829787
11.47631578947368
2.122340425531915
5.655263157894737
0.44680851063829774
6.244736842105269
3.5558510638297864
12.305263157894736
0.03723404255319096
12.839473684210525
2.699468085106382
12.784210526315789
-3.5558510638297873
11.568421052631578
2.122340425531915
5.655263157894737
0.44680851063829774
6.244736842105269
3.4255319148936163
12.37894736842106
0.2606382978723403
12.876315789473686
2.662234042553191
12.821052631578944
-3.537234042553192
11.60526315789474
2.122340425531915
5.655263157894737
0.44680851063829774
6.244736842105269
3.071808510638297
12.507894736842104
0.5957446808510634
12.89473684210526
2.6063829787234045
12.821052631578944
-3.518617021276596
11.642105263157895
2.122340425531915
5.655263157894737
0.44680851063829774
6.244736842105269
2.867021276595745
12.56315789473684
0.707446808510638
12.89473684210526
2.6063829787234045
12.821052631578944
-3.5
11.678947368421056
2.122340425531915
5.655263157894737
0.44680851063829774
6.244736842105269
2.5877659574468073
12.692105263157899
1.042553191489361
12.89473684210526
2.5877659574468073
12.821052631578944
-3.5
11.734210526315792
2.122340425531915
5.655263157894737
0.44680851063829774
6.244736842105269
2.457446808510637
12.747368421052634
1.247340425531915
12.857894736842105
2.569148936170212
12.821052631578944
-3.5
11.752631578947366
2.122340425531915
5.655263157894737
0.44680851063829774
6.244736842105269
2.0664893617021267
12.80263157894737
1.5452127659574462
12.821052631578944
2.6063829787234045
12.784210526315789
-3.5
11.752631578947366
2.122340425531915
5.655263157894737
0.44680851063829774
6.244736842105269
1.8803191489361701
12.839473684210525
1.6755319148936163
12.784210526315789
2.6063829787234045
12.784210526315789
-3.4813829787234045
11.752631578947366
2.122340425531915
5.655263157894737
0.44680851063829774
6.244736842105269
1.5824468085106371
12.913157894736841
2.085106382978722
12.710526315789473
2.6063829787234045
12.784210526315789
-3.4813829787234045
11.752631578947366
2.122340425531915
5.655263157894737
0.44680851063829774
6.244736842105269
1.3404255319148923
12.913157894736841
2.2712765957446805
12.655263157894737
2.6063829787234045
12.784210526315789
-3.4813829787234045
11.752631578947366
2.122340425531915
5.655263157894737
0.44680851063829774
6.244736842105269
0.8936170212765955
12.949999999999996
2.5877659574468073
12.526315789473685
2.6063829787234045
12.784210526315789
-3.4813829787234045
11.752631578947366
2.122340425531915
5.655263157894737
0.44680851063829774
6.244736842105269
0.6702127659574462
12.968421052631584
2.792553191489361
12.452631578947368
2.6063829787234045
12.784210526315789
-3.4813829787234045
11.752631578947366
2.122340425531915
5.655263157894737
0.44680851063829774
6.244736842105269
0.18617021276595747
12.986842105263158
3.202127659574467
12.360526315789471
2.6063829787234045
12.784210526315789
-3.4813829787234045
11.752631578947366
2.122340425531915
5.655263157894737
0.44680851063829774
6.244736842105269
-0.03723404255319185
12.986842105263158
3.5558510638297864
12.213157894736845
2.6063829787234045
12.784210526315789
-3.4813829787234045
11.752631578947366
2.122340425531915
5.655263157894737
0.44680851063829774
6.244736842105269
-0.5398936170212769
12.986842105263158
3.9654255319148923
12.02894736842105
2.6063829787234045
12.784210526315789
-3.4813829787234045
11.752631578947366
2.122340425531915
5.655263157894737
0.44680851063829774
6.244736842105269
-0.7632978723404262
12.949999999999996
4.11436170212766
11.899999999999999
2.6063829787234045
12.784210526315789
-3.4813829787234045
11.752631578947366
2.122340425531915
5.655263157894737
0.44680851063829774
6.244736842105269
-1.2287234042553195
12.931578947368422
4.468085106382977
11.60526315789474
2.6063829787234045
12.784210526315789
-3.4813829787234045
11.752631578947366
2.122340425531915
5.655263157894737
0.44680851063829774
6.244736842105269
-1.4893617021276597
12.913157894736841
4.672872340425531
11.457894736842107
2.6063829787234045
12.784210526315789
-3.4813829787234045
11.752631578947366
2.122340425531915
5.655263157894737
0.44680851063829774
6.244736842105269
-1.8989361702127665
12.89473684210526
4.98936170212766
11.163157894736841
2.6063829787234045
12.784210526315789
-3.4813829787234045
11.752631578947366
2.122340425531915
5.655263157894737
0.44680851063829774
6.244736842105269
-2.159574468085107
12.89473684210526
5.11968085106383
10.978947368421053
2.6063829787234045
12.784210526315789
-3.4813829787234045
11.752631578947366
2.122340425531915
5.655263157894737
0.44680851063829774
6.244736842105269
-2.587765957446809
12.821052631578944
5.398936170212766
10.647368421052633
2.6063829787234045
12.784210526315789
-3.4813829787234045
11.752631578947366
2.122340425531915
5.655263157894737
0.44680851063829774
6.244736842105269
-2.75531914893617
12.784210526315789
5.566489361702127
10.5
2.6063829787234045
12.784210526315789
-3.4813829787234045
11.752631578947366
2.122340425531915
5.655263157894737
0.44680851063829774
6.244736842105269
-3.2393617021276597
12.710526315789473
5.8085106382978715
10.16842105263158
2.6063829787234045
12.784210526315789
-3.4813829787234045
11.752631578947366
2.122340425531915
5.655263157894737
0.44680851063829774
6.244736842105269
-3.4069148936170213
12.655263157894737
5.901595744680851
10.021052631578947
2.6063829787234045
12.784210526315789
-3.4813829787234045
11.752631578947366
2.122340425531915
5.655263157894737
0.44680851063829774
6.244736842105269
-3.6861702127659575
12.544736842105266
6.031914893617021
9.707894736842107
2.6063829787234045
12.784210526315789
-3.4813829787234045
11.752631578947366
2.122340425531915
5.655263157894737
0.44680851063829774
6.244736842105269
-3.872340425531915
12.452631578947368
6.069148936170212
9.578947368421055
2.6063829787234045
12.784210526315789
-3.4813829787234045
11.752631578947366
2.122340425531915
5.655263157894737
0.44680851063829774
6.244736842105269
-4.207446808510639
12.286842105263155
6.1436170212765955
9.431578947368422
2.6063829787234045
12.784210526315789
-3.4813829787234045
11.752631578947366
2.122340425531915
5.655263157894737
0.44680851063829774
6.244736842105269
-4.337765957446809
12.213157894736845
6.1436170212765955
9.431578947368422
2.6063829787234045
12.784210526315789
-3.4813829787234045
11.752631578947366
2.122340425531915
5.655263157894737
0.44680851063829774
6.244736842105269
-4.5611702127659575
11.955263157894734
6.1436170212765955
9.431578947368422
2.6063829787234045
12.784210526315789
-3.4813829787234045
11.752631578947366
2.122340425531915
5.655263157894737
0.44680851063829774
6.244736842105269
-4.710106382978724
11.752631578947366
6.1436170212765955
9.431578947368422
2.6063829787234045
12.784210526315789
-3.4813829787234045
11.752631578947366
2.122340425531915
5.655263157894737
0.44680851063829774
6.244736842105269
-5.026595744680851
11.421052631578945
6.1436170212765955
9.431578947368422
2.6063829787234045
12.784210526315789
-3.4813829787234045
11.752631578947366
2.122340425531915
5.655263157894737
0.44680851063829774
6.244736842105269
-5.138297872340425
11.255263157894738
6.1436170212765955
9.431578947368422
2.6063829787234045
12.784210526315789
-3.4813829787234045
11.752631578947366
2.122340425531915
5.655263157894737
0.44680851063829774
6.244736842105269
-5.343085106382979
10.868421052631575
6.1436170212765955
9.431578947368422
2.6063829787234045
12.784210526315789
-3.4813829787234045
11.752631578947366
2.122340425531915
5.655263157894737
0.44680851063829774
6.244736842105269
-5.454787234042553
10.647368421052633
6.1436170212765955
9.431578947368422
2.6063829787234045
12.784210526315789
-3.4813829787234045
11.752631578947366
2.122340425531915
5.655263157894737
0.44680851063829774
6.244736842105269
-5.659574468085106
10.297368421052632
6.1436170212765955
9.431578947368422
2.6063829787234045
12.784210526315789
-3.4813829787234045
11.752631578947366
2.122340425531915
5.655263157894737
0.44680851063829774
6.244736842105269
-5.7712765957446805
10.094736842105263
6.1436170212765955
9.431578947368422
2.6063829787234045
12.784210526315789
-3.4813829787234045
11.752631578947366
2.122340425531915
5.655263157894737
0.44680851063829774
6.244736842105269
-5.9388297872340425
9.72631578947368
6.1436170212765955
9.431578947368422
2.6063829787234045
12.784210526315789
-3.4813829787234045
11.752631578947366
2.122340425531915
5.655263157894737
0.44680851063829774
6.244736842105269
-5.99468085106383
9.597368421052629
6.1436170212765955
9.431578947368422
2.6063829787234045
12.784210526315789
-3.4813829787234045
11.752631578947366
2.122340425531915
5.655263157894737
0.44680851063829774
6.244736842105269
-6.1063829787234045
9.339473684210525
6.1436170212765955
9.431578947368422
2.6063829787234045
12.784210526315789
-3.4813829787234045
11.752631578947366
2.122340425531915
5.655263157894737
0.44680851063829774
6.244736842105269
-6.1436170212765955
9.265789473684208
6.1436170212765955
9.431578947368422
2.6063829787234045
12.784210526315789
-3.4813829787234045
11.752631578947366
2.122340425531915
5.655263157894737
0.44680851063829774
6.244736842105269
-6.1436170212765955
9.17368421052631
6.1436170212765955
9.431578947368422
2.6063829787234045
12.784210526315789
-3.4813829787234045
11.752631578947366
2.122340425531915
5.655263157894737
0.44680851063829774
6.244736842105269
-6.162234042553192
9.118421052631575
6.1436170212765955
9.431578947368422
2.6063829787234045
12.784210526315789
-3.4813829787234045
11.752631578947366
1.8430851063829792
5.7289473684210535
0.44680851063829774
6.244736842105269
-6.162234042553192
9.118421052631575
6.1436170212765955
9.431578947368422
2.6063829787234045
12.784210526315789
-3.4813829787234045
11.752631578947366
1.824468085106382
5.747368421052634
0.44680851063829774
6.244736842105269
-6.162234042553192
9.118421052631575
6.1436170212765955
9.431578947368422
2.6063829787234045
12.784210526315789
-3.4813829787234045
11.752631578947366
1.787234042553191
5.765789473684208
0.44680851063829774
6.244736842105269
-6.162234042553192
9.118421052631575
6.1436170212765955
9.431578947368422
2.6063829787234045
12.784210526315789
-3.4813829787234045
11.752631578947366
1.6755319148936163
5.876315789473686
0.44680851063829774
6.244736842105269
-6.162234042553192
9.118421052631575
6.1436170212765955
9.431578947368422
2.6063829787234045
12.784210526315789
-3.4813829787234045
11.752631578947366
1.6196808510638299
5.931578947368422
0.44680851063829774
6.244736842105269
-6.162234042553192
9.118421052631575
6.1436170212765955
9.431578947368422
2.6063829787234045
12.784210526315789
-3.4813829787234045
11.752631578947366
1.3962765957446805
6.023684210526319
0.44680851063829774
6.244736842105269
-6.162234042553192
9.118421052631575
6.1436170212765955
9.431578947368422
2.6063829787234045
12.784210526315789
-3.4813829787234045
11.752631578947366
1.1356382978723403
6.1157894736842096
0.44680851063829774
6.244736842105269
-6.162234042553192
9.118421052631575
6.1436170212765955
9.431578947368422
2.6063829787234045
12.784210526315789
-3.4813829787234045
11.752631578947366
0.912234042553191
6.207894736842107
0.44680851063829774
6.244736842105269
-6.162234042553192
9.118421052631575
6.1436170212765955
9.431578947368422
2.6063829787234045
12.784210526315789
-3.4813829787234045
11.752631578947366
0.7260638297872335
6.300000000000004
0.44680851063829774
6.244736842105269
-6.162234042553192
9.118421052631575
6.1436170212765955
9.431578947368422
2.6063829787234045
12.784210526315789
-3.4813829787234045
11.752631578947366
0.18617021276595747
6.502631578947366
0.44680851063829774
6.244736842105269
-6.162234042553192
9.118421052631575
6.1436170212765955
9.431578947368422
2.6063829787234045
12.784210526315789
-3.4813829787234045
11.752631578947366
-0.09308510638297918
6.613157894736844
0.44680851063829774
6.244736842105269
-6.162234042553192
9.118421052631575
6.1436170212765955
9.431578947368422
2.6063829787234045
12.784210526315789
-3.4813829787234045
11.752631578947366
-0.7260638297872344
6.852631578947374
0.44680851063829774
6.244736842105269
-6.162234042553192
9.118421052631575
6.1436170212765955
9.431578947368422
2.6063829787234045
12.784210526315789
-3.4813829787234045
11.752631578947366
-1.0053191489361701
7.018421052631581
0.44680851063829774
6.244736842105269
-6.162234042553192
9.118421052631575
6.1436170212765955
9.431578947368422
2.6063829787234045
12.784210526315789
-3.4813829787234045
11.752631578947366
-1.6941489361702127
7.350000000000001
0.44680851063829774
6.244736842105269
-6.162234042553192
9.118421052631575
6.1436170212765955
9.431578947368422
2.6063829787234045
12.784210526315789
-3.4813829787234045
11.752631578947366
-2.382978723404255
7.64473684210526
0.44680851063829774
6.244736842105269
-6.162234042553192
9.118421052631575
6.1436170212765955
9.431578947368422
2.6063829787234045
12.784210526315789
-3.4813829787234045
11.752631578947366
-2.662234042553192
7.810526315789474
0.44680851063829774
6.244736842105269
-6.162234042553192
9.118421052631575
6.1436170212765955
9.431578947368422
2.6063829787234045
12.784210526315789
-3.4813829787234045
11.752631578947366
-2.9414893617021276
7.939473684210526
0.44680851063829774
6.244736842105269
-6.162234042553192
9.118421052631575
6.1436170212765955
9.431578947368422
2.6063829787234045
12.784210526315789
-3.4813829787234045
11.752631578947366
-3.4813829787234045
8.160526315789475
0.44680851063829774
6.244736842105269
-6.162234042553192
9.118421052631575
6.1436170212765955
9.431578947368422
2.6063829787234045
12.784210526315789
-3.4813829787234045
11.752631578947366
-3.7234042553191493
8.252631578947366
0.44680851063829774
6.244736842105269
-6.162234042553192
9.118421052631575
6.1436170212765955
9.431578947368422
2.6063829787234045
12.784210526315789
-3.4813829787234045
11.752631578947366
-4.170212765957447
8.363157894736844
0.44680851063829774
6.244736842105269
-6.162234042553192
9.118421052631575
6.1436170212765955
9.431578947368422
2.6063829787234045
12.784210526315789
-3.4813829787234045
11.752631578947366
-4.375
8.43684210526316
0.44680851063829774
6.244736842105269
-6.162234042553192
9.118421052631575
6.1436170212765955
9.431578947368422
2.6063829787234045
12.784210526315789
-3.4813829787234045
11.752631578947366
-4.598404255319149
8.547368421052632
0.44680851063829774
6.244736842105269
-6.162234042553192
9.118421052631575
6.1436170212765955
9.431578947368422
2.6063829787234045
12.784210526315789
-3.4813829787234045
11.752631578947366
-4.691489361702128
8.565789473684212
0.44680851063829774
6.244736842105269
-6.162234042553192
9.118421052631575
6.1436170212765955
9.431578947368422
2.6063829787234045
12.784210526315789
-3.4813829787234045
11.752631578947366
-4.747340425531915
8.584210526315786
0.44680851063829774
6.244736842105269
-6.162234042553192
9.118421052631575
6.1436170212765955
9.431578947368422
2.6063829787234045
12.784210526315789
-3.4813829787234045
11.752631578947366
-4.747340425531915
8.584210526315786
0.44680851063829774
6.244736842105269
-6.162234042553192
9.118421052631575
6.1436170212765955
9.431578947368422
2.6063829787234045
12.784210526315789
-3.36968085106383
11.863157894736844
-4.747340425531915
8.584210526315786
0.44680851063829774
6.244736842105269
-6.162234042553192
9.118421052631575
6.1436170212765955
9.431578947368422
2.6063829787234045
12.784210526315789
-3.2393617021276597
11.93684210526316
-4.747340425531915
8.584210526315786
0.44680851063829774
6.244736842105269
-6.162234042553192
9.118421052631575
6.1436170212765955
9.431578947368422
2.6063829787234045
12.784210526315789
-3.146276595744681
12.02894736842105
-4.747340425531915
8.584210526315786
0.44680851063829774
6.244736842105269
-6.162234042553192
9.118421052631575
6.1436170212765955
9.431578947368422
2.6063829787234045
12.784210526315789
-2.8484042553191493
12.268421052631581
-4.747340425531915
8.584210526315786
0.44680851063829774
6.244736842105269
-6.162234042553192
9.118421052631575
6.1436170212765955
9.431578947368422
2.6063829787234045
12.784210526315789
-2.457446808510639
12.452631578947368
-4.747340425531915
8.584210526315786
0.44680851063829774
6.244736842105269
-6.162234042553192
9.118421052631575
6.1436170212765955
9.431578947368422
2.6063829787234045
12.784210526315789
-2.2712765957446814
12.58157894736842
-4.747340425531915
8.584210526315786
0.44680851063829774
6.244736842105269
-6.162234042553192
9.118421052631575
6.1436170212765955
9.431578947368422
2.6063829787234045
12.784210526315789
-1.7686170212765964
12.747368421052634
